UID,PID,%usr,%system,%guest,%wait,%CPU,Command
1000.00,1251.00,0.10,0.00,0.00,0.00,0.10,containerd
1000.00,2048877.00,1.13,1.37,0.00,0.00,2.50,containerd-shim
1000.00,1122.00,11.92,10.05,0.00,0.00,21.97,dockerd
1000.00,373228.00,0.10,0.00,0.00,0.00,0.10,gnome-terminal-
0.00,2048556.00,0.00,0.10,0.00,0.23,0.10,kworker/0:4-events
0.00,2564443.00,0.00,0.17,0.00,0.27,0.17,kworker/1:0-events
0.00,1680177.00,0.00,0.13,0.00,0.23,0.13,kworker/2:0-events
0.00,2048867.00,0.00,0.17,0.00,0.37,0.17,kworker/3:0-events
0.00,3139149.00,0.00,0.10,0.00,0.00,0.10,kworker/u16:2-events_power_efficient