0.00864005088806
0.0172510147095
0.00838494300842
0.00798392295837
0.0114049911499
0.00826406478882
0.0095911026001
0.171319007874
0.0106739997864
0.101320028305
0.0105030536652
0.00773906707764
0.00778007507324
0.00764322280884
0.255511045456
0.00899600982666
0.00773096084595
0.00788879394531
0.18487906456
0.00857090950012
0.0076699256897
0.00768399238586
0.151502132416
0.0102460384369
0.007737159729
0.00812816619873
0.181349039078
0.00996494293213
0.00764799118042
0.0080099105835
0.197139024734
0.00917816162109
0.00768089294434
0.00857996940613
0.0160341262817
0.00878405570984
0.00840997695923
0.00986695289612
0.118559122086
0.0127050876617
0.00818610191345
0.00927495956421
0.00865912437439
0.0101790428162
0.158234119415
0.00769996643066
0.00773000717163
0.0149359703064
0.00942492485046
0.00804710388184
0.00945687294006
0.010409116745
0.106952905655
0.00831294059753
0.00837779045105
0.00861001014709
0.0101909637451
0.166374921799
0.00913906097412
0.00774502754211
0.0120861530304
0.00864696502686
0.00879311561584
0.00897908210754
0.00948810577393
0.111433029175
0.00969314575195
0.00907588005066
0.00831699371338
0.00935387611389
0.170490026474
0.0110478401184
0.0090639591217
0.00914192199707
0.011736869812
0.00885605812073
0.0088050365448
0.0095009803772
0.00927901268005
0.107223987579
0.00876784324646
0.0090320110321
0.00837707519531
0.0103139877319
0.167294979095
0.00818586349487
0.00779604911804
0.0104629993439
0.0153641700745
0.00902700424194
0.0080509185791
0.00816297531128
0.119411945343
0.012748003006
0.00837206840515
0.0078501701355
0.0097279548645
0.15774512291
0.00894594192505
0.00954699516296
