PASS_1: test,name,baseline,result,index
Execl Throughput,Execl,43.0,2087.5,485.5
File Copy 1024 bufsize 2000 maxblocks,File Copy 1024/2000,3960.0,190720.6,481.6
Process Creation,Process Creation,126.0,4754.5,377.3
Shell Scripts (1 concurrent),Shell Scripts 1,42.4,3550.4,837.4
System Benchmarks Index Score,Overall,,,521.3

PASS_1: test,name,baseline,result,index
Execl Throughput,Execl,43.0,2093.8,486.9
File Copy 1024 bufsize 2000 maxblocks,File Copy 1024/2000,3960.0,189409.1,478.3
Process Creation,Process Creation,126.0,4759.4,377.7
Shell Scripts (1 concurrent),Shell Scripts 1,42.4,3574.0,842.9
System Benchmarks Index Score,Overall,,,521.8

PASS_1: test,name,baseline,result,index
Execl Throughput,Execl,43.0,2085.9,485.1
File Copy 1024 bufsize 2000 maxblocks,File Copy 1024/2000,3960.0,186323.0,470.5
Process Creation,Process Creation,126.0,4808.0,381.6
Shell Scripts (1 concurrent),Shell Scripts 1,42.4,3548.0,836.8
System Benchmarks Index Score,Overall,,,519.6

AVG: test,name,baseline,result,index
Execl Throughput,Execl,43.0,2089.07,485.83
File Copy 1024 bufsize 2000 maxblocks,File Copy 1024/2000,3960.0,188817.57,476.80
Process Creation,Process Creation,126.0,4773.97,378.87
Shell Scripts (1 concurrent),Shell Scripts 1,42.4,3557.47,839.03
System Benchmarks Index Score,Overall,,,520.90