PASS_1: test,name,baseline,result,index
Execl Throughput,Execl,43.0,2194.5,510.3
File Copy 1024 bufsize 2000 maxblocks,File Copy 1024/2000,3960.0,188547.0,476.1
Process Creation,Process Creation,126.0,4846.1,384.6
Shell Scripts (1 concurrent),Shell Scripts 1,42.4,3926.5,926.1
System Benchmarks Index Score,Overall,,,542.4

PASS_1: test,name,baseline,result,index
Execl Throughput,Execl,43.0,2199.7,511.6
File Copy 1024 bufsize 2000 maxblocks,File Copy 1024/2000,3960.0,188791.4,476.7
Process Creation,Process Creation,126.0,4826.1,383.0
Shell Scripts (1 concurrent),Shell Scripts 1,42.4,3927.2,926.2
System Benchmarks Index Score,Overall,,,542.4

PASS_1: test,name,baseline,result,index
Execl Throughput,Execl,43.0,2198.3,511.2
File Copy 1024 bufsize 2000 maxblocks,File Copy 1024/2000,3960.0,188295.3,475.5
Process Creation,Process Creation,126.0,4853.1,385.2
Shell Scripts (1 concurrent),Shell Scripts 1,42.4,3929.3,926.7
System Benchmarks Index Score,Overall,,,542.7

AVG: test,name,baseline,result,index
Execl Throughput,Execl,43.0,2197.50,511.03
File Copy 1024 bufsize 2000 maxblocks,File Copy 1024/2000,3960.0,188544.57,476.10
Process Creation,Process Creation,126.0,4841.77,384.27
Shell Scripts (1 concurrent),Shell Scripts 1,42.4,3927.67,926.33
System Benchmarks Index Score,Overall,,,542.50