0.00379490852356
0.00469207763672
0.0722880363464
0.0298659801483
0.184429168701
0.0333921909332
0.0168559551239
0.192852973938
0.0204210281372
0.0257840156555
0.173928976059
0.0210471153259
0.0305759906769
0.0226159095764
0.23370885849
0.0184481143951
0.0224602222443
0.0252258777618
0.218476057053
0.0259220600128
0.0239329338074
0.0251240730286
0.0290310382843
0.0212750434875
0.213676929474
0.0910339355469
0.0789880752563
0.051931142807
0.0483949184418
0.107459068298
0.0487430095673
0.060891866684
0.0452618598938
0.0487539768219
0.0572600364685
0.0489120483398
0.0489001274109
0.0475180149078
0.0549740791321
0.0466620922089
0.0450592041016
0.046884059906
0.0465259552002
0.0451529026031
0.0467569828033
0.0449118614197
0.046648979187
0.0483009815216
0.0449941158295
0.0469169616699
0.0464088916779
0.0451800823212
0.0715291500092
0.0478391647339
0.0458409786224
0.112900018692
0.0435199737549
0.0485119819641
0.0473840236664
0.0491549968719
0.0486581325531
0.0491230487823
0.0471110343933
0.0488710403442
0.0490839481354
0.048721075058
0.0489039421082
0.0488431453705
0.0490190982819
0.0497899055481
0.0482249259949
0.0466430187225
0.0481839179993
0.0482699871063
0.0481700897217
0.0482139587402
0.046550989151
0.0712809562683
0.0334670543671
0.0498149394989
0.071151971817
0.0418879985809
0.0466530323029
0.0651080608368
0.0479509830475
0.048201084137
0.0481941699982
0.0482618808746
0.0465910434723
0.048189163208
0.0496401786804
0.0482969284058
0.0481150150299
0.0465741157532
0.0938320159912
0.0442640781403
0.0482311248779
0.0482680797577
0.0481281280518
0.0466620922089
