Linux 4.19.128-microsoft-standard (Babita-pc) 	11/26/20 	_x86_64_	(4 CPU)

13:13:03     CPU    %usr   %nice    %sys %iowait    %irq   %soft  %steal  %guest  %gnice   %idle
13:13:08     all   20.79    0.00   13.13    1.52    0.00    3.33    0.00    0.00    0.00   61.23
13:13:08       0   73.00    0.00   27.00    0.00    0.00    0.00    0.00    0.00    0.00    0.00
13:13:08       1    3.69    0.00    9.49    2.28    0.00    9.31    0.00    0.00    0.00   75.22
13:13:08       2    5.61    0.00    7.93    0.97    0.00    1.93    0.00    0.00    0.00   83.56
13:13:08       3    4.26    0.00    8.91    2.71    0.00    1.36    0.00    0.00    0.00   82.75

13:13:08     CPU    %usr   %nice    %sys %iowait    %irq   %soft  %steal  %guest  %gnice   %idle
13:13:13     all   19.80    0.00   13.79    2.45    0.00    2.11    0.00    0.00    0.00   61.85
13:13:13       0   71.00    0.00   28.80    0.00    0.00    0.20    0.00    0.00    0.00    0.00
13:13:13       1    3.70    0.00    8.15    2.41    0.00    5.56    0.00    0.00    0.00   80.19
13:13:13       2    3.40    0.00   11.51    3.21    0.00    0.94    0.00    0.00    0.00   80.94
13:13:13       3    3.72    0.00    7.44    4.11    0.00    1.57    0.00    0.00    0.00   83.17

13:13:13     CPU    %usr   %nice    %sys %iowait    %irq   %soft  %steal  %guest  %gnice   %idle
13:13:18     all   20.59    0.00   12.46    0.94    0.00    3.64    0.00    0.00    0.00   62.37
13:13:18       0   76.20    0.00   23.80    0.00    0.00    0.00    0.00    0.00    0.00    0.00
13:13:18       1    3.32    0.00    8.03    0.17    0.00   10.30    0.00    0.00    0.00   78.18
13:13:18       2    4.02    0.00    8.41    0.00    0.00    2.49    0.00    0.00    0.00   85.09
13:13:18       3    2.87    0.00   10.54    3.64    0.00    0.96    0.00    0.00    0.00   81.99

13:13:18     CPU    %usr   %nice    %sys %iowait    %irq   %soft  %steal  %guest  %gnice   %idle
13:13:23     all   21.33    0.00    9.80    1.44    0.00    3.94    0.00    0.00    0.00   63.50
13:13:23       0   78.80    0.00   21.00    0.00    0.00    0.20    0.00    0.00    0.00    0.00
13:13:23       1    2.82    0.00    4.75    5.11    0.00   13.03    0.00    0.00    0.00   74.30
13:13:23       2    2.54    0.00    8.40    0.00    0.00    1.17    0.00    0.00    0.00   87.89
13:13:23       3    4.18    0.00    5.78    0.20    0.00    0.20    0.00    0.00    0.00   89.64

13:13:23     CPU    %usr   %nice    %sys %iowait    %irq   %soft  %steal  %guest  %gnice   %idle
13:13:28     all   22.01    0.00   10.46    0.84    0.00    3.80    0.00    0.00    0.00   62.88
13:13:28       0   80.40    0.00   19.60    0.00    0.00    0.00    0.00    0.00    0.00    0.00
13:13:28       1    2.55    0.00    8.67    1.53    0.00   11.22    0.00    0.00    0.00   76.02
13:13:28       2    5.16    0.00    6.31    0.76    0.00    2.49    0.00    0.00    0.00   85.28
13:13:28       3    4.81    0.00    7.88    0.96    0.00    0.38    0.00    0.00    0.00   85.96

Average:     CPU    %usr   %nice    %sys %iowait    %irq   %soft  %steal  %guest  %gnice   %idle
Average:     all   20.91    0.00   11.93    1.44    0.00    3.37    0.00    0.00    0.00   62.36
Average:       0   75.88    0.00   24.04    0.00    0.00    0.08    0.00    0.00    0.00    0.00
Average:       1    3.21    0.00    7.82    2.29    0.00    9.94    0.00    0.00    0.00   76.74
Average:       2    4.15    0.00    8.52    1.00    0.00    1.80    0.00    0.00    0.00   84.53
Average:       3    3.97    0.00    8.13    2.33    0.00    0.89    0.00    0.00    0.00   84.68
Linux 4.19.128-microsoft-standard (Babita-pc) 	11/26/20 	_x86_64_	(4 CPU)

13:13:32     CPU    %usr   %nice    %sys %iowait    %irq   %soft  %steal  %guest  %gnice   %idle
13:13:37     all   21.50    0.00    9.00    1.39    0.00    4.07    0.00    0.00    0.00   64.03
13:13:37       0   82.20    0.00   17.80    0.00    0.00    0.00    0.00    0.00    0.00    0.00
13:13:37       1    1.90    0.00    5.53    3.28    0.00   13.64    0.00    0.00    0.00   75.65
13:13:37       2    2.20    0.00    6.19    0.00    0.00    1.00    0.00    0.00    0.00   90.62
13:13:37       3    3.15    0.00    7.09    1.97    0.00    0.20    0.00    0.00    0.00   87.60

13:13:37     CPU    %usr   %nice    %sys %iowait    %irq   %soft  %steal  %guest  %gnice   %idle
13:13:42     all   21.14    0.00    9.30    1.12    0.00    2.48    0.00    0.00    0.00   65.95
13:13:42       0   80.84    0.00   18.76    0.00    0.00    0.20    0.00    0.00    0.00    0.20
13:13:42       1    2.91    0.00    6.36    0.18    0.00    7.09    0.00    0.00    0.00   83.45
13:13:42       2    1.60    0.00    5.20    3.60    0.00    1.60    0.00    0.00    0.00   88.00
13:13:42       3    1.00    0.00    7.17    0.80    0.00    0.60    0.00    0.00    0.00   90.44

13:13:42     CPU    %usr   %nice    %sys %iowait    %irq   %soft  %steal  %guest  %gnice   %idle
13:13:47     all   20.76    0.00   10.01    1.22    0.00    2.34    0.00    0.00    0.00   65.66
13:13:47       0   77.35    0.00   20.84    0.00    0.00    1.80    0.00    0.00    0.00    0.00
13:13:47       1    1.70    0.00    6.24    0.95    0.00    5.29    0.00    0.00    0.00   85.82
13:13:47       2    2.18    0.00    5.35    3.76    0.00    1.78    0.00    0.00    0.00   86.93
13:13:47       3    3.70    0.00    7.98    0.19    0.00    0.39    0.00    0.00    0.00   87.74

13:13:47     CPU    %usr   %nice    %sys %iowait    %irq   %soft  %steal  %guest  %gnice   %idle
13:13:52     all   21.52    0.00    8.44    1.15    0.00    3.98    0.00    0.00    0.00   64.91
13:13:52       0   83.80    0.00   16.20    0.00    0.00    0.00    0.00    0.00    0.00    0.00
13:13:52       1    2.49    0.00    5.51    1.78    0.00   10.30    0.00    0.00    0.00   79.93
13:13:52       2    1.52    0.00    7.02    2.66    0.00    4.36    0.00    0.00    0.00   84.44
13:13:52       3    1.61    0.00    5.44    0.00    0.00    0.40    0.00    0.00    0.00   92.54

13:13:52     CPU    %usr   %nice    %sys %iowait    %irq   %soft  %steal  %guest  %gnice   %idle
13:13:57     all   21.21    0.00    9.12    0.96    0.00    3.31    0.00    0.00    0.00   65.40
13:13:57       0   81.20    0.00   18.80    0.00    0.00    0.00    0.00    0.00    0.00    0.00
13:13:57       1    1.45    0.00    4.70    0.90    0.00   10.49    0.00    0.00    0.00   82.46
13:13:57       2    2.49    0.00    7.09    0.00    0.00    2.11    0.00    0.00    0.00   88.31
13:13:57       3    2.95    0.00    6.48    2.95    0.00    0.00    0.00    0.00    0.00   87.62

Average:     CPU    %usr   %nice    %sys %iowait    %irq   %soft  %steal  %guest  %gnice   %idle
Average:     all   21.23    0.00    9.17    1.17    0.00    3.24    0.00    0.00    0.00   65.19
Average:       0   81.08    0.00   18.48    0.00    0.00    0.40    0.00    0.00    0.00    0.04
Average:       1    2.09    0.00    5.66    1.44    0.00    9.44    0.00    0.00    0.00   81.36
Average:       2    2.00    0.00    6.18    2.00    0.00    2.19    0.00    0.00    0.00   87.63
Average:       3    2.49    0.00    6.84    1.19    0.00    0.32    0.00    0.00    0.00   89.17
Linux 4.19.128-microsoft-standard (Babita-pc) 	11/26/20 	_x86_64_	(4 CPU)

13:15:18     CPU    %usr   %nice    %sys %iowait    %irq   %soft  %steal  %guest  %gnice   %idle
13:15:23     all   21.08    0.00    9.38    1.35    0.00    3.22    0.00    0.00    0.00   64.97
13:15:23       0   80.40    0.00   19.60    0.00    0.00    0.00    0.00    0.00    0.00    0.00
13:15:23       1    1.61    0.00    5.36    3.21    0.00   10.71    0.00    0.00    0.00   79.11
13:15:23       2    3.85    0.00    6.74    1.16    0.00    0.96    0.00    0.00    0.00   87.28
13:15:23       3    1.40    0.00    6.41    0.80    0.00    0.40    0.00    0.00    0.00   90.98

13:15:23     CPU    %usr   %nice    %sys %iowait    %irq   %soft  %steal  %guest  %gnice   %idle
13:15:28     all   19.43    0.00   10.27    0.39    0.00    3.91    0.00    0.00    0.00   66.01
13:15:28       0   74.20    0.00   25.60    0.00    0.00    0.20    0.00    0.00    0.00    0.00
13:15:28       1    1.94    0.00    5.64    0.71    0.00   11.29    0.00    0.00    0.00   80.42
13:15:28       2    2.37    0.00    5.52    0.00    0.00    1.78    0.00    0.00    0.00   90.34
13:15:28       3    1.80    0.00    5.00    0.80    0.00    1.40    0.00    0.00    0.00   91.00

13:15:28     CPU    %usr   %nice    %sys %iowait    %irq   %soft  %steal  %guest  %gnice   %idle
13:15:33     all   20.53    0.00   10.55    1.73    0.00    2.88    0.00    0.00    0.00   64.32
13:15:33       0   80.80    0.00   18.80    0.00    0.00    0.40    0.00    0.00    0.00    0.00
13:15:33       1    1.64    0.00    7.64    1.45    0.00    7.09    0.00    0.00    0.00   82.18
13:15:33       2    1.52    0.00    8.54    0.00    0.00    3.04    0.00    0.00    0.00   86.91
13:15:33       3    1.38    0.00    7.68    5.51    0.00    0.59    0.00    0.00    0.00   84.84

13:15:33     CPU    %usr   %nice    %sys %iowait    %irq   %soft  %steal  %guest  %gnice   %idle
13:15:38     all   20.90    0.00    9.80    0.86    0.00    3.44    0.00    0.00    0.00   64.99
13:15:38       0   79.60    0.00   20.40    0.00    0.00    0.00    0.00    0.00    0.00    0.00
13:15:38       1    1.77    0.00    6.03    0.00    0.00   10.46    0.00    0.00    0.00   81.74
13:15:38       2    3.29    0.00    5.43    2.52    0.00    2.52    0.00    0.00    0.00   86.24
13:15:38       3    2.35    0.00    8.02    0.98    0.00    0.00    0.00    0.00    0.00   88.65

13:15:38     CPU    %usr   %nice    %sys %iowait    %irq   %soft  %steal  %guest  %gnice   %idle
13:15:43     all   20.23    0.00   10.62    1.34    0.00    3.16    0.00    0.00    0.00   64.66
13:15:43       0   76.20    0.00   23.80    0.00    0.00    0.00    0.00    0.00    0.00    0.00
13:15:43       1    2.32    0.00    5.88    0.00    0.00    9.63    0.00    0.00    0.00   82.17
13:15:43       2    3.44    0.00    7.27    1.34    0.00    1.53    0.00    0.00    0.00   86.42
13:15:43       3    2.17    0.00    6.31    4.14    0.00    0.79    0.00    0.00    0.00   86.59

Average:     CPU    %usr   %nice    %sys %iowait    %irq   %soft  %steal  %guest  %gnice   %idle
Average:     all   20.43    0.00   10.13    1.13    0.00    3.32    0.00    0.00    0.00   64.99
Average:       0   78.24    0.00   21.64    0.00    0.00    0.12    0.00    0.00    0.00    0.00
Average:       1    1.86    0.00    6.10    1.07    0.00    9.85    0.00    0.00    0.00   81.12
Average:       2    2.89    0.00    6.71    1.00    0.00    1.97    0.00    0.00    0.00   87.42
Average:       3    1.82    0.00    6.69    2.46    0.00    0.63    0.00    0.00    0.00   88.40
