no_compitition	CPU (Events / s)	Memory (MB / s)	I/O Read (MB /s)	I/O Write (MB /s)
pass_1	734.93	2118.79	45.74	7.16
pass_2	736.08	2118.69	368.31	6.91
pass_3	735.41	2118.59	522.66	7.99
pass_4	735.33	2118.72	521.97	6.64
pass_5	736.03	2119.54	524.72	10.46
pass_6	735.32	2118.19	303.88	6.59
Avg	735.52	2118.75	381.21	7.62