Linux 4.19.128-microsoft-standard (Babita-pc) 	11/26/20 	_x86_64_	(4 CPU)

14:34:21     CPU    %usr   %nice    %sys %iowait    %irq   %soft  %steal  %guest  %gnice   %idle
14:34:26     all    3.41    0.00    7.26    0.15    0.00    0.79    0.00    0.00    0.00   88.39
14:34:26       0    8.12    0.00   18.61    0.00    0.00    0.00    0.00    0.00    0.00   73.27
14:34:26       1    1.17    0.00    3.33    0.59    0.00    2.74    0.00    0.00    0.00   92.17
14:34:26       2    2.18    0.00    3.37    0.00    0.00    0.40    0.00    0.00    0.00   94.05
14:34:26       3    2.18    0.00    3.77    0.00    0.00    0.00    0.00    0.00    0.00   94.05

14:34:26     CPU    %usr   %nice    %sys %iowait    %irq   %soft  %steal  %guest  %gnice   %idle
14:34:31     all    3.56    0.00    7.37    0.94    0.00    0.30    0.00    0.00    0.00   87.83
14:34:31       0    9.62    0.00   16.03    0.00    0.00    0.00    0.00    0.00    0.00   74.35
14:34:31       1    1.96    0.00    3.73    0.20    0.00    0.79    0.00    0.00    0.00   93.32
14:34:31       2    0.98    0.00    6.27    3.14    0.00    0.20    0.00    0.00    0.00   89.41
14:34:31       3    1.79    0.00    3.58    0.40    0.00    0.20    0.00    0.00    0.00   94.04

14:34:31     CPU    %usr   %nice    %sys %iowait    %irq   %soft  %steal  %guest  %gnice   %idle
14:34:36     all    3.75    0.00    7.40    0.64    0.00    0.44    0.00    0.00    0.00   87.77
14:34:36       0   10.14    0.00   15.71    0.00    0.00    0.20    0.00    0.00    0.00   73.96
14:34:36       1    1.39    0.00    3.96    2.38    0.00    0.59    0.00    0.00    0.00   91.68
14:34:36       2    1.55    0.00    6.01    0.19    0.00    0.78    0.00    0.00    0.00   91.47
14:34:36       3    1.98    0.00    3.97    0.00    0.00    0.20    0.00    0.00    0.00   93.85

14:34:36     CPU    %usr   %nice    %sys %iowait    %irq   %soft  %steal  %guest  %gnice   %idle
14:34:41     all    3.60    0.00    7.25    0.84    0.00    0.59    0.00    0.00    0.00   87.72
14:34:41       0   10.16    0.00   15.94    1.20    0.00    0.20    0.00    0.00    0.00   72.51
14:34:41       1    1.37    0.00    3.72    0.59    0.00    1.76    0.00    0.00    0.00   92.56
14:34:41       2    2.18    0.00    3.56    1.58    0.00    0.40    0.00    0.00    0.00   92.28
14:34:41       3    0.79    0.00    5.89    0.00    0.00    0.00    0.00    0.00    0.00   93.32

14:34:41     CPU    %usr   %nice    %sys %iowait    %irq   %soft  %steal  %guest  %gnice   %idle
14:34:46     all    3.79    0.00    7.14    0.98    0.00    0.74    0.00    0.00    0.00   87.35
14:34:46       0   12.03    0.00   14.20    0.00    0.00    0.79    0.00    0.00    0.00   72.98
14:34:46       1    1.16    0.00    4.46    1.94    0.00    1.74    0.00    0.00    0.00   90.70
14:34:46       2    0.40    0.00    4.42    1.00    0.00    0.20    0.00    0.00    0.00   93.98
14:34:46       3    1.57    0.00    5.48    0.98    0.00    0.20    0.00    0.00    0.00   91.78

Average:     CPU    %usr   %nice    %sys %iowait    %irq   %soft  %steal  %guest  %gnice   %idle
Average:     all    3.62    0.00    7.28    0.71    0.00    0.57    0.00    0.00    0.00   87.81
Average:       0   10.02    0.00   16.10    0.24    0.00    0.24    0.00    0.00    0.00   73.41
Average:       1    1.41    0.00    3.84    1.14    0.00    1.53    0.00    0.00    0.00   92.08
Average:       2    1.46    0.00    4.74    1.18    0.00    0.39    0.00    0.00    0.00   92.22
Average:       3    1.66    0.00    4.54    0.28    0.00    0.12    0.00    0.00    0.00   93.40
Linux 4.19.128-microsoft-standard (Babita-pc) 	11/26/20 	_x86_64_	(4 CPU)

14:34:46     CPU    %usr   %nice    %sys %iowait    %irq   %soft  %steal  %guest  %gnice   %idle
14:34:51     all    4.88    0.00    5.82    0.94    0.00    0.59    0.00    0.00    0.00   87.78
14:34:51       0   15.45    0.00   10.69    0.00    0.00    0.20    0.00    0.00    0.00   73.66
14:34:51       1    0.98    0.00    3.91    0.98    0.00    1.96    0.00    0.00    0.00   92.17
14:34:51       2    1.97    0.00    3.94    2.76    0.00    0.20    0.00    0.00    0.00   91.12
14:34:51       3    1.19    0.00    4.74    0.00    0.00    0.00    0.00    0.00    0.00   94.07

14:34:51     CPU    %usr   %nice    %sys %iowait    %irq   %soft  %steal  %guest  %gnice   %idle
14:34:56     all    5.16    0.00    5.56    0.84    0.00    0.64    0.00    0.00    0.00   87.81
14:34:56       0   16.17    0.00   10.45    0.00    0.00    0.00    0.00    0.00    0.00   73.37
14:34:56       1    1.18    0.00    3.14    0.59    0.00    2.16    0.00    0.00    0.00   92.94
14:34:56       2    1.97    0.00    3.74    1.97    0.00    0.39    0.00    0.00    0.00   91.93
14:34:56       3    1.38    0.00    4.91    0.79    0.00    0.00    0.00    0.00    0.00   92.93

14:34:56     CPU    %usr   %nice    %sys %iowait    %irq   %soft  %steal  %guest  %gnice   %idle
14:35:01     all    4.79    0.00    5.72    1.53    0.00    0.39    0.00    0.00    0.00   87.57
14:35:01       0   15.08    0.00   11.11    0.00    0.00    0.00    0.00    0.00    0.00   73.81
14:35:01       1    0.78    0.00    4.48    0.19    0.00    1.56    0.00    0.00    0.00   92.98
14:35:01       2    1.20    0.00    3.59    0.20    0.00    0.00    0.00    0.00    0.00   95.02
14:35:01       3    2.17    0.00    3.74    5.71    0.00    0.00    0.00    0.00    0.00   88.39

14:35:01     CPU    %usr   %nice    %sys %iowait    %irq   %soft  %steal  %guest  %gnice   %idle
14:35:06     all    4.89    0.00    4.29    1.85    0.00    0.50    0.00    0.00    0.00   88.47
14:35:06       0   16.37    0.00    9.38    1.40    0.00    0.00    0.00    0.00    0.00   72.85
14:35:06       1    0.60    0.00    2.78    1.98    0.00    1.59    0.00    0.00    0.00   93.06
14:35:06       2    1.80    0.00    2.20    0.00    0.00    0.40    0.00    0.00    0.00   95.61
14:35:06       3    0.80    0.00    2.81    4.02    0.00    0.00    0.00    0.00    0.00   92.37

14:35:06     CPU    %usr   %nice    %sys %iowait    %irq   %soft  %steal  %guest  %gnice   %idle
14:35:11     all    4.50    0.00    5.39    0.69    0.00    0.59    0.00    0.00    0.00   88.83
14:35:11       0   15.05    0.00   10.89    0.00    0.00    0.40    0.00    0.00    0.00   73.66
14:35:11       1    0.00    0.00    2.98    0.00    0.00    1.39    0.00    0.00    0.00   95.63
14:35:11       2    1.58    0.00    3.16    0.00    0.00    0.59    0.00    0.00    0.00   94.66
14:35:11       3    1.38    0.00    4.52    2.75    0.00    0.00    0.00    0.00    0.00   91.36

Average:     CPU    %usr   %nice    %sys %iowait    %irq   %soft  %steal  %guest  %gnice   %idle
Average:     all    4.84    0.00    5.36    1.17    0.00    0.54    0.00    0.00    0.00   88.09
Average:       0   15.62    0.00   10.51    0.28    0.00    0.12    0.00    0.00    0.00   73.47
Average:       1    0.71    0.00    3.46    0.75    0.00    1.73    0.00    0.00    0.00   93.35
Average:       2    1.70    0.00    3.33    0.99    0.00    0.32    0.00    0.00    0.00   93.66
Average:       3    1.38    0.00    4.15    2.65    0.00    0.00    0.00    0.00    0.00   91.82
Linux 4.19.128-microsoft-standard (Babita-pc) 	11/26/20 	_x86_64_	(4 CPU)

14:35:11     CPU    %usr   %nice    %sys %iowait    %irq   %soft  %steal  %guest  %gnice   %idle
14:35:16     all    5.20    0.00    4.70    1.34    0.00    0.40    0.00    0.00    0.00   88.37
14:35:16       0   17.19    0.00    9.29    0.00    0.00    0.00    0.00    0.00    0.00   73.52
14:35:16       1    1.38    0.00    3.15    0.79    0.00    1.18    0.00    0.00    0.00   93.50
14:35:16       2    1.19    0.00    2.98    4.57    0.00    0.40    0.00    0.00    0.00   90.85
14:35:16       3    0.99    0.00    3.38    0.00    0.00    0.00    0.00    0.00    0.00   95.63

14:35:16     CPU    %usr   %nice    %sys %iowait    %irq   %soft  %steal  %guest  %gnice   %idle
14:35:21     all    4.89    0.00    4.84    1.19    0.00    0.79    0.00    0.00    0.00   88.29
14:35:21       0   16.80    0.00    8.80    0.00    0.00    0.00    0.00    0.00    0.00   74.40
14:35:21       1    0.39    0.00    4.45    2.13    0.00    2.13    0.00    0.00    0.00   90.91
14:35:21       2    1.59    0.00    3.17    2.58    0.00    0.40    0.00    0.00    0.00   92.26
14:35:21       3    0.99    0.00    2.98    0.00    0.00    0.60    0.00    0.00    0.00   95.43

14:35:21     CPU    %usr   %nice    %sys %iowait    %irq   %soft  %steal  %guest  %gnice   %idle
14:35:26     all    5.26    0.00    4.82    1.03    0.00    0.59    0.00    0.00    0.00   88.30
14:35:26       0   18.11    0.00    8.66    0.00    0.00    0.00    0.00    0.00    0.00   73.23
14:35:26       1    0.59    0.00    3.34    0.20    0.00    1.38    0.00    0.00    0.00   94.50
14:35:26       2    1.00    0.00    2.00    3.39    0.00    0.80    0.00    0.00    0.00   92.81
14:35:26       3    1.36    0.00    5.23    0.58    0.00    0.19    0.00    0.00    0.00   92.64

14:35:26     CPU    %usr   %nice    %sys %iowait    %irq   %soft  %steal  %guest  %gnice   %idle
14:35:31     all    5.37    0.00    4.53    0.94    0.00    0.69    0.00    0.00    0.00   88.48
14:35:31       0   17.37    0.00    8.38    0.00    0.00    0.00    0.00    0.00    0.00   74.25
14:35:31       1    1.34    0.00    3.83    0.00    0.00    2.68    0.00    0.00    0.00   92.15
14:35:31       2    2.39    0.00    1.79    1.39    0.00    0.00    0.00    0.00    0.00   94.42
14:35:31       3    0.59    0.00    4.15    2.37    0.00    0.00    0.00    0.00    0.00   92.89

14:35:31     CPU    %usr   %nice    %sys %iowait    %irq   %soft  %steal  %guest  %gnice   %idle
14:35:36     all    4.62    0.00    4.82    0.79    0.00    0.74    0.00    0.00    0.00   89.03
14:35:36       0   15.98    0.00   10.26    0.00    0.00    0.79    0.00    0.00    0.00   72.98
14:35:36       1    0.60    0.00    2.58    0.00    0.00    1.59    0.00    0.00    0.00   95.23
14:35:36       2    0.60    0.00    3.19    0.80    0.00    0.60    0.00    0.00    0.00   94.82
14:35:36       3    1.20    0.00    3.19    2.39    0.00    0.00    0.00    0.00    0.00   93.23

Average:     CPU    %usr   %nice    %sys %iowait    %irq   %soft  %steal  %guest  %gnice   %idle
Average:     all    5.07    0.00    4.74    1.06    0.00    0.64    0.00    0.00    0.00   88.49
Average:       0   17.09    0.00    9.08    0.00    0.00    0.16    0.00    0.00    0.00   73.67
Average:       1    0.86    0.00    3.48    0.63    0.00    1.80    0.00    0.00    0.00   93.24
Average:       2    1.35    0.00    2.63    2.55    0.00    0.44    0.00    0.00    0.00   93.03
Average:       3    1.03    0.00    3.79    1.07    0.00    0.16    0.00    0.00    0.00   93.95
Linux 4.19.128-microsoft-standard (Babita-pc) 	11/26/20 	_x86_64_	(4 CPU)

14:35:36     CPU    %usr   %nice    %sys %iowait    %irq   %soft  %steal  %guest  %gnice   %idle
14:35:41     all    5.22    0.00    5.31    0.59    0.00    0.78    0.00    0.00    0.00   88.10
14:35:41       0   16.70    0.00   10.02    0.00    0.00    0.20    0.00    0.00    0.00   73.08
14:35:41       1    1.91    0.00    4.39    1.53    0.00    1.72    0.00    0.00    0.00   90.46
14:35:41       2    0.99    0.00    3.17    0.79    0.00    0.40    0.00    0.00    0.00   94.65
14:35:41       3    1.36    0.00    3.70    0.00    0.00    0.78    0.00    0.00    0.00   94.15

14:35:41     CPU    %usr   %nice    %sys %iowait    %irq   %soft  %steal  %guest  %gnice   %idle
14:35:46     all    5.24    0.00    4.05    1.14    0.00    0.74    0.00    0.00    0.00   88.83
14:35:46       0   18.33    0.00    7.17    0.00    0.00    0.20    0.00    0.00    0.00   74.30
14:35:46       1    0.20    0.00    2.36    2.95    0.00    2.56    0.00    0.00    0.00   91.93
14:35:46       2    1.37    0.00    3.91    1.57    0.00    0.20    0.00    0.00    0.00   92.95
14:35:46       3    1.20    0.00    2.79    0.00    0.00    0.00    0.00    0.00    0.00   96.02

14:35:46     CPU    %usr   %nice    %sys %iowait    %irq   %soft  %steal  %guest  %gnice   %idle
14:35:51     all    5.34    0.00    4.15    0.79    0.00    0.44    0.00    0.00    0.00   89.28
14:35:51       0   18.54    0.00    7.89    0.00    0.00    0.00    0.00    0.00    0.00   73.57
14:35:51       1    1.17    0.00    3.70    0.97    0.00    1.17    0.00    0.00    0.00   93.00
14:35:51       2    1.00    0.00    1.80    0.20    0.00    0.40    0.00    0.00    0.00   96.60
14:35:51       3    0.60    0.00    3.18    1.99    0.00    0.20    0.00    0.00    0.00   94.04

14:35:51     CPU    %usr   %nice    %sys %iowait    %irq   %soft  %steal  %guest  %gnice   %idle
14:35:56     all    5.09    0.00    5.04    0.24    0.00    0.69    0.00    0.00    0.00   88.94
14:35:56       0   16.73    0.00   10.04    0.00    0.00    0.00    0.00    0.00    0.00   73.23
14:35:56       1    1.55    0.00    3.09    0.77    0.00    1.74    0.00    0.00    0.00   92.84
14:35:56       2    1.00    0.00    1.99    0.00    0.00    0.80    0.00    0.00    0.00   96.22
14:35:56       3    1.16    0.00    5.04    0.19    0.00    0.19    0.00    0.00    0.00   93.41

14:35:56     CPU    %usr   %nice    %sys %iowait    %irq   %soft  %steal  %guest  %gnice   %idle
14:36:01     all    5.40    0.00    4.71    0.93    0.00    0.54    0.00    0.00    0.00   88.41
14:36:01       0   17.95    0.00    8.68    0.00    0.00    0.00    0.00    0.00    0.00   73.37
14:36:01       1    1.17    0.00    3.31    2.33    0.00    1.56    0.00    0.00    0.00   91.63
14:36:01       2    1.78    0.00    2.57    1.38    0.00    0.40    0.00    0.00    0.00   93.87
14:36:01       3    0.78    0.00    4.31    0.00    0.00    0.20    0.00    0.00    0.00   94.71

Average:     CPU    %usr   %nice    %sys %iowait    %irq   %soft  %steal  %guest  %gnice   %idle
Average:     all    5.26    0.00    4.66    0.74    0.00    0.64    0.00    0.00    0.00   88.71
Average:       0   17.65    0.00    8.76    0.00    0.00    0.08    0.00    0.00    0.00   73.51
Average:       1    1.20    0.00    3.38    1.71    0.00    1.75    0.00    0.00    0.00   91.97
Average:       2    1.23    0.00    2.69    0.79    0.00    0.44    0.00    0.00    0.00   94.85
Average:       3    1.02    0.00    3.81    0.43    0.00    0.28    0.00    0.00    0.00   94.46
