[2J[HCONTAINER ID        NAME                CPU %               MEM USAGE / LIMIT     MEM %               NET I/O             BLOCK I/O           PIDS
b143f382c5cc        attacker            6.24%               5.199MiB / 9.238GiB   0.05%               766B / 0B           0B / 0B             48
[2J[HCONTAINER ID        NAME                CPU %               MEM USAGE / LIMIT     MEM %               NET I/O             BLOCK I/O           PIDS
b143f382c5cc        attacker            6.09%               5.113MiB / 9.238GiB   0.05%               766B / 0B           0B / 0B             18
[2J[HCONTAINER ID        NAME                CPU %               MEM USAGE / LIMIT     MEM %               NET I/O             BLOCK I/O           PIDS
b143f382c5cc        attacker            6.17%               5.645MiB / 9.238GiB   0.06%               766B / 0B           0B / 0B             23
[2J[HCONTAINER ID        NAME                CPU %               MEM USAGE / LIMIT     MEM %               NET I/O             BLOCK I/O           PIDS
b143f382c5cc        attacker            6.17%               5.645MiB / 9.238GiB   0.06%               766B / 0B           0B / 0B             23
[2J[HCONTAINER ID        NAME                CPU %               MEM USAGE / LIMIT     MEM %               NET I/O             BLOCK I/O           PIDS
b143f382c5cc        attacker            6.17%               5.645MiB / 9.238GiB   0.06%               766B / 0B           0B / 0B             23
[2J[HCONTAINER ID        NAME                CPU %               MEM USAGE / LIMIT     MEM %               NET I/O             BLOCK I/O           PIDS
b143f382c5cc        attacker            6.16%               2.633MiB / 9.238GiB   0.03%               766B / 0B           0B / 0B             35
[2J[HCONTAINER ID        NAME                CPU %               MEM USAGE / LIMIT     MEM %               NET I/O             BLOCK I/O           PIDS
b143f382c5cc        attacker            6.16%               2.633MiB / 9.238GiB   0.03%               766B / 0B           0B / 0B             35
[2J[HCONTAINER ID        NAME                CPU %               MEM USAGE / LIMIT     MEM %               NET I/O             BLOCK I/O           PIDS
b143f382c5cc        attacker            6.19%               6.797MiB / 9.238GiB   0.07%               766B / 0B           0B / 0B             28
[2J[HCONTAINER ID        NAME                CPU %               MEM USAGE / LIMIT     MEM %               NET I/O             BLOCK I/O           PIDS
b143f382c5cc        attacker            6.19%               6.797MiB / 9.238GiB   0.07%               766B / 0B           0B / 0B             28
[2J[HCONTAINER ID        NAME                CPU %               MEM USAGE / LIMIT     MEM %               NET I/O             BLOCK I/O           PIDS
b143f382c5cc        attacker            6.15%               8.551MiB / 9.238GiB   0.09%               766B / 0B           0B / 0B             38
[2J[HCONTAINER ID        NAME                CPU %               MEM USAGE / LIMIT     MEM %               NET I/O             BLOCK I/O           PIDS
b143f382c5cc        attacker            6.15%               8.551MiB / 9.238GiB   0.09%               766B / 0B           0B / 0B             38
[2J[HCONTAINER ID        NAME                CPU %               MEM USAGE / LIMIT     MEM %               NET I/O             BLOCK I/O           PIDS
b143f382c5cc        attacker            6.18%               3.109MiB / 9.238GiB   0.03%               766B / 0B           0B / 0B             37
[2J[HCONTAINER ID        NAME                CPU %               MEM USAGE / LIMIT     MEM %               NET I/O             BLOCK I/O           PIDS
b143f382c5cc        attacker            6.18%               3.109MiB / 9.238GiB   0.03%               766B / 0B           0B / 0B             37
[2J[HCONTAINER ID        NAME                CPU %               MEM USAGE / LIMIT     MEM %               NET I/O             BLOCK I/O           PIDS
b143f382c5cc        attacker            6.19%               5.016MiB / 9.238GiB   0.05%               836B / 0B           0B / 0B             20
[2J[HCONTAINER ID        NAME                CPU %               MEM USAGE / LIMIT     MEM %               NET I/O             BLOCK I/O           PIDS
b143f382c5cc        attacker            6.19%               5.016MiB / 9.238GiB   0.05%               836B / 0B           0B / 0B             20
[2J[HCONTAINER ID        NAME                CPU %               MEM USAGE / LIMIT     MEM %               NET I/O             BLOCK I/O           PIDS
b143f382c5cc        attacker            6.13%               5.051MiB / 9.238GiB   0.05%               836B / 0B           0B / 0B             44
[2J[HCONTAINER ID        NAME                CPU %               MEM USAGE / LIMIT     MEM %               NET I/O             BLOCK I/O           PIDS
b143f382c5cc        attacker            6.13%               5.051MiB / 9.238GiB   0.05%               836B / 0B           0B / 0B             44
[2J[HCONTAINER ID        NAME                CPU %               MEM USAGE / LIMIT     MEM %               NET I/O             BLOCK I/O           PIDS
b143f382c5cc        attacker            6.16%               8.512MiB / 9.238GiB   0.09%               836B / 0B           0B / 0B             38
[2J[HCONTAINER ID        NAME                CPU %               MEM USAGE / LIMIT     MEM %               NET I/O             BLOCK I/O           PIDS
b143f382c5cc        attacker            6.16%               8.512MiB / 9.238GiB   0.09%               836B / 0B           0B / 0B             38
[2J[HCONTAINER ID        NAME                CPU %               MEM USAGE / LIMIT     MEM %               NET I/O             BLOCK I/O           PIDS
b143f382c5cc        attacker            6.06%               4.691MiB / 9.238GiB   0.05%               836B / 0B           0B / 0B             15
[2J[HCONTAINER ID        NAME                CPU %               MEM USAGE / LIMIT     MEM %               NET I/O             BLOCK I/O           PIDS
b143f382c5cc        attacker            6.06%               4.691MiB / 9.238GiB   0.05%               836B / 0B           0B / 0B             15
[2J[HCONTAINER ID        NAME                CPU %               MEM USAGE / LIMIT     MEM %               NET I/O             BLOCK I/O           PIDS
b143f382c5cc        attacker            6.18%               3.801MiB / 9.238GiB   0.04%               836B / 0B           0B / 0B             10
[2J[HCONTAINER ID        NAME                CPU %               MEM USAGE / LIMIT     MEM %               NET I/O             BLOCK I/O           PIDS
b143f382c5cc        attacker            6.18%               3.801MiB / 9.238GiB   0.04%               836B / 0B           0B / 0B             10
[2J[HCONTAINER ID        NAME                CPU %               MEM USAGE / LIMIT     MEM %               NET I/O             BLOCK I/O           PIDS
b143f382c5cc        attacker            6.12%               2.867MiB / 9.238GiB   0.03%               836B / 0B           0B / 0B             36
[2J[HCONTAINER ID        NAME                CPU %               MEM USAGE / LIMIT     MEM %               NET I/O             BLOCK I/O           PIDS
b143f382c5cc        attacker            6.12%               2.867MiB / 9.238GiB   0.03%               836B / 0B           0B / 0B             36
[2J[HCONTAINER ID        NAME                CPU %               MEM USAGE / LIMIT     MEM %               NET I/O             BLOCK I/O           PIDS
b143f382c5cc        attacker            6.15%               4.117MiB / 9.238GiB   0.04%               836B / 0B           0B / 0B             49
[2J[HCONTAINER ID        NAME                CPU %               MEM USAGE / LIMIT     MEM %               NET I/O             BLOCK I/O           PIDS
b143f382c5cc        attacker            6.15%               4.117MiB / 9.238GiB   0.04%               836B / 0B           0B / 0B             49
[2J[HCONTAINER ID        NAME                CPU %               MEM USAGE / LIMIT     MEM %               NET I/O             BLOCK I/O           PIDS
b143f382c5cc        attacker            6.16%               4.293MiB / 9.238GiB   0.05%               836B / 0B           0B / 0B             16
[2J[HCONTAINER ID        NAME                CPU %               MEM USAGE / LIMIT     MEM %               NET I/O             BLOCK I/O           PIDS
b143f382c5cc        attacker            6.16%               4.293MiB / 9.238GiB   0.05%               836B / 0B           0B / 0B             16
[2J[HCONTAINER ID        NAME                CPU %               MEM USAGE / LIMIT     MEM %               NET I/O             BLOCK I/O           PIDS
b143f382c5cc        attacker            6.27%               2.914MiB / 9.238GiB   0.03%               836B / 0B           0B / 0B             5
[2J[HCONTAINER ID        NAME                CPU %               MEM USAGE / LIMIT     MEM %               NET I/O             BLOCK I/O           PIDS
b143f382c5cc        attacker            6.27%               2.914MiB / 9.238GiB   0.03%               836B / 0B           0B / 0B             5
[2J[HCONTAINER ID        NAME                CPU %               MEM USAGE / LIMIT    MEM %               NET I/O             BLOCK I/O           PIDS
b143f382c5cc        attacker            6.06%               7.91MiB / 9.238GiB   0.08%               836B / 0B           0B / 0B             35
[2J[HCONTAINER ID        NAME                CPU %               MEM USAGE / LIMIT    MEM %               NET I/O             BLOCK I/O           PIDS
b143f382c5cc        attacker            6.06%               7.91MiB / 9.238GiB   0.08%               836B / 0B           0B / 0B             35
[2J[HCONTAINER ID        NAME                CPU %               MEM USAGE / LIMIT     MEM %               NET I/O             BLOCK I/O           PIDS
b143f382c5cc        attacker            6.14%               2.766MiB / 9.238GiB   0.03%               836B / 0B           0B / 0B             36
[2J[HCONTAINER ID        NAME                CPU %               MEM USAGE / LIMIT     MEM %               NET I/O             BLOCK I/O           PIDS
b143f382c5cc        attacker            6.14%               2.766MiB / 9.238GiB   0.03%               836B / 0B           0B / 0B             36
[2J[HCONTAINER ID        NAME                CPU %               MEM USAGE / LIMIT     MEM %               NET I/O             BLOCK I/O           PIDS
b143f382c5cc        attacker            6.15%               6.383MiB / 9.238GiB   0.07%               836B / 0B           0B / 0B             24
[2J[HCONTAINER ID        NAME                CPU %               MEM USAGE / LIMIT     MEM %               NET I/O             BLOCK I/O           PIDS
b143f382c5cc        attacker            6.15%               6.383MiB / 9.238GiB   0.07%               836B / 0B           0B / 0B             24
[2J[HCONTAINER ID        NAME                CPU %               MEM USAGE / LIMIT     MEM %               NET I/O             BLOCK I/O           PIDS
b143f382c5cc        attacker            6.25%               2.988MiB / 9.238GiB   0.03%               836B / 0B           0B / 0B             5
[2J[HCONTAINER ID        NAME                CPU %               MEM USAGE / LIMIT     MEM %               NET I/O             BLOCK I/O           PIDS
b143f382c5cc        attacker            6.25%               2.988MiB / 9.238GiB   0.03%               836B / 0B           0B / 0B             5
[2J[HCONTAINER ID        NAME                CPU %               MEM USAGE / LIMIT     MEM %               NET I/O             BLOCK I/O           PIDS
b143f382c5cc        attacker            6.14%               7.391MiB / 9.238GiB   0.08%               836B / 0B           0B / 0B             30
[2J[HCONTAINER ID        NAME                CPU %               MEM USAGE / LIMIT     MEM %               NET I/O             BLOCK I/O           PIDS
b143f382c5cc        attacker            6.14%               7.391MiB / 9.238GiB   0.08%               836B / 0B           0B / 0B             30
[2J[HCONTAINER ID        NAME                CPU %               MEM USAGE / LIMIT     MEM %               NET I/O             BLOCK I/O           PIDS
b143f382c5cc        attacker            6.15%               2.617MiB / 9.238GiB   0.03%               836B / 0B           0B / 0B             3
[2J[HCONTAINER ID        NAME                CPU %               MEM USAGE / LIMIT     MEM %               NET I/O             BLOCK I/O           PIDS
b143f382c5cc        attacker            6.15%               2.617MiB / 9.238GiB   0.03%               836B / 0B           0B / 0B             3
[2J[HCONTAINER ID        NAME                CPU %               MEM USAGE / LIMIT     MEM %               NET I/O             BLOCK I/O           PIDS
b143f382c5cc        attacker            6.15%               6.766MiB / 9.238GiB   0.07%               836B / 0B           0B / 0B             28
[2J[HCONTAINER ID        NAME                CPU %               MEM USAGE / LIMIT     MEM %               NET I/O             BLOCK I/O           PIDS
b143f382c5cc        attacker            6.15%               6.766MiB / 9.238GiB   0.07%               836B / 0B           0B / 0B             28
[2J[HCONTAINER ID        NAME                CPU %               MEM USAGE / LIMIT     MEM %               NET I/O             BLOCK I/O           PIDS
b143f382c5cc        attacker            6.24%               3.805MiB / 9.238GiB   0.04%               906B / 0B           0B / 0B             9
[2J[HCONTAINER ID        NAME                CPU %               MEM USAGE / LIMIT     MEM %               NET I/O             BLOCK I/O           PIDS
b143f382c5cc        attacker            6.24%               3.805MiB / 9.238GiB   0.04%               906B / 0B           0B / 0B             9
[2J[HCONTAINER ID        NAME                CPU %               MEM USAGE / LIMIT     MEM %               NET I/O             BLOCK I/O           PIDS
b143f382c5cc        attacker            6.21%               6.367MiB / 9.238GiB   0.07%               906B / 0B           0B / 0B             26
[2J[HCONTAINER ID        NAME                CPU %               MEM USAGE / LIMIT     MEM %               NET I/O             BLOCK I/O           PIDS
b143f382c5cc        attacker            6.21%               6.367MiB / 9.238GiB   0.07%               906B / 0B           0B / 0B             26
[2J[HCONTAINER ID        NAME                CPU %               MEM USAGE / LIMIT     MEM %               NET I/O             BLOCK I/O           PIDS
b143f382c5cc        attacker            6.15%               3.473MiB / 9.238GiB   0.04%               906B / 0B           0B / 0B             7
[2J[HCONTAINER ID        NAME                CPU %               MEM USAGE / LIMIT     MEM %               NET I/O             BLOCK I/O           PIDS
b143f382c5cc        attacker            6.15%               3.473MiB / 9.238GiB   0.04%               906B / 0B           0B / 0B             7
[2J[HCONTAINER ID        NAME                CPU %               MEM USAGE / LIMIT     MEM %               NET I/O             BLOCK I/O           PIDS
b143f382c5cc        attacker            6.06%               7.488MiB / 9.238GiB   0.08%               906B / 0B           0B / 0B             31
[2J[HCONTAINER ID        NAME                CPU %               MEM USAGE / LIMIT     MEM %               NET I/O             BLOCK I/O           PIDS
b143f382c5cc        attacker            6.06%               7.488MiB / 9.238GiB   0.08%               906B / 0B           0B / 0B             31
[2J[HCONTAINER ID        NAME                CPU %               MEM USAGE / LIMIT     MEM %               NET I/O             BLOCK I/O           PIDS
b143f382c5cc        attacker            6.46%               4.246MiB / 9.238GiB   0.04%               906B / 0B           0B / 0B             10
[2J[HCONTAINER ID        NAME                CPU %               MEM USAGE / LIMIT     MEM %               NET I/O             BLOCK I/O           PIDS
b143f382c5cc        attacker            6.46%               4.246MiB / 9.238GiB   0.04%               906B / 0B           0B / 0B             10
[2J[HCONTAINER ID        NAME                CPU %               MEM USAGE / LIMIT     MEM %               NET I/O             BLOCK I/O           PIDS
b143f382c5cc        attacker            6.57%               5.777MiB / 9.238GiB   0.06%               906B / 0B           0B / 0B             15
[2J[HCONTAINER ID        NAME                CPU %               MEM USAGE / LIMIT     MEM %               NET I/O             BLOCK I/O           PIDS
b143f382c5cc        attacker            6.57%               5.777MiB / 9.238GiB   0.06%               906B / 0B           0B / 0B             15
[2J[HCONTAINER ID        NAME                CPU %               MEM USAGE / LIMIT    MEM %               NET I/O             BLOCK I/O           PIDS
b143f382c5cc        attacker            6.39%               5.32MiB / 9.238GiB   0.06%               906B / 0B           0B / 0B             25
[2J[HCONTAINER ID        NAME                CPU %               MEM USAGE / LIMIT    MEM %               NET I/O             BLOCK I/O           PIDS
b143f382c5cc        attacker            6.39%               5.32MiB / 9.238GiB   0.06%               906B / 0B           0B / 0B             25
[2J[HCONTAINER ID        NAME                CPU %               MEM USAGE / LIMIT    MEM %               NET I/O             BLOCK I/O           PIDS
b143f382c5cc        attacker            6.41%               8.48MiB / 9.238GiB   0.09%               906B / 0B           0B / 0B             33
[2J[HCONTAINER ID        NAME                CPU %               MEM USAGE / LIMIT    MEM %               NET I/O             BLOCK I/O           PIDS
b143f382c5cc        attacker            6.41%               8.48MiB / 9.238GiB   0.09%               906B / 0B           0B / 0B             33
[2J[HCONTAINER ID        NAME                CPU %               MEM USAGE / LIMIT     MEM %               NET I/O             BLOCK I/O           PIDS
b143f382c5cc        attacker            6.28%               6.422MiB / 9.238GiB   0.07%               906B / 0B           0B / 0B             6
[2J[HCONTAINER ID        NAME                CPU %               MEM USAGE / LIMIT     MEM %               NET I/O             BLOCK I/O           PIDS
b143f382c5cc        attacker            6.28%               6.422MiB / 9.238GiB   0.07%               906B / 0B           0B / 0B             6
[2J[HCONTAINER ID        NAME                CPU %               MEM USAGE / LIMIT     MEM %               NET I/O             BLOCK I/O           PIDS
b143f382c5cc        attacker            6.16%               7.934MiB / 9.238GiB   0.08%               906B / 0B           0B / 0B             28
[2J[HCONTAINER ID        NAME                CPU %               MEM USAGE / LIMIT     MEM %               NET I/O             BLOCK I/O           PIDS
b143f382c5cc        attacker            6.16%               7.934MiB / 9.238GiB   0.08%               906B / 0B           0B / 0B             28
[2J[HCONTAINER ID        NAME                CPU %               MEM USAGE / LIMIT     MEM %               NET I/O             BLOCK I/O           PIDS
b143f382c5cc        attacker            6.18%               7.207MiB / 9.238GiB   0.08%               906B / 0B           0B / 0B             37
[2J[HCONTAINER ID        NAME                CPU %               MEM USAGE / LIMIT     MEM %               NET I/O             BLOCK I/O           PIDS
b143f382c5cc        attacker            6.18%               7.207MiB / 9.238GiB   0.08%               906B / 0B           0B / 0B             37
[2J[HCONTAINER ID        NAME                CPU %               MEM USAGE / LIMIT     MEM %               NET I/O             BLOCK I/O           PIDS
b143f382c5cc        attacker            6.13%               5.535MiB / 9.238GiB   0.06%               906B / 0B           0B / 0B             9
[2J[HCONTAINER ID        NAME                CPU %               MEM USAGE / LIMIT     MEM %               NET I/O             BLOCK I/O           PIDS
b143f382c5cc        attacker            6.13%               5.535MiB / 9.238GiB   0.06%               906B / 0B           0B / 0B             9
[2J[HCONTAINER ID        NAME                CPU %               MEM USAGE / LIMIT     MEM %               NET I/O             BLOCK I/O           PIDS
b143f382c5cc        attacker            6.18%               7.625MiB / 9.238GiB   0.08%               906B / 0B           0B / 0B             28
[2J[HCONTAINER ID        NAME                CPU %               MEM USAGE / LIMIT     MEM %               NET I/O             BLOCK I/O           PIDS
b143f382c5cc        attacker            6.18%               7.625MiB / 9.238GiB   0.08%               906B / 0B           0B / 0B             28
[2J[HCONTAINER ID        NAME                CPU %               MEM USAGE / LIMIT     MEM %               NET I/O             BLOCK I/O           PIDS
b143f382c5cc        attacker            6.12%               5.461MiB / 9.238GiB   0.06%               906B / 0B           0B / 0B             8
[2J[HCONTAINER ID        NAME                CPU %               MEM USAGE / LIMIT     MEM %               NET I/O             BLOCK I/O           PIDS
b143f382c5cc        attacker            6.12%               5.461MiB / 9.238GiB   0.06%               906B / 0B           0B / 0B             8
[2J[HCONTAINER ID        NAME                CPU %               MEM USAGE / LIMIT     MEM %               NET I/O             BLOCK I/O           PIDS
b143f382c5cc        attacker            6.22%               6.871MiB / 9.238GiB   0.07%               906B / 0B           0B / 0B             25
[2J[HCONTAINER ID        NAME                CPU %               MEM USAGE / LIMIT     MEM %               NET I/O             BLOCK I/O           PIDS
b143f382c5cc        attacker            6.22%               6.871MiB / 9.238GiB   0.07%               906B / 0B           0B / 0B             25
[2J[HCONTAINER ID        NAME                CPU %               MEM USAGE / LIMIT     MEM %               NET I/O             BLOCK I/O           PIDS
b143f382c5cc        attacker            6.17%               5.922MiB / 9.238GiB   0.06%               906B / 0B           0B / 0B             5
[2J[HCONTAINER ID        NAME                CPU %               MEM USAGE / LIMIT     MEM %               NET I/O             BLOCK I/O           PIDS
b143f382c5cc        attacker            6.17%               5.922MiB / 9.238GiB   0.06%               906B / 0B           0B / 0B             5
[2J[HCONTAINER ID        NAME                CPU %               MEM USAGE / LIMIT     MEM %               NET I/O             BLOCK I/O           PIDS
b143f382c5cc        attacker            6.17%               8.082MiB / 9.238GiB   0.09%               906B / 0B           0B / 0B             30
[2J[HCONTAINER ID        NAME                CPU %               MEM USAGE / LIMIT     MEM %               NET I/O             BLOCK I/O           PIDS
b143f382c5cc        attacker            6.17%               8.082MiB / 9.238GiB   0.09%               906B / 0B           0B / 0B             30
[2J[HCONTAINER ID        NAME                CPU %               MEM USAGE / LIMIT     MEM %               NET I/O             BLOCK I/O           PIDS
b143f382c5cc        attacker            6.16%               5.828MiB / 9.238GiB   0.06%               906B / 0B           0B / 0B             5
[2J[HCONTAINER ID        NAME                CPU %               MEM USAGE / LIMIT     MEM %               NET I/O             BLOCK I/O           PIDS
b143f382c5cc        attacker            6.16%               5.828MiB / 9.238GiB   0.06%               906B / 0B           0B / 0B             5
[2J[HCONTAINER ID        NAME                CPU %               MEM USAGE / LIMIT    MEM %               NET I/O             BLOCK I/O           PIDS
b143f382c5cc        attacker            6.10%               7.25MiB / 9.238GiB   0.08%               906B / 0B           0B / 0B             26
[2J[HCONTAINER ID        NAME                CPU %               MEM USAGE / LIMIT    MEM %               NET I/O             BLOCK I/O           PIDS
b143f382c5cc        attacker            6.10%               7.25MiB / 9.238GiB   0.08%               906B / 0B           0B / 0B             26
[2J[HCONTAINER ID        NAME                CPU %               MEM USAGE / LIMIT    MEM %               NET I/O             BLOCK I/O           PIDS
b143f382c5cc        attacker            6.19%               2.75MiB / 9.238GiB   0.03%               906B / 0B           0B / 0B             1
[2J[HCONTAINER ID        NAME                CPU %               MEM USAGE / LIMIT    MEM %               NET I/O             BLOCK I/O           PIDS
b143f382c5cc        attacker            6.19%               2.75MiB / 9.238GiB   0.03%               906B / 0B           0B / 0B             1
[2J[HCONTAINER ID        NAME                CPU %               MEM USAGE / LIMIT     MEM %               NET I/O             BLOCK I/O           PIDS
b143f382c5cc        attacker            6.17%               6.672MiB / 9.238GiB   0.07%               906B / 0B           0B / 0B             26
[2J[HCONTAINER ID        NAME                CPU %               MEM USAGE / LIMIT     MEM %               NET I/O             BLOCK I/O           PIDS
b143f382c5cc        attacker            6.17%               6.672MiB / 9.238GiB   0.07%               906B / 0B           0B / 0B             26
[2J[HCONTAINER ID        NAME                CPU %               MEM USAGE / LIMIT     MEM %               NET I/O             BLOCK I/O           PIDS
b143f382c5cc        attacker            6.19%               4.062MiB / 9.238GiB   0.04%               906B / 0B           0B / 0B             9
[2J[HCONTAINER ID        NAME                CPU %               MEM USAGE / LIMIT     MEM %               NET I/O             BLOCK I/O           PIDS
b143f382c5cc        attacker            6.19%               4.062MiB / 9.238GiB   0.04%               906B / 0B           0B / 0B             9
[2J[HCONTAINER ID        NAME                CPU %               MEM USAGE / LIMIT     MEM %               NET I/O             BLOCK I/O           PIDS
b143f382c5cc        attacker            6.14%               7.039MiB / 9.238GiB   0.07%               906B / 0B           0B / 0B             26
[2J[HCONTAINER ID        NAME                CPU %               MEM USAGE / LIMIT     MEM %               NET I/O             BLOCK I/O           PIDS
b143f382c5cc        attacker            6.14%               7.039MiB / 9.238GiB   0.07%               906B / 0B           0B / 0B             26
[2J[HCONTAINER ID        NAME                CPU %               MEM USAGE / LIMIT     MEM %               NET I/O             BLOCK I/O           PIDS
b143f382c5cc        attacker            6.11%               2.895MiB / 9.238GiB   0.03%               906B / 0B           0B / 0B             3
[2J[HCONTAINER ID        NAME                CPU %               MEM USAGE / LIMIT     MEM %               NET I/O             BLOCK I/O           PIDS
b143f382c5cc        attacker            6.11%               2.895MiB / 9.238GiB   0.03%               906B / 0B           0B / 0B             3
[2J[HCONTAINER ID        NAME                CPU %               MEM USAGE / LIMIT     MEM %               NET I/O             BLOCK I/O           PIDS
b143f382c5cc        attacker            6.11%               6.719MiB / 9.238GiB   0.07%               906B / 0B           0B / 0B             24
[2J[HCONTAINER ID        NAME                CPU %               MEM USAGE / LIMIT     MEM %               NET I/O             BLOCK I/O           PIDS
b143f382c5cc        attacker            6.11%               6.719MiB / 9.238GiB   0.07%               906B / 0B           0B / 0B             24
[2J[HCONTAINER ID        NAME                CPU %               MEM USAGE / LIMIT     MEM %               NET I/O             BLOCK I/O           PIDS
b143f382c5cc        attacker            6.18%               6.324MiB / 9.238GiB   0.07%               906B / 0B           0B / 0B             24
[2J[HCONTAINER ID        NAME                CPU %               MEM USAGE / LIMIT     MEM %               NET I/O             BLOCK I/O           PIDS
b143f382c5cc        attacker            6.18%               6.324MiB / 9.238GiB   0.07%               906B / 0B           0B / 0B             24
[2J[HCONTAINER ID        NAME                CPU %               MEM USAGE / LIMIT    MEM %               NET I/O             BLOCK I/O           PIDS
b143f382c5cc        attacker            6.17%               3.57MiB / 9.238GiB   0.04%               906B / 0B           0B / 0B             9
[2J[HCONTAINER ID        NAME                CPU %               MEM USAGE / LIMIT    MEM %               NET I/O             BLOCK I/O           PIDS
b143f382c5cc        attacker            6.17%               3.57MiB / 9.238GiB   0.04%               906B / 0B           0B / 0B             9
[2J[HCONTAINER ID        NAME                CPU %               MEM USAGE / LIMIT     MEM %               NET I/O             BLOCK I/O           PIDS
b143f382c5cc        attacker            6.10%               6.387MiB / 9.238GiB   0.07%               906B / 0B           0B / 0B             23
[2J[HCONTAINER ID        NAME                CPU %               MEM USAGE / LIMIT     MEM %               NET I/O             BLOCK I/O           PIDS
b143f382c5cc        attacker            6.10%               6.387MiB / 9.238GiB   0.07%               906B / 0B           0B / 0B             23
[2J[HCONTAINER ID        NAME                CPU %               MEM USAGE / LIMIT     MEM %               NET I/O             BLOCK I/O           PIDS
b143f382c5cc        attacker            6.13%               3.406MiB / 9.238GiB   0.04%               906B / 0B           0B / 0B             4
[2J[HCONTAINER ID        NAME                CPU %               MEM USAGE / LIMIT     MEM %               NET I/O             BLOCK I/O           PIDS
b143f382c5cc        attacker            6.13%               3.406MiB / 9.238GiB   0.04%               906B / 0B           0B / 0B             4
[2J[HCONTAINER ID        NAME                CPU %               MEM USAGE / LIMIT    MEM %               NET I/O             BLOCK I/O           PIDS
b143f382c5cc        attacker            6.13%               6.59MiB / 9.238GiB   0.07%               906B / 0B           0B / 0B             25
[2J[HCONTAINER ID        NAME                CPU %               MEM USAGE / LIMIT    MEM %               NET I/O             BLOCK I/O           PIDS
b143f382c5cc        attacker            6.13%               6.59MiB / 9.238GiB   0.07%               906B / 0B           0B / 0B             25
[2J[HCONTAINER ID        NAME                CPU %               MEM USAGE / LIMIT     MEM %               NET I/O             BLOCK I/O           PIDS
b143f382c5cc        attacker            6.20%               4.121MiB / 9.238GiB   0.04%               976B / 0B           0B / 0B             8
[2J[HCONTAINER ID        NAME                CPU %               MEM USAGE / LIMIT     MEM %               NET I/O             BLOCK I/O           PIDS
b143f382c5cc        attacker            6.20%               4.121MiB / 9.238GiB   0.04%               976B / 0B           0B / 0B             8
[2J[HCONTAINER ID        NAME                CPU %               MEM USAGE / LIMIT     MEM %               NET I/O             BLOCK I/O           PIDS
b143f382c5cc        attacker            6.19%               5.445MiB / 9.238GiB   0.06%               976B / 0B           0B / 0B             19
[2J[HCONTAINER ID        NAME                CPU %               MEM USAGE / LIMIT     MEM %               NET I/O             BLOCK I/O           PIDS
b143f382c5cc        attacker            6.19%               5.445MiB / 9.238GiB   0.06%               976B / 0B           0B / 0B             19
[2J[HCONTAINER ID        NAME                CPU %               MEM USAGE / LIMIT     MEM %               NET I/O             BLOCK I/O           PIDS
b143f382c5cc        attacker            6.19%               3.742MiB / 9.238GiB   0.04%               976B / 0B           0B / 0B             10
[2J[HCONTAINER ID        NAME                CPU %               MEM USAGE / LIMIT     MEM %               NET I/O             BLOCK I/O           PIDS
b143f382c5cc        attacker            6.19%               3.742MiB / 9.238GiB   0.04%               976B / 0B           0B / 0B             10
[2J[HCONTAINER ID        NAME                CPU %               MEM USAGE / LIMIT     MEM %               NET I/O             BLOCK I/O           PIDS
b143f382c5cc        attacker            6.15%               5.984MiB / 9.238GiB   0.06%               976B / 0B           0B / 0B             21
[2J[HCONTAINER ID        NAME                CPU %               MEM USAGE / LIMIT     MEM %               NET I/O             BLOCK I/O           PIDS
b143f382c5cc        attacker            6.15%               5.984MiB / 9.238GiB   0.06%               976B / 0B           0B / 0B             21
[2J[HCONTAINER ID        NAME                CPU %               MEM USAGE / LIMIT     MEM %               NET I/O             BLOCK I/O           PIDS
b143f382c5cc        attacker            6.15%               4.656MiB / 9.238GiB   0.05%               976B / 0B           0B / 0B             11
[2J[HCONTAINER ID        NAME                CPU %               MEM USAGE / LIMIT     MEM %               NET I/O             BLOCK I/O           PIDS
b143f382c5cc        attacker            6.15%               4.656MiB / 9.238GiB   0.05%               976B / 0B           0B / 0B             11
[2J[HCONTAINER ID        NAME                CPU %               MEM USAGE / LIMIT     MEM %               NET I/O             BLOCK I/O           PIDS
b143f382c5cc        attacker            6.14%               7.289MiB / 9.238GiB   0.08%               976B / 0B           0B / 0B             28
[2J[HCONTAINER ID        NAME                CPU %               MEM USAGE / LIMIT     MEM %               NET I/O             BLOCK I/O           PIDS
b143f382c5cc        attacker            6.14%               7.289MiB / 9.238GiB   0.08%               976B / 0B           0B / 0B             28
[2J[HCONTAINER ID        NAME                CPU %               MEM USAGE / LIMIT     MEM %               NET I/O             BLOCK I/O           PIDS
b143f382c5cc        attacker            6.20%               3.316MiB / 9.238GiB   0.04%               976B / 0B           0B / 0B             3
[2J[HCONTAINER ID        NAME                CPU %               MEM USAGE / LIMIT     MEM %               NET I/O             BLOCK I/O           PIDS
b143f382c5cc        attacker            6.20%               3.316MiB / 9.238GiB   0.04%               976B / 0B           0B / 0B             3
[2J[HCONTAINER ID        NAME                CPU %               MEM USAGE / LIMIT     MEM %               NET I/O             BLOCK I/O           PIDS
b143f382c5cc        attacker            6.14%               6.676MiB / 9.238GiB   0.07%               976B / 0B           0B / 0B             24
[2J[HCONTAINER ID        NAME                CPU %               MEM USAGE / LIMIT     MEM %               NET I/O             BLOCK I/O           PIDS
b143f382c5cc        attacker            6.14%               6.676MiB / 9.238GiB   0.07%               976B / 0B           0B / 0B             24
[2J[HCONTAINER ID        NAME                CPU %               MEM USAGE / LIMIT     MEM %               NET I/O             BLOCK I/O           PIDS
b143f382c5cc        attacker            6.19%               4.098MiB / 9.238GiB   0.04%               976B / 0B           0B / 0B             11
[2J[HCONTAINER ID        NAME                CPU %               MEM USAGE / LIMIT     MEM %               NET I/O             BLOCK I/O           PIDS
b143f382c5cc        attacker            6.19%               4.098MiB / 9.238GiB   0.04%               976B / 0B           0B / 0B             11
[2J[HCONTAINER ID        NAME                CPU %               MEM USAGE / LIMIT     MEM %               NET I/O             BLOCK I/O           PIDS
b143f382c5cc        attacker            6.12%               5.871MiB / 9.238GiB   0.06%               976B / 0B           0B / 0B             20
[2J[HCONTAINER ID        NAME                CPU %               MEM USAGE / LIMIT     MEM %               NET I/O             BLOCK I/O           PIDS
b143f382c5cc        attacker            6.12%               5.871MiB / 9.238GiB   0.06%               976B / 0B           0B / 0B             20
[2J[HCONTAINER ID        NAME                CPU %               MEM USAGE / LIMIT     MEM %               NET I/O             BLOCK I/O           PIDS
b143f382c5cc        attacker            6.09%               3.789MiB / 9.238GiB   0.04%               976B / 0B           0B / 0B             5
[2J[HCONTAINER ID        NAME                CPU %               MEM USAGE / LIMIT     MEM %               NET I/O             BLOCK I/O           PIDS
b143f382c5cc        attacker            6.09%               3.789MiB / 9.238GiB   0.04%               976B / 0B           0B / 0B             5
[2J[HCONTAINER ID        NAME                CPU %               MEM USAGE / LIMIT     MEM %               NET I/O             BLOCK I/O           PIDS
b143f382c5cc        attacker            6.12%               6.762MiB / 9.238GiB   0.07%               976B / 0B           0B / 0B             24
[2J[HCONTAINER ID        NAME                CPU %               MEM USAGE / LIMIT     MEM %               NET I/O             BLOCK I/O           PIDS
b143f382c5cc        attacker            6.12%               6.762MiB / 9.238GiB   0.07%               976B / 0B           0B / 0B             24
[2J[HCONTAINER ID        NAME                CPU %               MEM USAGE / LIMIT     MEM %               NET I/O             BLOCK I/O           PIDS
b143f382c5cc        attacker            6.14%               4.859MiB / 9.238GiB   0.05%               976B / 0B           0B / 0B             11
[2J[HCONTAINER ID        NAME                CPU %               MEM USAGE / LIMIT     MEM %               NET I/O             BLOCK I/O           PIDS
b143f382c5cc        attacker            6.14%               4.859MiB / 9.238GiB   0.05%               976B / 0B           0B / 0B             11
[2J[HCONTAINER ID        NAME                CPU %               MEM USAGE / LIMIT     MEM %               NET I/O             BLOCK I/O           PIDS
b143f382c5cc        attacker            6.05%               6.855MiB / 9.238GiB   0.07%               976B / 0B           0B / 0B             24
[2J[HCONTAINER ID        NAME                CPU %               MEM USAGE / LIMIT     MEM %               NET I/O             BLOCK I/O           PIDS
b143f382c5cc        attacker            6.05%               6.855MiB / 9.238GiB   0.07%               976B / 0B           0B / 0B             24
[2J[HCONTAINER ID        NAME                CPU %               MEM USAGE / LIMIT     MEM %               NET I/O             BLOCK I/O           PIDS
b143f382c5cc        attacker            6.19%               3.465MiB / 9.238GiB   0.04%               976B / 0B           0B / 0B             4
[2J[HCONTAINER ID        NAME                CPU %               MEM USAGE / LIMIT     MEM %               NET I/O             BLOCK I/O           PIDS
b143f382c5cc        attacker            6.19%               3.465MiB / 9.238GiB   0.04%               976B / 0B           0B / 0B             4
[2J[HCONTAINER ID        NAME                CPU %               MEM USAGE / LIMIT     MEM %               NET I/O             BLOCK I/O           PIDS
b143f382c5cc        attacker            6.15%               7.707MiB / 9.238GiB   0.08%               976B / 0B           0B / 0B             26
[2J[HCONTAINER ID        NAME                CPU %               MEM USAGE / LIMIT     MEM %               NET I/O             BLOCK I/O           PIDS
b143f382c5cc        attacker            6.15%               7.707MiB / 9.238GiB   0.08%               976B / 0B           0B / 0B             26
[2J[HCONTAINER ID        NAME                CPU %               MEM USAGE / LIMIT     MEM %               NET I/O             BLOCK I/O           PIDS
b143f382c5cc        attacker            6.11%               4.012MiB / 9.238GiB   0.04%               976B / 0B           0B / 0B             6
[2J[HCONTAINER ID        NAME                CPU %               MEM USAGE / LIMIT     MEM %               NET I/O             BLOCK I/O           PIDS
b143f382c5cc        attacker            6.11%               4.012MiB / 9.238GiB   0.04%               976B / 0B           0B / 0B             6
[2J[HCONTAINER ID        NAME                CPU %               MEM USAGE / LIMIT     MEM %               NET I/O             BLOCK I/O           PIDS
b143f382c5cc        attacker            6.12%               6.637MiB / 9.238GiB   0.07%               976B / 0B           0B / 0B             22
[2J[HCONTAINER ID        NAME                CPU %               MEM USAGE / LIMIT     MEM %               NET I/O             BLOCK I/O           PIDS
b143f382c5cc        attacker            6.12%               6.637MiB / 9.238GiB   0.07%               976B / 0B           0B / 0B             22
[2J[HCONTAINER ID        NAME                CPU %               MEM USAGE / LIMIT     MEM %               NET I/O             BLOCK I/O           PIDS
b143f382c5cc        attacker            6.21%               4.535MiB / 9.238GiB   0.05%               976B / 0B           0B / 0B             8
[2J[HCONTAINER ID        NAME                CPU %               MEM USAGE / LIMIT     MEM %               NET I/O             BLOCK I/O           PIDS
b143f382c5cc        attacker            6.21%               4.535MiB / 9.238GiB   0.05%               976B / 0B           0B / 0B             8
[2J[HCONTAINER ID        NAME                CPU %               MEM USAGE / LIMIT    MEM %               NET I/O             BLOCK I/O           PIDS
b143f382c5cc        attacker            6.14%               5.41MiB / 9.238GiB   0.06%               976B / 0B           0B / 0B             16
[2J[HCONTAINER ID        NAME                CPU %               MEM USAGE / LIMIT    MEM %               NET I/O             BLOCK I/O           PIDS
b143f382c5cc        attacker            6.14%               5.41MiB / 9.238GiB   0.06%               976B / 0B           0B / 0B             16
[2J[HCONTAINER ID        NAME                CPU %               MEM USAGE / LIMIT     MEM %               NET I/O             BLOCK I/O           PIDS
b143f382c5cc        attacker            6.16%               3.824MiB / 9.238GiB   0.04%               976B / 0B           0B / 0B             4
[2J[HCONTAINER ID        NAME                CPU %               MEM USAGE / LIMIT     MEM %               NET I/O             BLOCK I/O           PIDS
b143f382c5cc        attacker            6.16%               3.824MiB / 9.238GiB   0.04%               976B / 0B           0B / 0B             4
[2J[HCONTAINER ID        NAME                CPU %               MEM USAGE / LIMIT     MEM %               NET I/O             BLOCK I/O           PIDS
b143f382c5cc        attacker            6.11%               6.551MiB / 9.238GiB   0.07%               976B / 0B           0B / 0B             20
[2J[HCONTAINER ID        NAME                CPU %               MEM USAGE / LIMIT     MEM %               NET I/O             BLOCK I/O           PIDS
b143f382c5cc        attacker            6.11%               6.551MiB / 9.238GiB   0.07%               976B / 0B           0B / 0B             20
[2J[HCONTAINER ID        NAME                CPU %               MEM USAGE / LIMIT     MEM %               NET I/O             BLOCK I/O           PIDS
b143f382c5cc        attacker            6.11%               4.363MiB / 9.238GiB   0.05%               976B / 0B           0B / 0B             8
[2J[HCONTAINER ID        NAME                CPU %               MEM USAGE / LIMIT     MEM %               NET I/O             BLOCK I/O           PIDS
b143f382c5cc        attacker            6.11%               4.363MiB / 9.238GiB   0.05%               976B / 0B           0B / 0B             8
[2J[HCONTAINER ID        NAME                CPU %               MEM USAGE / LIMIT     MEM %               NET I/O             BLOCK I/O           PIDS
b143f382c5cc        attacker            6.15%               4.484MiB / 9.238GiB   0.05%               976B / 0B           0B / 0B             10
[2J[HCONTAINER ID        NAME                CPU %               MEM USAGE / LIMIT     MEM %               NET I/O             BLOCK I/O           PIDS
b143f382c5cc        attacker            6.15%               4.484MiB / 9.238GiB   0.05%               976B / 0B           0B / 0B             10
[2J[HCONTAINER ID        NAME                CPU %               MEM USAGE / LIMIT     MEM %               NET I/O             BLOCK I/O           PIDS
b143f382c5cc        attacker            6.08%               4.379MiB / 9.238GiB   0.05%               976B / 0B           0B / 0B             7
[2J[HCONTAINER ID        NAME                CPU %               MEM USAGE / LIMIT     MEM %               NET I/O             BLOCK I/O           PIDS
b143f382c5cc        attacker            6.08%               4.379MiB / 9.238GiB   0.05%               976B / 0B           0B / 0B             7
[2J[HCONTAINER ID        NAME                CPU %               MEM USAGE / LIMIT     MEM %               NET I/O             BLOCK I/O           PIDS
b143f382c5cc        attacker            6.10%               7.375MiB / 9.238GiB   0.08%               976B / 0B           0B / 0B             24
[2J[HCONTAINER ID        NAME                CPU %               MEM USAGE / LIMIT     MEM %               NET I/O             BLOCK I/O           PIDS
b143f382c5cc        attacker            6.10%               7.375MiB / 9.238GiB   0.08%               976B / 0B           0B / 0B             24
[2J[HCONTAINER ID        NAME                CPU %               MEM USAGE / LIMIT     MEM %               NET I/O             BLOCK I/O           PIDS
b143f382c5cc        attacker            6.21%               4.883MiB / 9.238GiB   0.05%               976B / 0B           0B / 0B             10
[2J[HCONTAINER ID        NAME                CPU %               MEM USAGE / LIMIT     MEM %               NET I/O             BLOCK I/O           PIDS
b143f382c5cc        attacker            6.21%               4.883MiB / 9.238GiB   0.05%               976B / 0B           0B / 0B             10
[2J[HCONTAINER ID        NAME                CPU %               MEM USAGE / LIMIT     MEM %               NET I/O             BLOCK I/O           PIDS
b143f382c5cc        attacker            6.15%               7.273MiB / 9.238GiB   0.08%               976B / 0B           0B / 0B             25
[2J[HCONTAINER ID        NAME                CPU %               MEM USAGE / LIMIT     MEM %               NET I/O             BLOCK I/O           PIDS
b143f382c5cc        attacker            6.15%               7.273MiB / 9.238GiB   0.08%               976B / 0B           0B / 0B             25
[2J[HCONTAINER ID        NAME                CPU %               MEM USAGE / LIMIT     MEM %               NET I/O             BLOCK I/O           PIDS
b143f382c5cc        attacker            6.16%               4.305MiB / 9.238GiB   0.05%               976B / 0B           0B / 0B             7
[2J[HCONTAINER ID        NAME                CPU %               MEM USAGE / LIMIT     MEM %               NET I/O             BLOCK I/O           PIDS
b143f382c5cc        attacker            6.16%               4.305MiB / 9.238GiB   0.05%               976B / 0B           0B / 0B             7
[2J[HCONTAINER ID        NAME                CPU %               MEM USAGE / LIMIT    MEM %               NET I/O             BLOCK I/O           PIDS
b143f382c5cc        attacker            6.17%               5.68MiB / 9.238GiB   0.06%               976B / 0B           0B / 0B             17
[2J[HCONTAINER ID        NAME                CPU %               MEM USAGE / LIMIT    MEM %               NET I/O             BLOCK I/O           PIDS
b143f382c5cc        attacker            6.17%               5.68MiB / 9.238GiB   0.06%               976B / 0B           0B / 0B             17
[2J[HCONTAINER ID        NAME                CPU %               MEM USAGE / LIMIT     MEM %               NET I/O             BLOCK I/O           PIDS
b143f382c5cc        attacker            6.34%               4.465MiB / 9.238GiB   0.05%               976B / 0B           0B / 0B             8
[2J[HCONTAINER ID        NAME                CPU %               MEM USAGE / LIMIT     MEM %               NET I/O             BLOCK I/O           PIDS
b143f382c5cc        attacker            6.34%               4.465MiB / 9.238GiB   0.05%               976B / 0B           0B / 0B             8
[2J[HCONTAINER ID        NAME                CPU %               MEM USAGE / LIMIT     MEM %               NET I/O             BLOCK I/O           PIDS
b143f382c5cc        attacker            6.40%               5.695MiB / 9.238GiB   0.06%               976B / 0B           0B / 0B             18
[2J[HCONTAINER ID        NAME                CPU %               MEM USAGE / LIMIT     MEM %               NET I/O             BLOCK I/O           PIDS
b143f382c5cc        attacker            6.40%               5.695MiB / 9.238GiB   0.06%               976B / 0B           0B / 0B             18
[2J[HCONTAINER ID        NAME                CPU %               MEM USAGE / LIMIT     MEM %               NET I/O             BLOCK I/O           PIDS
b143f382c5cc        attacker            6.63%               6.316MiB / 9.238GiB   0.07%               976B / 0B           0B / 0B             17
[2J[HCONTAINER ID        NAME                CPU %               MEM USAGE / LIMIT     MEM %               NET I/O             BLOCK I/O           PIDS
b143f382c5cc        attacker            6.63%               6.316MiB / 9.238GiB   0.07%               976B / 0B           0B / 0B             17
[2J[HCONTAINER ID        NAME                CPU %               MEM USAGE / LIMIT    MEM %               NET I/O             BLOCK I/O           PIDS
b143f382c5cc        attacker            6.39%               6.23MiB / 9.238GiB   0.07%               976B / 0B           0B / 0B             3
[2J[HCONTAINER ID        NAME                CPU %               MEM USAGE / LIMIT    MEM %               NET I/O             BLOCK I/O           PIDS
b143f382c5cc        attacker            6.39%               6.23MiB / 9.238GiB   0.07%               976B / 0B           0B / 0B             3
[2J[HCONTAINER ID        NAME                CPU %               MEM USAGE / LIMIT     MEM %               NET I/O             BLOCK I/O           PIDS
b143f382c5cc        attacker            6.12%               6.605MiB / 9.238GiB   0.07%               976B / 0B           0B / 0B             18
[2J[HCONTAINER ID        NAME                CPU %               MEM USAGE / LIMIT     MEM %               NET I/O             BLOCK I/O           PIDS
b143f382c5cc        attacker            6.12%               6.605MiB / 9.238GiB   0.07%               976B / 0B           0B / 0B             18
[2J[HCONTAINER ID        NAME                CPU %               MEM USAGE / LIMIT     MEM %               NET I/O             BLOCK I/O           PIDS
b143f382c5cc        attacker            6.17%               6.168MiB / 9.238GiB   0.07%               976B / 0B           0B / 0B             5
[2J[HCONTAINER ID        NAME                CPU %               MEM USAGE / LIMIT     MEM %               NET I/O             BLOCK I/O           PIDS
b143f382c5cc        attacker            6.17%               6.168MiB / 9.238GiB   0.07%               976B / 0B           0B / 0B             5
[2J[HCONTAINER ID        NAME                CPU %               MEM USAGE / LIMIT     MEM %               NET I/O             BLOCK I/O           PIDS
b143f382c5cc        attacker            6.19%               6.781MiB / 9.238GiB   0.07%               976B / 0B           0B / 0B             19
[2J[HCONTAINER ID        NAME                CPU %               MEM USAGE / LIMIT     MEM %               NET I/O             BLOCK I/O           PIDS
b143f382c5cc        attacker            6.19%               6.781MiB / 9.238GiB   0.07%               976B / 0B           0B / 0B             19
[2J[HCONTAINER ID        NAME                CPU %               MEM USAGE / LIMIT     MEM %               NET I/O             BLOCK I/O           PIDS
b143f382c5cc        attacker            6.16%               6.652MiB / 9.238GiB   0.07%               976B / 0B           0B / 0B             8
[2J[HCONTAINER ID        NAME                CPU %               MEM USAGE / LIMIT     MEM %               NET I/O             BLOCK I/O           PIDS
b143f382c5cc        attacker            6.16%               6.652MiB / 9.238GiB   0.07%               976B / 0B           0B / 0B             8
[2J[HCONTAINER ID        NAME                CPU %               MEM USAGE / LIMIT     MEM %               NET I/O             BLOCK I/O           PIDS
b143f382c5cc        attacker            6.19%               6.523MiB / 9.238GiB   0.07%               976B / 0B           0B / 0B             17
[2J[HCONTAINER ID        NAME                CPU %               MEM USAGE / LIMIT     MEM %               NET I/O             BLOCK I/O           PIDS
b143f382c5cc        attacker            6.19%               6.523MiB / 9.238GiB   0.07%               976B / 0B           0B / 0B             17
[2J[HCONTAINER ID        NAME                CPU %               MEM USAGE / LIMIT     MEM %               NET I/O             BLOCK I/O           PIDS
b143f382c5cc        attacker            6.18%               5.898MiB / 9.238GiB   0.06%               976B / 0B           0B / 0B             10
[2J[HCONTAINER ID        NAME                CPU %               MEM USAGE / LIMIT     MEM %               NET I/O             BLOCK I/O           PIDS
b143f382c5cc        attacker            6.18%               5.898MiB / 9.238GiB   0.06%               976B / 0B           0B / 0B             10
[2J[HCONTAINER ID        NAME                CPU %               MEM USAGE / LIMIT     MEM %               NET I/O             BLOCK I/O           PIDS
b143f382c5cc        attacker            6.24%               6.449MiB / 9.238GiB   0.07%               976B / 0B           0B / 0B             15
[2J[HCONTAINER ID        NAME                CPU %               MEM USAGE / LIMIT     MEM %               NET I/O             BLOCK I/O           PIDS
b143f382c5cc        attacker            6.24%               6.449MiB / 9.238GiB   0.07%               976B / 0B           0B / 0B             15
[2J[HCONTAINER ID        NAME                CPU %               MEM USAGE / LIMIT     MEM %               NET I/O             BLOCK I/O           PIDS
b143f382c5cc        attacker            6.19%               6.133MiB / 9.238GiB   0.06%               976B / 0B           0B / 0B             5
[2J[HCONTAINER ID        NAME                CPU %               MEM USAGE / LIMIT     MEM %               NET I/O             BLOCK I/O           PIDS
b143f382c5cc        attacker            6.19%               6.133MiB / 9.238GiB   0.06%               976B / 0B           0B / 0B             5
[2J[HCONTAINER ID        NAME                CPU %               MEM USAGE / LIMIT    MEM %               NET I/O             BLOCK I/O           PIDS
b143f382c5cc        attacker            6.10%               6.23MiB / 9.238GiB   0.07%               976B / 0B           0B / 0B             16
[2J[HCONTAINER ID        NAME                CPU %               MEM USAGE / LIMIT    MEM %               NET I/O             BLOCK I/O           PIDS
b143f382c5cc        attacker            6.10%               6.23MiB / 9.238GiB   0.07%               976B / 0B           0B / 0B             16
[2J[HCONTAINER ID        NAME                CPU %               MEM USAGE / LIMIT    MEM %               NET I/O             BLOCK I/O           PIDS
b143f382c5cc        attacker            6.19%               5.07MiB / 9.238GiB   0.05%               976B / 0B           0B / 0B             10
[2J[HCONTAINER ID        NAME                CPU %               MEM USAGE / LIMIT    MEM %               NET I/O             BLOCK I/O           PIDS
b143f382c5cc        attacker            6.19%               5.07MiB / 9.238GiB   0.05%               976B / 0B           0B / 0B             10
[2J[HCONTAINER ID        NAME                CPU %               MEM USAGE / LIMIT     MEM %               NET I/O             BLOCK I/O           PIDS
b143f382c5cc        attacker            6.22%               6.668MiB / 9.238GiB   0.07%               976B / 0B           0B / 0B             6
[2J[HCONTAINER ID        NAME                CPU %               MEM USAGE / LIMIT     MEM %               NET I/O             BLOCK I/O           PIDS
b143f382c5cc        attacker            6.22%               6.668MiB / 9.238GiB   0.07%               976B / 0B           0B / 0B             6
[2J[HCONTAINER ID        NAME                CPU %               MEM USAGE / LIMIT     MEM %               NET I/O             BLOCK I/O           PIDS
b143f382c5cc        attacker            6.07%               6.586MiB / 9.238GiB   0.07%               976B / 0B           0B / 0B             20
[2J[HCONTAINER ID        NAME                CPU %               MEM USAGE / LIMIT     MEM %               NET I/O             BLOCK I/O           PIDS
b143f382c5cc        attacker            6.07%               6.586MiB / 9.238GiB   0.07%               976B / 0B           0B / 0B             20
[2J[HCONTAINER ID        NAME                CPU %               MEM USAGE / LIMIT     MEM %               NET I/O             BLOCK I/O           PIDS
b143f382c5cc        attacker            6.17%               5.082MiB / 9.238GiB   0.05%               976B / 0B           0B / 0B             9
[2J[HCONTAINER ID        NAME                CPU %               MEM USAGE / LIMIT     MEM %               NET I/O             BLOCK I/O           PIDS
b143f382c5cc        attacker            6.17%               5.082MiB / 9.238GiB   0.05%               976B / 0B           0B / 0B             9
[2J[HCONTAINER ID        NAME                CPU %               MEM USAGE / LIMIT    MEM %               NET I/O             BLOCK I/O           PIDS
b143f382c5cc        attacker            6.18%               6.43MiB / 9.238GiB   0.07%               976B / 0B           0B / 0B             18
[2J[HCONTAINER ID        NAME                CPU %               MEM USAGE / LIMIT    MEM %               NET I/O             BLOCK I/O           PIDS
b143f382c5cc        attacker            6.18%               6.43MiB / 9.238GiB   0.07%               976B / 0B           0B / 0B             18
[2J[HCONTAINER ID        NAME                CPU %               MEM USAGE / LIMIT     MEM %               NET I/O             BLOCK I/O           PIDS
b143f382c5cc        attacker            6.14%               7.664MiB / 9.238GiB   0.08%               976B / 0B           0B / 0B             26
[2J[HCONTAINER ID        NAME                CPU %               MEM USAGE / LIMIT     MEM %               NET I/O             BLOCK I/O           PIDS
b143f382c5cc        attacker            6.14%               7.664MiB / 9.238GiB   0.08%               976B / 0B           0B / 0B             26
[2J[HCONTAINER ID        NAME                CPU %               MEM USAGE / LIMIT     MEM %               NET I/O             BLOCK I/O           PIDS
b143f382c5cc        attacker            6.24%               6.914MiB / 9.238GiB   0.07%               976B / 0B           0B / 0B             20
[2J[HCONTAINER ID        NAME                CPU %               MEM USAGE / LIMIT     MEM %               NET I/O             BLOCK I/O           PIDS
b143f382c5cc        attacker            6.24%               6.914MiB / 9.238GiB   0.07%               976B / 0B           0B / 0B             20
[2J[HCONTAINER ID        NAME                CPU %               MEM USAGE / LIMIT     MEM %               NET I/O             BLOCK I/O           PIDS
b143f382c5cc        attacker            6.28%               4.285MiB / 9.238GiB   0.05%               976B / 0B           0B / 0B             5
[2J[HCONTAINER ID        NAME                CPU %               MEM USAGE / LIMIT     MEM %               NET I/O             BLOCK I/O           PIDS
b143f382c5cc        attacker            6.28%               4.285MiB / 9.238GiB   0.05%               976B / 0B           0B / 0B             5
[2J[HCONTAINER ID        NAME                CPU %               MEM USAGE / LIMIT    MEM %               NET I/O             BLOCK I/O           PIDS
b143f382c5cc        attacker            6.08%               6.73MiB / 9.238GiB   0.07%               976B / 0B           0B / 0B             20
[2J[HCONTAINER ID        NAME                CPU %               MEM USAGE / LIMIT    MEM %               NET I/O             BLOCK I/O           PIDS
b143f382c5cc        attacker            6.08%               6.73MiB / 9.238GiB   0.07%               976B / 0B           0B / 0B             20
[2J[HCONTAINER ID        NAME                CPU %               MEM USAGE / LIMIT    MEM %               NET I/O             BLOCK I/O           PIDS
b143f382c5cc        attacker            6.22%               4.93MiB / 9.238GiB   0.05%               976B / 0B           0B / 0B             8
[2J[HCONTAINER ID        NAME                CPU %               MEM USAGE / LIMIT    MEM %               NET I/O             BLOCK I/O           PIDS
b143f382c5cc        attacker            6.22%               4.93MiB / 9.238GiB   0.05%               976B / 0B           0B / 0B             8
[2J[HCONTAINER ID        NAME                CPU %               MEM USAGE / LIMIT     MEM %               NET I/O             BLOCK I/O           PIDS
b143f382c5cc        attacker            5.78%               5.934MiB / 9.238GiB   0.06%               976B / 0B           0B / 0B             16
[2J[HCONTAINER ID        NAME                CPU %               MEM USAGE / LIMIT     MEM %               NET I/O             BLOCK I/O           PIDS
b143f382c5cc        attacker            5.78%               5.934MiB / 9.238GiB   0.06%               976B / 0B           0B / 0B             16
[2J[HCONTAINER ID        NAME                CPU %               MEM USAGE / LIMIT   MEM %               NET I/O             BLOCK I/O           PIDS
b143f382c5cc        attacker            0.00%               0B / 0B             0.00%               0B / 0B             0B / 0B             0
[2J[HCONTAINER ID        NAME                CPU %               MEM USAGE / LIMIT   MEM %               NET I/O             BLOCK I/O           PIDS
b143f382c5cc        attacker            0.00%               0B / 0B             0.00%               0B / 0B             0B / 0B             0
[2J[HCONTAINER ID        NAME                CPU %               MEM USAGE / LIMIT   MEM %               NET I/O             BLOCK I/O           PIDS
b143f382c5cc        attacker            0.00%               0B / 0B             0.00%               0B / 0B             0B / 0B             0
[2J[HCONTAINER ID        NAME                CPU %               MEM USAGE / LIMIT   MEM %               NET I/O             BLOCK I/O           PIDS
b143f382c5cc        attacker            0.00%               0B / 0B             0.00%               0B / 0B             0B / 0B             0
[2J[HCONTAINER ID        NAME                CPU %               MEM USAGE / LIMIT   MEM %               NET I/O             BLOCK I/O           PIDS
b143f382c5cc        attacker            0.00%               0B / 0B             0.00%               0B / 0B             0B / 0B             0
[2J[HCONTAINER ID        NAME                CPU %               MEM USAGE / LIMIT   MEM %               NET I/O             BLOCK I/O           PIDS
b143f382c5cc        attacker            0.00%               0B / 0B             0.00%               0B / 0B             0B / 0B             0
[2J[HCONTAINER ID        NAME                CPU %               MEM USAGE / LIMIT   MEM %               NET I/O             BLOCK I/O           PIDS
b143f382c5cc        attacker            0.00%               0B / 0B             0.00%               0B / 0B             0B / 0B             0
[2J[HCONTAINER ID        NAME                CPU %               MEM USAGE / LIMIT   MEM %               NET I/O             BLOCK I/O           PIDS
b143f382c5cc        attacker            0.00%               0B / 0B             0.00%               0B / 0B             0B / 0B             0
[2J[HCONTAINER ID        NAME                CPU %               MEM USAGE / LIMIT   MEM %               NET I/O             BLOCK I/O           PIDS
b143f382c5cc        attacker            0.00%               0B / 0B             0.00%               0B / 0B             0B / 0B             0
[2J[HCONTAINER ID        NAME                CPU %               MEM USAGE / LIMIT   MEM %               NET I/O             BLOCK I/O           PIDS
b143f382c5cc        attacker            0.00%               0B / 0B             0.00%               0B / 0B             0B / 0B             0
[2J[HCONTAINER ID        NAME                CPU %               MEM USAGE / LIMIT   MEM %               NET I/O             BLOCK I/O           PIDS
b143f382c5cc        attacker            0.00%               0B / 0B             0.00%               0B / 0B             0B / 0B             0
[2J[HCONTAINER ID        NAME                CPU %               MEM USAGE / LIMIT   MEM %               NET I/O             BLOCK I/O           PIDS
b143f382c5cc        attacker            0.00%               0B / 0B             0.00%               0B / 0B             0B / 0B             0
[2J[HCONTAINER ID        NAME                CPU %               MEM USAGE / LIMIT   MEM %               NET I/O             BLOCK I/O           PIDS
b143f382c5cc        attacker            0.00%               0B / 0B             0.00%               0B / 0B             0B / 0B             0
[2J[HCONTAINER ID        NAME                CPU %               MEM USAGE / LIMIT   MEM %               NET I/O             BLOCK I/O           PIDS
b143f382c5cc        attacker            0.00%               0B / 0B             0.00%               0B / 0B             0B / 0B             0
[2J[HCONTAINER ID        NAME                CPU %               MEM USAGE / LIMIT   MEM %               NET I/O             BLOCK I/O           PIDS
b143f382c5cc        attacker            0.00%               0B / 0B             0.00%               0B / 0B             0B / 0B             0
[2J[HCONTAINER ID        NAME                CPU %               MEM USAGE / LIMIT   MEM %               NET I/O             BLOCK I/O           PIDS
b143f382c5cc        attacker            0.00%               0B / 0B             0.00%               0B / 0B             0B / 0B             0
[2J[HCONTAINER ID        NAME                CPU %               MEM USAGE / LIMIT   MEM %               NET I/O             BLOCK I/O           PIDS
b143f382c5cc        attacker            0.00%               0B / 0B             0.00%               0B / 0B             0B / 0B             0
[2J[HCONTAINER ID        NAME                CPU %               MEM USAGE / LIMIT   MEM %               NET I/O             BLOCK I/O           PIDS
b143f382c5cc        attacker            0.00%               0B / 0B             0.00%               0B / 0B             0B / 0B             0
[2J[HCONTAINER ID        NAME                CPU %               MEM USAGE / LIMIT   MEM %               NET I/O             BLOCK I/O           PIDS
b143f382c5cc        attacker            0.00%               0B / 0B             0.00%               0B / 0B             0B / 0B             0
[2J[HCONTAINER ID        NAME                CPU %               MEM USAGE / LIMIT   MEM %               NET I/O             BLOCK I/O           PIDS
b143f382c5cc        attacker            0.00%               0B / 0B             0.00%               0B / 0B             0B / 0B             0
[2J[HCONTAINER ID        NAME                CPU %               MEM USAGE / LIMIT   MEM %               NET I/O             BLOCK I/O           PIDS
b143f382c5cc        attacker            0.00%               0B / 0B             0.00%               0B / 0B             0B / 0B             0
[2J[HCONTAINER ID        NAME                CPU %               MEM USAGE / LIMIT   MEM %               NET I/O             BLOCK I/O           PIDS
b143f382c5cc        attacker            0.00%               0B / 0B             0.00%               0B / 0B             0B / 0B             0
[2J[HCONTAINER ID        NAME                CPU %               MEM USAGE / LIMIT   MEM %               NET I/O             BLOCK I/O           PIDS
b143f382c5cc        attacker            0.00%               0B / 0B             0.00%               0B / 0B             0B / 0B             0
[2J[HCONTAINER ID        NAME                CPU %               MEM USAGE / LIMIT   MEM %               NET I/O             BLOCK I/O           PIDS
b143f382c5cc        attacker            0.00%               0B / 0B             0.00%               0B / 0B             0B / 0B             0
[2J[HCONTAINER ID        NAME                CPU %               MEM USAGE / LIMIT   MEM %               NET I/O             BLOCK I/O           PIDS
b143f382c5cc        attacker            0.00%               0B / 0B             0.00%               0B / 0B             0B / 0B             0
[2J[HCONTAINER ID        NAME                CPU %               MEM USAGE / LIMIT   MEM %               NET I/O             BLOCK I/O           PIDS
b143f382c5cc        attacker            0.00%               0B / 0B             0.00%               0B / 0B             0B / 0B             0
[2J[HCONTAINER ID        NAME                CPU %               MEM USAGE / LIMIT   MEM %               NET I/O             BLOCK I/O           PIDS
b143f382c5cc        attacker            0.00%               0B / 0B             0.00%               0B / 0B             0B / 0B             0
[2J[HCONTAINER ID        NAME                CPU %               MEM USAGE / LIMIT   MEM %               NET I/O             BLOCK I/O           PIDS
b143f382c5cc        attacker            0.00%               0B / 0B             0.00%               0B / 0B             0B / 0B             0
