Linux 5.8.0-44-generic (darkskull-pc) 	02/03/21 	_x86_64_	(4 CPU)

11:54:21 PM IST   UID       PID    %usr %system  %guest   %wait    %CPU   CPU  Command
11:54:23 PM IST     0      1070   12.44    8.96    0.00    0.00   21.39     1  dockerd
11:54:23 PM IST     0   1948520    0.00    0.50    0.00    0.00    0.50     3  kworker/3:4-events
11:54:23 PM IST     0   1954716    1.00    1.99    0.00    0.00    2.99     0  containerd-shim

11:54:23 PM IST   UID       PID    %usr %system  %guest   %wait    %CPU   CPU  Command
11:54:25 PM IST     0      1070    9.50    9.00    0.00    0.00   18.50     1  dockerd
11:54:25 PM IST     0   1954716    1.00    1.50    0.00    0.00    2.50     0  containerd-shim

11:54:25 PM IST   UID       PID    %usr %system  %guest   %wait    %CPU   CPU  Command
11:54:27 PM IST     0      1070    7.00   11.50    0.00    0.00   18.50     1  dockerd
11:54:27 PM IST     0    799992    0.00    0.50    0.00    0.00    0.50     2  kworker/2:4-events
11:54:27 PM IST     0   1954716    0.50    2.50    0.00    0.00    3.00     0  containerd-shim

11:54:27 PM IST   UID       PID    %usr %system  %guest   %wait    %CPU   CPU  Command
11:54:29 PM IST     0      1070    9.50   10.00    0.00    0.00   19.50     1  dockerd
11:54:29 PM IST     0   1954716    0.50    2.00    0.00    0.00    2.50     0  containerd-shim

11:54:29 PM IST   UID       PID    %usr %system  %guest   %wait    %CPU   CPU  Command
11:54:31 PM IST     0      1070    9.50    9.00    0.00    0.00   18.50     1  dockerd
11:54:31 PM IST     0   1954380    0.00    0.50    0.00    0.00    0.50     1  kworker/1:3-events
11:54:31 PM IST     0   1954700    0.50    0.00    0.00    0.00    0.50     0  kworker/0:2-events
11:54:31 PM IST     0   1954716    1.00    1.50    0.00    0.00    2.50     0  containerd-shim

Average:      UID       PID    %usr %system  %guest   %wait    %CPU   CPU  Command
Average:        0      1070    9.59    9.69    0.00    0.00   19.28     -  dockerd
Average:        0    799992    0.00    0.10    0.00    0.00    0.10     -  kworker/2:4-events
Average:        0   1948520    0.00    0.10    0.00    0.00    0.10     -  kworker/3:4-events
Average:        0   1954380    0.00    0.10    0.00    0.00    0.10     -  kworker/1:3-events
Average:        0   1954700    0.10    0.00    0.00    0.10    0.10     -  kworker/0:2-events
Average:        0   1954716    0.80    1.90    0.00    0.00    2.70     -  containerd-shim
Linux 5.8.0-44-generic (darkskull-pc) 	02/03/21 	_x86_64_	(4 CPU)

11:54:31 PM IST   UID       PID    %usr %system  %guest   %wait    %CPU   CPU  Command
11:54:33 PM IST     0      1070    8.96    9.95    0.00    0.00   18.91     1  dockerd
11:54:33 PM IST     0   1954716    1.49    1.49    0.00    0.00    2.99     0  containerd-shim

11:54:33 PM IST   UID       PID    %usr %system  %guest   %wait    %CPU   CPU  Command
11:54:35 PM IST     0      1070    9.00   12.50    0.00    0.00   21.50     1  dockerd
11:54:35 PM IST     0   1948520    0.00    0.50    0.00    0.00    0.50     3  kworker/3:4-events
11:54:35 PM IST     0   1954716    1.00    1.00    0.00    0.00    2.00     0  containerd-shim

11:54:35 PM IST   UID       PID    %usr %system  %guest   %wait    %CPU   CPU  Command
11:54:37 PM IST     0      1070    7.00   10.50    0.00    0.00   17.50     1  dockerd
11:54:37 PM IST     0    799992    0.00    0.50    0.00    0.00    0.50     2  kworker/2:4-events
11:54:37 PM IST     0   1954716    1.50    1.00    0.00    0.00    2.50     0  containerd-shim

11:54:37 PM IST   UID       PID    %usr %system  %guest   %wait    %CPU   CPU  Command
11:54:39 PM IST     0      1070    8.00    9.50    0.00    0.00   17.50     1  dockerd
11:54:39 PM IST     0   1954716    1.50    2.00    0.00    0.00    3.50     0  containerd-shim

11:54:39 PM IST   UID       PID    %usr %system  %guest   %wait    %CPU   CPU  Command
11:54:41 PM IST     0      1070    7.50   10.50    0.00    0.00   18.00     1  dockerd
11:54:41 PM IST  1000      2368    0.50    0.00    0.00    0.00    0.50     1  gnome-terminal-
11:54:41 PM IST     0   1954388    0.00    0.50    0.00    0.00    0.50     3  kworker/u16:2-events_power_efficient
11:54:41 PM IST     0   1954716    1.00    1.50    0.00    0.00    2.50     0  containerd-shim

Average:      UID       PID    %usr %system  %guest   %wait    %CPU   CPU  Command
Average:        0      1070    8.09   10.59    0.00    0.00   18.68     -  dockerd
Average:     1000      2368    0.10    0.00    0.00    0.00    0.10     -  gnome-terminal-
Average:        0    799992    0.00    0.10    0.00    0.00    0.10     -  kworker/2:4-events
Average:        0   1948520    0.00    0.10    0.00    0.00    0.10     -  kworker/3:4-events
Average:        0   1954388    0.00    0.10    0.00    0.00    0.10     -  kworker/u16:2-events_power_efficient
Average:        0   1954716    1.30    1.40    0.00    0.00    2.70     -  containerd-shim
Linux 5.8.0-44-generic (darkskull-pc) 	02/03/21 	_x86_64_	(4 CPU)

11:54:41 PM IST   UID       PID    %usr %system  %guest   %wait    %CPU   CPU  Command
11:54:43 PM IST     0      1070   11.94   10.45    0.00    0.00   22.39     1  dockerd
11:54:43 PM IST     0   1954380    0.00    0.50    0.00    0.50    0.50     1  kworker/1:3-events
11:54:43 PM IST     0   1954700    0.00    0.50    0.00    0.00    0.50     0  kworker/0:2-events
11:54:43 PM IST     0   1954716    0.50    1.00    0.00    0.00    1.49     0  containerd-shim

11:54:43 PM IST   UID       PID    %usr %system  %guest   %wait    %CPU   CPU  Command
11:54:45 PM IST     0      1070   11.00    7.00    0.00    0.00   18.00     1  dockerd
11:54:45 PM IST     0   1954716    1.00    2.00    0.00    0.00    3.00     0  containerd-shim

11:54:45 PM IST   UID       PID    %usr %system  %guest   %wait    %CPU   CPU  Command
11:54:47 PM IST     0      1070   12.50    9.00    0.00    0.00   21.50     1  dockerd
11:54:47 PM IST     0    799992    0.00    0.50    0.00    0.00    0.50     2  kworker/2:4-events
11:54:47 PM IST     0   1954716    0.00    2.00    0.00    0.00    2.00     0  containerd-shim

11:54:47 PM IST   UID       PID    %usr %system  %guest   %wait    %CPU   CPU  Command
11:54:49 PM IST     0      1070   11.50    9.50    0.00    0.00   21.00     1  dockerd
11:54:49 PM IST     0   1948520    0.00    0.50    0.00    0.00    0.50     3  kworker/3:4-events
11:54:49 PM IST     0   1954716    1.00    1.00    0.00    0.00    2.00     0  containerd-shim

11:54:49 PM IST   UID       PID    %usr %system  %guest   %wait    %CPU   CPU  Command
11:54:51 PM IST     0      1070   11.50   10.00    0.00    0.00   21.50     1  dockerd
11:54:51 PM IST     0   1954716    1.50    1.00    0.00    0.00    2.50     0  containerd-shim

Average:      UID       PID    %usr %system  %guest   %wait    %CPU   CPU  Command
Average:        0      1070   11.69    9.19    0.00    0.00   20.88     -  dockerd
Average:        0    799992    0.00    0.10    0.00    0.00    0.10     -  kworker/2:4-events
Average:        0   1948520    0.00    0.10    0.00    0.00    0.10     -  kworker/3:4-events
Average:        0   1954380    0.00    0.10    0.00    0.10    0.10     -  kworker/1:3-events
Average:        0   1954700    0.00    0.10    0.00    0.00    0.10     -  kworker/0:2-events
Average:        0   1954716    0.80    1.40    0.00    0.00    2.20     -  containerd-shim
