clock setaffinity failed: Invalid argument
clock setaffinity failed: Invalid argument
clock setaffinity failed: Invalid argument
file1: (g=0): rw=randread, bs=4K-4K/4K-4K/4K-4K, ioengine=libaio, iodepth=16
file1: (g=1): rw=randwrite, bs=4K-4K/4K-4K/4K-4K, ioengine=libaio, iodepth=16
...
file1: (g=2): rw=read, bs=256K-256K/256K-256K/256K-256K, ioengine=libaio, iodepth=16
file1: (g=3): rw=write, bs=256K-256K/256K-256K/256K-256K, ioengine=libaio, iodepth=16
fio-2.2.10
Starting 7 processes
file1: Laying out IO file(s) (1 file(s) / 500MB)
file1: Laying out IO file(s) (1 file(s) / 500MB)
file1: Laying out IO file(s) (1 file(s) / 500MB)
file1: Laying out IO file(s) (1 file(s) / 500MB)

file1: (groupid=0, jobs=1): err= 0: pid=17: Mon Mar  1 18:11:25 2021
  read : io=32308KB, bw=55136B/s, iops=13, runt=600031msec
    slat (usec): min=152, max=568047, avg=74269.73, stdev=29024.65
    clat (usec): min=16, max=1948.4K, avg=1113383.70, stdev=246074.21
     lat (msec): min=71, max=2161, avg=1187.66, stdev=260.36
    clat percentiles (msec):
     |  1.00th=[  594],  5.00th=[  807], 10.00th=[  832], 20.00th=[  873],
     | 30.00th=[  906], 40.00th=[ 1004], 50.00th=[ 1172], 60.00th=[ 1221],
     | 70.00th=[ 1270], 80.00th=[ 1319], 90.00th=[ 1401], 95.00th=[ 1467],
     | 99.00th=[ 1663], 99.50th=[ 1729], 99.90th=[ 1876], 99.95th=[ 1909],
     | 99.99th=[ 1942]
    bw (KB  /s): min=    3, max=  343, per=100.00%, avg=53.61, stdev=16.67
    lat (usec) : 20=0.01%
    lat (msec) : 100=0.01%, 250=0.83%, 500=0.11%, 750=0.51%, 1000=38.37%
    lat (msec) : 2000=60.16%
  cpu          : usr=0.03%, sys=0.07%, ctx=8139, majf=0, minf=24
  IO depths    : 1=0.1%, 2=0.1%, 4=0.1%, 8=0.1%, 16=99.8%, 32=0.0%, >=64=0.0%
     submit    : 0=0.0%, 4=100.0%, 8=0.0%, 16=0.0%, 32=0.0%, 64=0.0%, >=64=0.0%
     complete  : 0=0.0%, 4=100.0%, 8=0.0%, 16=0.1%, 32=0.0%, 64=0.0%, >=64=0.0%
     issued    : total=r=8077/w=0/d=0, short=r=0/w=0/d=0, drop=r=0/w=0/d=0
     latency   : target=0, window=0, percentile=100.00%, depth=16
file1: (groupid=1, jobs=1): err= 0: pid=18: Mon Mar  1 18:11:25 2021
  write: io=8500.4MB, bw=14267KB/s, iops=3566, runt=610100msec
    slat (usec): min=4, max=1720.7K, avg=37.12, stdev=1756.49
    clat (usec): min=4, max=1728.2K, avg=750.02, stdev=7330.11
     lat (usec): min=9, max=1728.2K, avg=787.93, stdev=7555.18
    clat percentiles (usec):
     |  1.00th=[  137],  5.00th=[  143], 10.00th=[  147], 20.00th=[  151],
     | 30.00th=[  155], 40.00th=[  157], 50.00th=[  161], 60.00th=[  165],
     | 70.00th=[  171], 80.00th=[  179], 90.00th=[  191], 95.00th=[  203],
     | 99.00th=[24192], 99.50th=[28288], 99.90th=[44288], 99.95th=[76288],
     | 99.99th=[203776]
    bw (KB  /s): min=    0, max=187760, per=100.00%, avg=74844.55, stdev=29754.69
    lat (usec) : 10=0.01%, 20=0.01%, 50=0.01%, 100=0.01%, 250=96.84%
    lat (usec) : 500=0.47%, 750=0.02%, 1000=0.02%
    lat (msec) : 2=0.04%, 4=0.05%, 10=0.52%, 20=0.61%, 50=1.35%
    lat (msec) : 100=0.05%, 250=0.02%, 500=0.01%, 750=0.01%, 2000=0.01%
  cpu          : usr=1.32%, sys=2.83%, ctx=23990, majf=0, minf=9
  IO depths    : 1=0.1%, 2=0.1%, 4=0.1%, 8=0.1%, 16=100.0%, 32=0.0%, >=64=0.0%
     submit    : 0=0.0%, 4=100.0%, 8=0.0%, 16=0.0%, 32=0.0%, 64=0.0%, >=64=0.0%
     complete  : 0=0.0%, 4=100.0%, 8=0.0%, 16=0.1%, 32=0.0%, 64=0.0%, >=64=0.0%
     issued    : total=r=0/w=2176001/d=0, short=r=0/w=0/d=0, drop=r=0/w=0/d=0
     latency   : target=0, window=0, percentile=100.00%, depth=16
file1: (groupid=1, jobs=1): err= 0: pid=19: Mon Mar  1 18:11:25 2021
  write: io=8500.4MB, bw=14267KB/s, iops=3566, runt=610100msec
    slat (usec): min=4, max=1698.7K, avg=37.10, stdev=1758.06
    clat (usec): min=3, max=1722.3K, avg=751.51, stdev=7303.26
     lat (usec): min=9, max=1722.3K, avg=789.45, stdev=7525.44
    clat percentiles (usec):
     |  1.00th=[  137],  5.00th=[  143], 10.00th=[  147], 20.00th=[  151],
     | 30.00th=[  155], 40.00th=[  157], 50.00th=[  161], 60.00th=[  167],
     | 70.00th=[  173], 80.00th=[  181], 90.00th=[  191], 95.00th=[  203],
     | 99.00th=[23680], 99.50th=[28288], 99.90th=[44800], 99.95th=[76288],
     | 99.99th=[205824]
    bw (KB  /s): min=    0, max=183037, per=100.00%, avg=75079.00, stdev=30763.10
    lat (usec) : 4=0.01%, 10=0.01%, 20=0.01%, 50=0.01%, 100=0.01%
    lat (usec) : 250=96.84%, 500=0.46%, 750=0.03%, 1000=0.01%
    lat (msec) : 2=0.03%, 4=0.07%, 10=0.48%, 20=0.67%, 50=1.31%
    lat (msec) : 100=0.05%, 250=0.03%, 500=0.01%, 750=0.01%, 2000=0.01%
  cpu          : usr=1.36%, sys=2.92%, ctx=23516, majf=0, minf=11
  IO depths    : 1=0.1%, 2=0.1%, 4=0.1%, 8=0.1%, 16=100.0%, 32=0.0%, >=64=0.0%
     submit    : 0=0.0%, 4=100.0%, 8=0.0%, 16=0.0%, 32=0.0%, 64=0.0%, >=64=0.0%
     complete  : 0=0.0%, 4=100.0%, 8=0.0%, 16=0.1%, 32=0.0%, 64=0.0%, >=64=0.0%
     issued    : total=r=0/w=2176001/d=0, short=r=0/w=0/d=0, drop=r=0/w=0/d=0
     latency   : target=0, window=0, percentile=100.00%, depth=16
file1: (groupid=1, jobs=1): err= 0: pid=20: Mon Mar  1 18:11:25 2021
  write: io=8000.4MB, bw=13426KB/s, iops=3356, runt=610140msec
    slat (usec): min=4, max=1704.7K, avg=37.60, stdev=1801.82
    clat (usec): min=4, max=1709.7K, avg=774.17, stdev=7450.44
     lat (usec): min=9, max=1709.8K, avg=812.77, stdev=7675.70
    clat percentiles (usec):
     |  1.00th=[  137],  5.00th=[  143], 10.00th=[  145], 20.00th=[  149],
     | 30.00th=[  153], 40.00th=[  157], 50.00th=[  161], 60.00th=[  165],
     | 70.00th=[  171], 80.00th=[  179], 90.00th=[  189], 95.00th=[  203],
     | 99.00th=[24192], 99.50th=[28288], 99.90th=[48384], 99.95th=[80384],
     | 99.99th=[199680]
    bw (KB  /s): min=    0, max=137860, per=100.00%, avg=72769.79, stdev=26334.84
    lat (usec) : 10=0.01%, 20=0.01%, 50=0.01%, 100=0.01%, 250=96.84%
    lat (usec) : 500=0.40%, 750=0.03%, 1000=0.01%
    lat (msec) : 2=0.04%, 4=0.06%, 10=0.45%, 20=0.69%, 50=1.37%
    lat (msec) : 100=0.06%, 250=0.03%, 500=0.01%, 750=0.01%, 2000=0.01%
  cpu          : usr=1.37%, sys=2.54%, ctx=23001, majf=0, minf=10
  IO depths    : 1=0.1%, 2=0.1%, 4=0.1%, 8=0.1%, 16=100.0%, 32=0.0%, >=64=0.0%
     submit    : 0=0.0%, 4=100.0%, 8=0.0%, 16=0.0%, 32=0.0%, 64=0.0%, >=64=0.0%
     complete  : 0=0.0%, 4=100.0%, 8=0.0%, 16=0.1%, 32=0.0%, 64=0.0%, >=64=0.0%
     issued    : total=r=0/w=2048001/d=0, short=r=0/w=0/d=0, drop=r=0/w=0/d=0
     latency   : target=0, window=0, percentile=100.00%, depth=16
file1: (groupid=1, jobs=1): err= 0: pid=21: Mon Mar  1 18:11:25 2021
  write: io=8000.4MB, bw=13427KB/s, iops=3356, runt=610126msec
    slat (usec): min=4, max=1629.6K, avg=37.94, stdev=1778.59
    clat (usec): min=3, max=1712.9K, avg=774.32, stdev=7437.69
     lat (usec): min=9, max=1712.1K, avg=813.12, stdev=7665.15
    clat percentiles (usec):
     |  1.00th=[  137],  5.00th=[  143], 10.00th=[  145], 20.00th=[  151],
     | 30.00th=[  153], 40.00th=[  157], 50.00th=[  161], 60.00th=[  165],
     | 70.00th=[  171], 80.00th=[  179], 90.00th=[  191], 95.00th=[  203],
     | 99.00th=[24192], 99.50th=[28288], 99.90th=[44288], 99.95th=[79360],
     | 99.99th=[191488]
    bw (KB  /s): min=    0, max=146776, per=100.00%, avg=72848.72, stdev=26778.79
    lat (usec) : 4=0.01%, 10=0.01%, 20=0.01%, 50=0.01%, 100=0.01%
    lat (usec) : 250=96.76%, 500=0.45%, 750=0.02%, 1000=0.02%
    lat (msec) : 2=0.04%, 4=0.06%, 10=0.50%, 20=0.66%, 50=1.39%
    lat (msec) : 100=0.05%, 250=0.03%, 500=0.01%, 750=0.01%, 2000=0.01%
  cpu          : usr=1.28%, sys=2.65%, ctx=22505, majf=0, minf=11
  IO depths    : 1=0.1%, 2=0.1%, 4=0.1%, 8=0.1%, 16=100.0%, 32=0.0%, >=64=0.0%
     submit    : 0=0.0%, 4=100.0%, 8=0.0%, 16=0.0%, 32=0.0%, 64=0.0%, >=64=0.0%
     complete  : 0=0.0%, 4=100.0%, 8=0.0%, 16=0.1%, 32=0.0%, 64=0.0%, >=64=0.0%
     issued    : total=r=0/w=2048001/d=0, short=r=0/w=0/d=0, drop=r=0/w=0/d=0
     latency   : target=0, window=0, percentile=100.00%, depth=16
file1: (groupid=2, jobs=1): err= 0: pid=22: Mon Mar  1 18:11:25 2021
  read : io=24490MB, bw=41791KB/s, iops=163, runt=600063msec
    slat (usec): min=13, max=5823, avg=43.59, stdev=24.58
    clat (msec): min=15, max=447, avg=97.91, stdev=43.76
     lat (msec): min=15, max=447, avg=97.95, stdev=43.76
    clat percentiles (msec):
     |  1.00th=[   56],  5.00th=[   63], 10.00th=[   67], 20.00th=[   67],
     | 30.00th=[   67], 40.00th=[   67], 50.00th=[   68], 60.00th=[   90],
     | 70.00th=[  123], 80.00th=[  137], 90.00th=[  157], 95.00th=[  174],
     | 99.00th=[  239], 99.50th=[  265], 99.90th=[  322], 99.95th=[  355],
     | 99.99th=[  412]
    bw (KB  /s): min=12190, max=62976, per=100.00%, avg=41842.70, stdev=7321.18
    lat (msec) : 20=0.04%, 50=0.46%, 100=61.41%, 250=37.34%, 500=0.75%
  cpu          : usr=0.25%, sys=0.93%, ctx=82484, majf=0, minf=1033
  IO depths    : 1=0.1%, 2=0.1%, 4=0.2%, 8=0.4%, 16=99.2%, 32=0.0%, >=64=0.0%
     submit    : 0=0.0%, 4=100.0%, 8=0.0%, 16=0.0%, 32=0.0%, 64=0.0%, >=64=0.0%
     complete  : 0=0.0%, 4=99.9%, 8=0.0%, 16=0.1%, 32=0.0%, 64=0.0%, >=64=0.0%
     issued    : total=r=97958/w=0/d=0, short=r=0/w=0/d=0, drop=r=0/w=0/d=0
     latency   : target=0, window=0, percentile=100.00%, depth=16
file1: (groupid=3, jobs=1): err= 0: pid=23: Mon Mar  1 18:11:25 2021
  write: io=19000MB, bw=31890KB/s, iops=124, runt=610105msec
    slat (usec): min=120, max=462924, avg=321.91, stdev=4552.11
    clat (usec): min=5, max=467881, avg=4628.94, stdev=16241.54
     lat (usec): min=134, max=468131, avg=4951.34, stdev=16923.48
    clat percentiles (msec):
     |  1.00th=[    3],  5.00th=[    4], 10.00th=[    4], 20.00th=[    4],
     | 30.00th=[    4], 40.00th=[    4], 50.00th=[    4], 60.00th=[    4],
     | 70.00th=[    4], 80.00th=[    4], 90.00th=[    4], 95.00th=[    5],
     | 99.00th=[    6], 99.50th=[   13], 99.90th=[  396], 99.95th=[  429],
     | 99.99th=[  469]
    bw (KB  /s): min=   10, max=1014272, per=100.00%, avg=342035.04, stdev=432674.21
    lat (usec) : 10=0.05%, 250=0.03%, 500=0.08%, 750=0.07%, 1000=0.07%
    lat (msec) : 2=0.27%, 4=91.88%, 10=6.97%, 20=0.09%, 50=0.10%
    lat (msec) : 100=0.11%, 250=0.14%, 500=0.14%
  cpu          : usr=0.20%, sys=4.11%, ctx=13486, majf=0, minf=11
  IO depths    : 1=0.1%, 2=0.1%, 4=0.2%, 8=0.4%, 16=99.2%, 32=0.0%, >=64=0.0%
     submit    : 0=0.0%, 4=100.0%, 8=0.0%, 16=0.0%, 32=0.0%, 64=0.0%, >=64=0.0%
     complete  : 0=0.0%, 4=99.9%, 8=0.0%, 16=0.1%, 32=0.0%, 64=0.0%, >=64=0.0%
     issued    : total=r=0/w=76001/d=0, short=r=0/w=0/d=0, drop=r=0/w=0/d=0
     latency   : target=0, window=0, percentile=100.00%, depth=16

Run status group 0 (all jobs):
   READ: io=32308KB, aggrb=53KB/s, minb=53KB/s, maxb=53KB/s, mint=600031msec, maxt=600031msec

Run status group 1 (all jobs):
  WRITE: io=33000MB, aggrb=55384KB/s, minb=13426KB/s, maxb=14266KB/s, mint=610100msec, maxt=610140msec

Run status group 2 (all jobs):
   READ: io=24490MB, aggrb=41791KB/s, minb=41791KB/s, maxb=41791KB/s, mint=600063msec, maxt=600063msec

Run status group 3 (all jobs):
  WRITE: io=19000MB, aggrb=31890KB/s, minb=31890KB/s, maxb=31890KB/s, mint=610105msec, maxt=610105msec
clock setaffinity failed: Invalid argument
clock setaffinity failed: Invalid argument
clock setaffinity failed: Invalid argument
file1: (g=0): rw=randread, bs=4K-4K/4K-4K/4K-4K, ioengine=libaio, iodepth=16
file1: (g=1): rw=randwrite, bs=4K-4K/4K-4K/4K-4K, ioengine=libaio, iodepth=16
...
file1: (g=2): rw=read, bs=256K-256K/256K-256K/256K-256K, ioengine=libaio, iodepth=16
file1: (g=3): rw=write, bs=256K-256K/256K-256K/256K-256K, ioengine=libaio, iodepth=16
fio-2.2.10
Starting 7 processes

file1: (groupid=0, jobs=1): err= 0: pid=30: Mon Mar  1 18:51:28 2021
  read : io=32660KB, bw=55733B/s, iops=13, runt=600072msec
    slat (msec): min=1, max=481, avg=73.47, stdev=25.49
    clat (usec): min=15, max=1901.2K, avg=1101080.62, stdev=208463.57
     lat (msec): min=75, max=1979, avg=1174.56, stdev=220.40
    clat percentiles (msec):
     |  1.00th=[  807],  5.00th=[  848], 10.00th=[  865], 20.00th=[  889],
     | 30.00th=[  906], 40.00th=[  947], 50.00th=[ 1139], 60.00th=[ 1205],
     | 70.00th=[ 1237], 80.00th=[ 1287], 90.00th=[ 1369], 95.00th=[ 1434],
     | 99.00th=[ 1598], 99.50th=[ 1663], 99.90th=[ 1762], 99.95th=[ 1778],
     | 99.99th=[ 1909]
    bw (KB  /s): min=    3, max=   80, per=100.00%, avg=54.17, stdev=11.15
    lat (usec) : 20=0.01%
    lat (msec) : 100=0.01%, 250=0.02%, 500=0.02%, 750=0.05%, 1000=43.82%
    lat (msec) : 2000=56.06%
  cpu          : usr=0.03%, sys=0.07%, ctx=8229, majf=0, minf=24
  IO depths    : 1=0.1%, 2=0.1%, 4=0.1%, 8=0.1%, 16=99.8%, 32=0.0%, >=64=0.0%
     submit    : 0=0.0%, 4=100.0%, 8=0.0%, 16=0.0%, 32=0.0%, 64=0.0%, >=64=0.0%
     complete  : 0=0.0%, 4=100.0%, 8=0.0%, 16=0.1%, 32=0.0%, 64=0.0%, >=64=0.0%
     issued    : total=r=8165/w=0/d=0, short=r=0/w=0/d=0, drop=r=0/w=0/d=0
     latency   : target=0, window=0, percentile=100.00%, depth=16
file1: (groupid=1, jobs=1): err= 0: pid=31: Mon Mar  1 18:51:28 2021
  write: io=7866.8MB, bw=13426KB/s, iops=3356, runt=600006msec
    slat (usec): min=4, max=3867.2K, avg=40.94, stdev=3540.74
    clat (usec): min=4, max=3884.9K, avg=810.05, stdev=14031.93
     lat (usec): min=9, max=3884.9K, avg=851.79, stdev=14484.39
    clat percentiles (usec):
     |  1.00th=[  137],  5.00th=[  143], 10.00th=[  147], 20.00th=[  151],
     | 30.00th=[  155], 40.00th=[  159], 50.00th=[  163], 60.00th=[  167],
     | 70.00th=[  173], 80.00th=[  181], 90.00th=[  193], 95.00th=[  207],
     | 99.00th=[24192], 99.50th=[28288], 99.90th=[45824], 99.95th=[84480],
     | 99.99th=[203776]
    bw (KB  /s): min=    0, max=174435, per=100.00%, avg=73397.12, stdev=30495.69
    lat (usec) : 10=0.01%, 20=0.01%, 50=0.01%, 100=0.01%, 250=96.76%
    lat (usec) : 500=0.49%, 750=0.04%, 1000=0.01%
    lat (msec) : 2=0.04%, 4=0.05%, 10=0.51%, 20=0.68%, 50=1.32%
    lat (msec) : 100=0.06%, 250=0.02%, 500=0.01%, 750=0.01%, 1000=0.01%
    lat (msec) : 2000=0.01%, >=2000=0.01%
  cpu          : usr=1.33%, sys=2.60%, ctx=22250, majf=0, minf=9
  IO depths    : 1=0.1%, 2=0.1%, 4=0.1%, 8=0.1%, 16=100.0%, 32=0.0%, >=64=0.0%
     submit    : 0=0.0%, 4=100.0%, 8=0.0%, 16=0.0%, 32=0.0%, 64=0.0%, >=64=0.0%
     complete  : 0=0.0%, 4=100.0%, 8=0.0%, 16=0.1%, 32=0.0%, 64=0.0%, >=64=0.0%
     issued    : total=r=0/w=2013892/d=0, short=r=0/w=0/d=0, drop=r=0/w=0/d=0
     latency   : target=0, window=0, percentile=100.00%, depth=16
file1: (groupid=1, jobs=1): err= 0: pid=32: Mon Mar  1 18:51:28 2021
  write: io=7866.6MB, bw=13425KB/s, iops=3356, runt=600005msec
    slat (usec): min=4, max=3879.3K, avg=40.51, stdev=3536.79
    clat (usec): min=4, max=3895.4K, avg=808.00, stdev=14047.11
     lat (usec): min=9, max=3895.5K, avg=849.29, stdev=14500.44
    clat percentiles (usec):
     |  1.00th=[  137],  5.00th=[  143], 10.00th=[  147], 20.00th=[  151],
     | 30.00th=[  155], 40.00th=[  157], 50.00th=[  161], 60.00th=[  167],
     | 70.00th=[  173], 80.00th=[  181], 90.00th=[  193], 95.00th=[  205],
     | 99.00th=[24192], 99.50th=[28288], 99.90th=[48384], 99.95th=[86528],
     | 99.99th=[191488]
    bw (KB  /s): min=    0, max=176545, per=100.00%, avg=73230.86, stdev=30402.92
    lat (usec) : 10=0.01%, 20=0.01%, 50=0.01%, 100=0.01%, 250=96.76%
    lat (usec) : 500=0.48%, 750=0.02%, 1000=0.02%
    lat (msec) : 2=0.04%, 4=0.05%, 10=0.53%, 20=0.69%, 50=1.31%
    lat (msec) : 100=0.06%, 250=0.03%, 500=0.01%, 750=0.01%, 1000=0.01%
    lat (msec) : 2000=0.01%, >=2000=0.01%
  cpu          : usr=1.29%, sys=2.64%, ctx=22431, majf=0, minf=11
  IO depths    : 1=0.1%, 2=0.1%, 4=0.1%, 8=0.1%, 16=100.0%, 32=0.0%, >=64=0.0%
     submit    : 0=0.0%, 4=100.0%, 8=0.0%, 16=0.0%, 32=0.0%, 64=0.0%, >=64=0.0%
     complete  : 0=0.0%, 4=100.0%, 8=0.0%, 16=0.1%, 32=0.0%, 64=0.0%, >=64=0.0%
     issued    : total=r=0/w=2013838/d=0, short=r=0/w=0/d=0, drop=r=0/w=0/d=0
     latency   : target=0, window=0, percentile=100.00%, depth=16
file1: (groupid=1, jobs=1): err= 0: pid=33: Mon Mar  1 18:51:28 2021
  write: io=7364.9MB, bw=12569KB/s, iops=3142, runt=600000msec
    slat (usec): min=4, max=3884.6K, avg=42.00, stdev=3674.81
    clat (usec): min=4, max=3891.4K, avg=837.69, stdev=14511.21
     lat (usec): min=10, max=3891.2K, avg=880.60, stdev=14978.27
    clat percentiles (usec):
     |  1.00th=[  137],  5.00th=[  143], 10.00th=[  147], 20.00th=[  151],
     | 30.00th=[  155], 40.00th=[  159], 50.00th=[  161], 60.00th=[  167],
     | 70.00th=[  173], 80.00th=[  181], 90.00th=[  193], 95.00th=[  207],
     | 99.00th=[24192], 99.50th=[28288], 99.90th=[47360], 99.95th=[87552],
     | 99.99th=[209920]
    bw (KB  /s): min=    0, max=100294, per=100.00%, avg=70832.45, stdev=26635.63
    lat (usec) : 10=0.01%, 20=0.01%, 50=0.01%, 100=0.01%, 250=96.72%
    lat (usec) : 500=0.48%, 750=0.03%, 1000=0.01%
    lat (msec) : 2=0.04%, 4=0.06%, 10=0.48%, 20=0.65%, 50=1.43%
    lat (msec) : 100=0.06%, 250=0.03%, 500=0.01%, 750=0.01%, 1000=0.01%
    lat (msec) : 2000=0.01%, >=2000=0.01%
  cpu          : usr=1.21%, sys=2.50%, ctx=21637, majf=0, minf=10
  IO depths    : 1=0.1%, 2=0.1%, 4=0.1%, 8=0.1%, 16=100.0%, 32=0.0%, >=64=0.0%
     submit    : 0=0.0%, 4=100.0%, 8=0.0%, 16=0.0%, 32=0.0%, 64=0.0%, >=64=0.0%
     complete  : 0=0.0%, 4=100.0%, 8=0.0%, 16=0.1%, 32=0.0%, 64=0.0%, >=64=0.0%
     issued    : total=r=0/w=1885403/d=0, short=r=0/w=0/d=0, drop=r=0/w=0/d=0
     latency   : target=0, window=0, percentile=100.00%, depth=16
file1: (groupid=1, jobs=1): err= 0: pid=34: Mon Mar  1 18:51:28 2021
  write: io=7376.7MB, bw=12589KB/s, iops=3147, runt=600000msec
    slat (usec): min=4, max=3886.0K, avg=42.38, stdev=3677.11
    clat (usec): min=4, max=3886.4K, avg=836.17, stdev=14489.15
     lat (usec): min=10, max=3886.4K, avg=879.31, stdev=14956.96
    clat percentiles (usec):
     |  1.00th=[  137],  5.00th=[  143], 10.00th=[  145], 20.00th=[  151],
     | 30.00th=[  153], 40.00th=[  157], 50.00th=[  161], 60.00th=[  165],
     | 70.00th=[  173], 80.00th=[  181], 90.00th=[  193], 95.00th=[  207],
     | 99.00th=[24192], 99.50th=[28288], 99.90th=[48384], 99.95th=[84480],
     | 99.99th=[216064]
    bw (KB  /s): min=    0, max=102088, per=100.00%, avg=70910.56, stdev=26861.82
    lat (usec) : 10=0.01%, 20=0.01%, 50=0.01%, 100=0.01%, 250=96.65%
    lat (usec) : 500=0.52%, 750=0.04%, 1000=0.01%
    lat (msec) : 2=0.04%, 4=0.05%, 10=0.49%, 20=0.68%, 50=1.41%
    lat (msec) : 100=0.06%, 250=0.03%, 500=0.01%, 750=0.01%, 1000=0.01%
    lat (msec) : 2000=0.01%, >=2000=0.01%
  cpu          : usr=1.24%, sys=2.49%, ctx=22469, majf=0, minf=11
  IO depths    : 1=0.1%, 2=0.1%, 4=0.1%, 8=0.1%, 16=100.0%, 32=0.0%, >=64=0.0%
     submit    : 0=0.0%, 4=100.0%, 8=0.0%, 16=0.0%, 32=0.0%, 64=0.0%, >=64=0.0%
     complete  : 0=0.0%, 4=100.0%, 8=0.0%, 16=0.1%, 32=0.0%, 64=0.0%, >=64=0.0%
     issued    : total=r=0/w=1888413/d=0, short=r=0/w=0/d=0, drop=r=0/w=0/d=0
     latency   : target=0, window=0, percentile=100.00%, depth=16
file1: (groupid=2, jobs=1): err= 0: pid=35: Mon Mar  1 18:51:28 2021
  read : io=22462MB, bw=38331KB/s, iops=149, runt=600064msec
    slat (usec): min=13, max=12180, avg=39.26, stdev=45.54
    clat (msec): min=3, max=2260, avg=106.76, stdev=58.03
     lat (msec): min=3, max=2260, avg=106.80, stdev=58.03
    clat percentiles (msec):
     |  1.00th=[   48],  5.00th=[   59], 10.00th=[   67], 20.00th=[   67],
     | 30.00th=[   67], 40.00th=[   68], 50.00th=[   83], 60.00th=[  119],
     | 70.00th=[  133], 80.00th=[  151], 90.00th=[  178], 95.00th=[  196],
     | 99.00th=[  265], 99.50th=[  293], 99.90th=[  383], 99.95th=[  412],
     | 99.99th=[ 2212]
    bw (KB  /s): min= 9534, max=64000, per=100.00%, avg=38385.03, stdev=7508.25
    lat (msec) : 4=0.37%, 10=0.18%, 20=0.03%, 50=1.68%, 100=52.69%
    lat (msec) : 250=43.75%, 500=1.28%, >=2000=0.02%
  cpu          : usr=0.23%, sys=0.76%, ctx=69097, majf=0, minf=1033
  IO depths    : 1=0.1%, 2=0.1%, 4=0.2%, 8=0.4%, 16=99.2%, 32=0.0%, >=64=0.0%
     submit    : 0=0.0%, 4=100.0%, 8=0.0%, 16=0.0%, 32=0.0%, 64=0.0%, >=64=0.0%
     complete  : 0=0.0%, 4=99.9%, 8=0.0%, 16=0.1%, 32=0.0%, 64=0.0%, >=64=0.0%
     issued    : total=r=89848/w=0/d=0, short=r=0/w=0/d=0, drop=r=0/w=0/d=0
     latency   : target=0, window=0, percentile=100.00%, depth=16
file1: (groupid=3, jobs=1): err= 0: pid=36: Mon Mar  1 18:51:28 2021
  write: io=18500MB, bw=31543KB/s, iops=123, runt=600576msec
    slat (usec): min=120, max=613434, avg=288.74, stdev=3218.57
    clat (usec): min=5, max=621584, avg=4250.81, stdev=12085.40
     lat (usec): min=128, max=621849, avg=4540.07, stdev=12571.00
    clat percentiles (msec):
     |  1.00th=[    3],  5.00th=[    4], 10.00th=[    4], 20.00th=[    4],
     | 30.00th=[    4], 40.00th=[    4], 50.00th=[    4], 60.00th=[    4],
     | 70.00th=[    4], 80.00th=[    4], 90.00th=[    4], 95.00th=[    5],
     | 99.00th=[    5], 99.50th=[    7], 99.90th=[  165], 99.95th=[  347],
     | 99.99th=[  619]
    bw (KB  /s): min=   12, max=1014784, per=100.00%, avg=431687.48, stdev=468507.35
    lat (usec) : 10=0.05%, 250=0.03%, 500=0.07%, 750=0.07%, 1000=0.07%
    lat (msec) : 2=0.26%, 4=91.87%, 10=7.24%, 20=0.07%, 50=0.06%
    lat (msec) : 100=0.06%, 250=0.08%, 500=0.04%, 750=0.02%
  cpu          : usr=0.20%, sys=4.14%, ctx=14250, majf=0, minf=11
  IO depths    : 1=0.1%, 2=0.1%, 4=0.2%, 8=0.4%, 16=99.2%, 32=0.0%, >=64=0.0%
     submit    : 0=0.0%, 4=100.0%, 8=0.0%, 16=0.0%, 32=0.0%, 64=0.0%, >=64=0.0%
     complete  : 0=0.0%, 4=99.9%, 8=0.0%, 16=0.1%, 32=0.0%, 64=0.0%, >=64=0.0%
     issued    : total=r=0/w=74001/d=0, short=r=0/w=0/d=0, drop=r=0/w=0/d=0
     latency   : target=0, window=0, percentile=100.00%, depth=16

Run status group 0 (all jobs):
   READ: io=32660KB, aggrb=54KB/s, minb=54KB/s, maxb=54KB/s, mint=600072msec, maxt=600072msec

Run status group 1 (all jobs):
  WRITE: io=30475MB, aggrb=52009KB/s, minb=12569KB/s, maxb=13425KB/s, mint=600000msec, maxt=600006msec

Run status group 2 (all jobs):
   READ: io=22462MB, aggrb=38331KB/s, minb=38331KB/s, maxb=38331KB/s, mint=600064msec, maxt=600064msec

Run status group 3 (all jobs):
  WRITE: io=18500MB, aggrb=31543KB/s, minb=31543KB/s, maxb=31543KB/s, mint=600576msec, maxt=600576msec
clock setaffinity failed: Invalid argument
clock setaffinity failed: Invalid argument
clock setaffinity failed: Invalid argument
file1: (g=0): rw=randread, bs=4K-4K/4K-4K/4K-4K, ioengine=libaio, iodepth=16
file1: (g=1): rw=randwrite, bs=4K-4K/4K-4K/4K-4K, ioengine=libaio, iodepth=16
...
file1: (g=2): rw=read, bs=256K-256K/256K-256K/256K-256K, ioengine=libaio, iodepth=16
file1: (g=3): rw=write, bs=256K-256K/256K-256K/256K-256K, ioengine=libaio, iodepth=16
fio-2.2.10
Starting 7 processes

file1: (groupid=0, jobs=1): err= 0: pid=43: Mon Mar  1 19:31:55 2021
  read : io=33148KB, bw=56569B/s, iops=13, runt=600032msec
    slat (usec): min=149, max=755393, avg=72386.51, stdev=30596.48
    clat (usec): min=15, max=2170.5K, avg=1084821.89, stdev=222174.72
     lat (msec): min=56, max=2246, avg=1157.21, stdev=234.20
    clat percentiles (msec):
     |  1.00th=[  775],  5.00th=[  807], 10.00th=[  832], 20.00th=[  857],
     | 30.00th=[  881], 40.00th=[  971], 50.00th=[ 1123], 60.00th=[ 1172],
     | 70.00th=[ 1221], 80.00th=[ 1270], 90.00th=[ 1352], 95.00th=[ 1418],
     | 99.00th=[ 1713], 99.50th=[ 1860], 99.90th=[ 2114], 99.95th=[ 2114],
     | 99.99th=[ 2180]
    bw (KB  /s): min=    2, max=   80, per=100.00%, avg=55.08, stdev=12.22
    lat (usec) : 20=0.01%
    lat (msec) : 100=0.01%, 250=0.02%, 500=0.04%, 750=0.18%, 1000=41.38%
    lat (msec) : 2000=58.18%, >=2000=0.18%
  cpu          : usr=0.03%, sys=0.08%, ctx=8354, majf=0, minf=24
  IO depths    : 1=0.1%, 2=0.1%, 4=0.1%, 8=0.1%, 16=99.8%, 32=0.0%, >=64=0.0%
     submit    : 0=0.0%, 4=100.0%, 8=0.0%, 16=0.0%, 32=0.0%, 64=0.0%, >=64=0.0%
     complete  : 0=0.0%, 4=100.0%, 8=0.0%, 16=0.1%, 32=0.0%, 64=0.0%, >=64=0.0%
     issued    : total=r=8287/w=0/d=0, short=r=0/w=0/d=0, drop=r=0/w=0/d=0
     latency   : target=0, window=0, percentile=100.00%, depth=16
file1: (groupid=1, jobs=1): err= 0: pid=44: Mon Mar  1 19:31:55 2021
  write: io=8000.4MB, bw=13141KB/s, iops=3285, runt=623371msec
    slat (usec): min=4, max=705416, avg=37.26, stdev=1406.65
    clat (usec): min=3, max=716282, avg=759.34, stdev=5995.35
     lat (usec): min=10, max=716290, avg=797.54, stdev=6172.30
    clat percentiles (usec):
     |  1.00th=[  137],  5.00th=[  141], 10.00th=[  145], 20.00th=[  149],
     | 30.00th=[  153], 40.00th=[  157], 50.00th=[  161], 60.00th=[  165],
     | 70.00th=[  171], 80.00th=[  179], 90.00th=[  189], 95.00th=[  201],
     | 99.00th=[24192], 99.50th=[28288], 99.90th=[44288], 99.95th=[80384],
     | 99.99th=[246784]
    bw (KB  /s): min=    0, max=203960, per=100.00%, avg=73419.94, stdev=28603.25
    lat (usec) : 4=0.01%, 10=0.01%, 20=0.01%, 50=0.01%, 100=0.01%
    lat (usec) : 250=96.94%, 500=0.38%, 750=0.02%, 1000=0.01%
    lat (msec) : 2=0.03%, 4=0.05%, 10=0.42%, 20=0.66%, 50=1.41%
    lat (msec) : 100=0.04%, 250=0.03%, 500=0.01%, 750=0.01%
  cpu          : usr=1.24%, sys=2.64%, ctx=21144, majf=0, minf=9
  IO depths    : 1=0.1%, 2=0.1%, 4=0.1%, 8=0.1%, 16=100.0%, 32=0.0%, >=64=0.0%
     submit    : 0=0.0%, 4=100.0%, 8=0.0%, 16=0.0%, 32=0.0%, 64=0.0%, >=64=0.0%
     complete  : 0=0.0%, 4=100.0%, 8=0.0%, 16=0.1%, 32=0.0%, 64=0.0%, >=64=0.0%
     issued    : total=r=0/w=2048001/d=0, short=r=0/w=0/d=0, drop=r=0/w=0/d=0
     latency   : target=0, window=0, percentile=100.00%, depth=16
file1: (groupid=1, jobs=1): err= 0: pid=45: Mon Mar  1 19:31:55 2021
  write: io=8000.4MB, bw=13141KB/s, iops=3285, runt=623404msec
    slat (usec): min=4, max=712048, avg=37.12, stdev=1385.09
    clat (usec): min=4, max=712245, avg=749.04, stdev=5772.34
     lat (usec): min=9, max=712253, avg=787.03, stdev=5949.06
    clat percentiles (usec):
     |  1.00th=[  135],  5.00th=[  141], 10.00th=[  145], 20.00th=[  149],
     | 30.00th=[  153], 40.00th=[  155], 50.00th=[  159], 60.00th=[  163],
     | 70.00th=[  169], 80.00th=[  177], 90.00th=[  189], 95.00th=[  201],
     | 99.00th=[24192], 99.50th=[28288], 99.90th=[44288], 99.95th=[77312],
     | 99.99th=[240640]
    bw (KB  /s): min=    0, max=205472, per=100.00%, avg=73582.12, stdev=28254.13
    lat (usec) : 10=0.01%, 20=0.01%, 50=0.01%, 100=0.01%, 250=96.91%
    lat (usec) : 500=0.41%, 750=0.03%, 1000=0.01%
    lat (msec) : 2=0.03%, 4=0.05%, 10=0.43%, 20=0.69%, 50=1.36%
    lat (msec) : 100=0.04%, 250=0.03%, 500=0.01%, 750=0.01%
  cpu          : usr=1.23%, sys=2.57%, ctx=20631, majf=0, minf=11
  IO depths    : 1=0.1%, 2=0.1%, 4=0.1%, 8=0.1%, 16=100.0%, 32=0.0%, >=64=0.0%
     submit    : 0=0.0%, 4=100.0%, 8=0.0%, 16=0.0%, 32=0.0%, 64=0.0%, >=64=0.0%
     complete  : 0=0.0%, 4=100.0%, 8=0.0%, 16=0.1%, 32=0.0%, 64=0.0%, >=64=0.0%
     issued    : total=r=0/w=2048001/d=0, short=r=0/w=0/d=0, drop=r=0/w=0/d=0
     latency   : target=0, window=0, percentile=100.00%, depth=16
file1: (groupid=1, jobs=1): err= 0: pid=46: Mon Mar  1 19:31:55 2021
  write: io=8000.4MB, bw=13142KB/s, iops=3285, runt=623358msec
    slat (usec): min=4, max=729350, avg=37.40, stdev=1416.68
    clat (usec): min=4, max=748245, avg=762.16, stdev=6087.65
     lat (usec): min=9, max=748255, avg=800.35, stdev=6266.94
    clat percentiles (usec):
     |  1.00th=[  135],  5.00th=[  141], 10.00th=[  145], 20.00th=[  149],
     | 30.00th=[  153], 40.00th=[  157], 50.00th=[  159], 60.00th=[  165],
     | 70.00th=[  171], 80.00th=[  177], 90.00th=[  189], 95.00th=[  201],
     | 99.00th=[24192], 99.50th=[28288], 99.90th=[44288], 99.95th=[84480],
     | 99.99th=[240640]
    bw (KB  /s): min=    0, max=126992, per=100.00%, avg=72774.71, stdev=27194.48
    lat (usec) : 10=0.01%, 20=0.01%, 50=0.01%, 100=0.01%, 250=96.95%
    lat (usec) : 500=0.36%, 750=0.02%, 1000=0.01%
    lat (msec) : 2=0.04%, 4=0.05%, 10=0.43%, 20=0.67%, 50=1.39%
    lat (msec) : 100=0.04%, 250=0.03%, 500=0.01%, 750=0.01%
  cpu          : usr=1.26%, sys=2.61%, ctx=20585, majf=0, minf=10
  IO depths    : 1=0.1%, 2=0.1%, 4=0.1%, 8=0.1%, 16=100.0%, 32=0.0%, >=64=0.0%
     submit    : 0=0.0%, 4=100.0%, 8=0.0%, 16=0.0%, 32=0.0%, 64=0.0%, >=64=0.0%
     complete  : 0=0.0%, 4=100.0%, 8=0.0%, 16=0.1%, 32=0.0%, 64=0.0%, >=64=0.0%
     issued    : total=r=0/w=2048001/d=0, short=r=0/w=0/d=0, drop=r=0/w=0/d=0
     latency   : target=0, window=0, percentile=100.00%, depth=16
file1: (groupid=1, jobs=1): err= 0: pid=47: Mon Mar  1 19:31:55 2021
  write: io=8000.4MB, bw=13142KB/s, iops=3285, runt=623334msec
    slat (usec): min=4, max=687517, avg=37.31, stdev=1367.11
    clat (usec): min=3, max=717636, avg=759.77, stdev=6018.25
     lat (usec): min=9, max=717645, avg=798.01, stdev=6197.59
    clat percentiles (usec):
     |  1.00th=[  135],  5.00th=[  141], 10.00th=[  145], 20.00th=[  149],
     | 30.00th=[  153], 40.00th=[  155], 50.00th=[  159], 60.00th=[  163],
     | 70.00th=[  169], 80.00th=[  177], 90.00th=[  189], 95.00th=[  201],
     | 99.00th=[24192], 99.50th=[28288], 99.90th=[41216], 99.95th=[80384],
     | 99.99th=[240640]
    bw (KB  /s): min=    0, max=109741, per=100.00%, avg=72852.61, stdev=27266.31
    lat (usec) : 4=0.01%, 10=0.01%, 20=0.01%, 50=0.01%, 100=0.01%
    lat (usec) : 250=96.94%, 500=0.37%, 750=0.02%, 1000=0.01%
    lat (msec) : 2=0.03%, 4=0.04%, 10=0.44%, 20=0.66%, 50=1.40%
    lat (msec) : 100=0.04%, 250=0.03%, 500=0.01%, 750=0.01%
  cpu          : usr=1.30%, sys=2.51%, ctx=21347, majf=0, minf=11
  IO depths    : 1=0.1%, 2=0.1%, 4=0.1%, 8=0.1%, 16=100.0%, 32=0.0%, >=64=0.0%
     submit    : 0=0.0%, 4=100.0%, 8=0.0%, 16=0.0%, 32=0.0%, 64=0.0%, >=64=0.0%
     complete  : 0=0.0%, 4=100.0%, 8=0.0%, 16=0.1%, 32=0.0%, 64=0.0%, >=64=0.0%
     issued    : total=r=0/w=2048001/d=0, short=r=0/w=0/d=0, drop=r=0/w=0/d=0
     latency   : target=0, window=0, percentile=100.00%, depth=16
file1: (groupid=2, jobs=1): err= 0: pid=48: Mon Mar  1 19:31:55 2021
  read : io=21768MB, bw=37146KB/s, iops=145, runt=600077msec
    slat (usec): min=12, max=4097, avg=43.87, stdev=19.94
    clat (msec): min=7, max=510, avg=110.16, stdev=50.50
     lat (msec): min=7, max=510, avg=110.20, stdev=50.50
    clat percentiles (msec):
     |  1.00th=[   54],  5.00th=[   63], 10.00th=[   67], 20.00th=[   67],
     | 30.00th=[   67], 40.00th=[   73], 50.00th=[  108], 60.00th=[  122],
     | 70.00th=[  133], 80.00th=[  149], 90.00th=[  174], 95.00th=[  208],
     | 99.00th=[  265], 99.50th=[  302], 99.90th=[  396], 99.95th=[  412],
     | 99.99th=[  457]
    bw (KB  /s): min= 8337, max=61952, per=100.00%, avg=37257.86, stdev=10187.07
    lat (msec) : 10=0.01%, 20=0.03%, 50=0.48%, 100=47.68%, 250=50.30%
    lat (msec) : 500=1.50%, 750=0.01%
  cpu          : usr=0.24%, sys=0.81%, ctx=73507, majf=0, minf=1033
  IO depths    : 1=0.1%, 2=0.1%, 4=0.2%, 8=0.4%, 16=99.2%, 32=0.0%, >=64=0.0%
     submit    : 0=0.0%, 4=100.0%, 8=0.0%, 16=0.0%, 32=0.0%, 64=0.0%, >=64=0.0%
     complete  : 0=0.0%, 4=99.9%, 8=0.0%, 16=0.1%, 32=0.0%, 64=0.0%, >=64=0.0%
     issued    : total=r=87073/w=0/d=0, short=r=0/w=0/d=0, drop=r=0/w=0/d=0
     latency   : target=0, window=0, percentile=100.00%, depth=16
file1: (groupid=3, jobs=1): err= 0: pid=49: Mon Mar  1 19:31:55 2021
  write: io=15000MB, bw=25512KB/s, iops=99, runt=602087msec
    slat (usec): min=122, max=509871, avg=282.68, stdev=2591.35
    clat (usec): min=5, max=195705, avg=4092.12, stdev=5014.69
     lat (usec): min=135, max=514110, avg=4375.29, stdev=5657.55
    clat percentiles (msec):
     |  1.00th=[    3],  5.00th=[    4], 10.00th=[    4], 20.00th=[    4],
     | 30.00th=[    4], 40.00th=[    4], 50.00th=[    4], 60.00th=[    4],
     | 70.00th=[    4], 80.00th=[    4], 90.00th=[    5], 95.00th=[    5],
     | 99.00th=[    5], 99.50th=[    6], 99.90th=[   94], 99.95th=[  120],
     | 99.99th=[  196]
    bw (KB  /s): min=   10, max=1000448, per=100.00%, avg=465433.77, stdev=474749.88
    lat (usec) : 10=0.05%, 100=0.01%, 250=0.03%, 500=0.07%, 750=0.06%
    lat (usec) : 1000=0.06%
    lat (msec) : 2=0.25%, 4=86.53%, 10=12.57%, 20=0.13%, 50=0.08%
    lat (msec) : 100=0.08%, 250=0.10%
  cpu          : usr=0.16%, sys=3.39%, ctx=16639, majf=0, minf=11
  IO depths    : 1=0.1%, 2=0.1%, 4=0.2%, 8=0.4%, 16=99.2%, 32=0.0%, >=64=0.0%
     submit    : 0=0.0%, 4=100.0%, 8=0.0%, 16=0.0%, 32=0.0%, 64=0.0%, >=64=0.0%
     complete  : 0=0.0%, 4=99.9%, 8=0.0%, 16=0.1%, 32=0.0%, 64=0.0%, >=64=0.0%
     issued    : total=r=0/w=60001/d=0, short=r=0/w=0/d=0, drop=r=0/w=0/d=0
     latency   : target=0, window=0, percentile=100.00%, depth=16

Run status group 0 (all jobs):
   READ: io=33148KB, aggrb=55KB/s, minb=55KB/s, maxb=55KB/s, mint=600032msec, maxt=600032msec

Run status group 1 (all jobs):
  WRITE: io=32000MB, aggrb=52563KB/s, minb=13140KB/s, maxb=13142KB/s, mint=623334msec, maxt=623404msec

Run status group 2 (all jobs):
   READ: io=21768MB, aggrb=37146KB/s, minb=37146KB/s, maxb=37146KB/s, mint=600077msec, maxt=600077msec

Run status group 3 (all jobs):
  WRITE: io=15000MB, aggrb=25511KB/s, minb=25511KB/s, maxb=25511KB/s, mint=602087msec, maxt=602087msec
