exception_loop_0-0,pass_1,pass_2,pass_3,pass_4,pass_5,pass_6,Avg
CPU (Events / s),13.04,45.91,56.44,62.47,66.32,67.46,51.94
Memory (MB / s),65.43,112.34,129.78,143.28,147.84,147.87,124.42
I/O Read (MB /s),23.38,29.35,32.61,36.81,38.35,35.16,32.61
I/O Write (MB /s),4.31,5.04,5.44,6.03,5.96,6.17,5.49