file1: (g=0): rw=randread, bs=4K-4K/4K-4K/4K-4K, ioengine=libaio, iodepth=16
file1: (g=1): rw=randwrite, bs=4K-4K/4K-4K/4K-4K, ioengine=libaio, iodepth=16
...
file1: (g=2): rw=read, bs=256K-256K/256K-256K/256K-256K, ioengine=libaio, iodepth=16
file1: (g=3): rw=write, bs=256K-256K/256K-256K/256K-256K, ioengine=libaio, iodepth=16
fio-2.2.10
Starting 7 processes
file1: Laying out IO file(s) (1 file(s) / 500MB)
file1: Laying out IO file(s) (1 file(s) / 500MB)
file1: Laying out IO file(s) (1 file(s) / 500MB)
file1: Laying out IO file(s) (1 file(s) / 500MB)

file1: (groupid=0, jobs=1): err= 0: pid=14: Tue Feb 16 09:31:27 2021
  read : io=298456KB, bw=509362B/s, iops=124, runt=600003msec
    slat (usec): min=233, max=377086, avg=8021.84, stdev=6819.63
    clat (usec): min=18, max=1018.4K, avg=120603.10, stdev=37518.24
     lat (msec): min=6, max=1068, avg=128.63, stdev=39.26
    clat percentiles (msec):
     |  1.00th=[   80],  5.00th=[   89], 10.00th=[   95], 20.00th=[  101],
     | 30.00th=[  106], 40.00th=[  112], 50.00th=[  116], 60.00th=[  120],
     | 70.00th=[  126], 80.00th=[  133], 90.00th=[  147], 95.00th=[  165],
     | 99.00th=[  245], 99.50th=[  297], 99.90th=[  668], 99.95th=[  791],
     | 99.99th=[  971]
    bw (KB  /s): min=   56, max=  660, per=100.00%, avg=498.13, stdev=75.34
    lat (usec) : 20=0.01%
    lat (msec) : 10=0.01%, 20=0.01%, 50=0.01%, 100=17.85%, 250=81.21%
    lat (msec) : 500=0.79%, 750=0.08%, 1000=0.06%, 2000=0.01%
  cpu          : usr=0.28%, sys=0.69%, ctx=74683, majf=0, minf=24
  IO depths    : 1=0.1%, 2=0.1%, 4=0.1%, 8=0.1%, 16=100.0%, 32=0.0%, >=64=0.0%
     submit    : 0=0.0%, 4=100.0%, 8=0.0%, 16=0.0%, 32=0.0%, 64=0.0%, >=64=0.0%
     complete  : 0=0.0%, 4=100.0%, 8=0.0%, 16=0.1%, 32=0.0%, 64=0.0%, >=64=0.0%
     issued    : total=r=74614/w=0/d=0, short=r=0/w=0/d=0, drop=r=0/w=0/d=0
     latency   : target=0, window=0, percentile=100.00%, depth=16
file1: (groupid=1, jobs=1): err= 0: pid=15: Tue Feb 16 09:31:27 2021
  write: io=5971.9MB, bw=10192KB/s, iops=2547, runt=600010msec
    slat (usec): min=6, max=8107.5K, avg=101.96, stdev=13579.98
    clat (usec): min=6, max=4610.4K, avg=1505.35, stdev=39276.97
     lat (usec): min=13, max=8107.8K, avg=1608.09, stdev=41574.02
    clat percentiles (usec):
     |  1.00th=[  169],  5.00th=[  173], 10.00th=[  175], 20.00th=[  181],
     | 30.00th=[  187], 40.00th=[  195], 50.00th=[  207], 60.00th=[  221],
     | 70.00th=[  245], 80.00th=[  278], 90.00th=[  322], 95.00th=[  394],
     | 99.00th=[29056], 99.50th=[30592], 99.90th=[46336], 99.95th=[60672],
     | 99.99th=[2179072]
    bw (KB  /s): min=    0, max=275744, per=100.00%, avg=54089.50, stdev=34775.63
    lat (usec) : 10=0.01%, 20=0.01%, 50=0.01%, 100=0.01%, 250=71.71%
    lat (usec) : 500=24.72%, 750=0.42%, 1000=0.10%
    lat (msec) : 2=0.19%, 4=0.18%, 10=0.44%, 20=0.66%, 50=1.49%
    lat (msec) : 100=0.04%, 250=0.01%, 500=0.01%, 750=0.01%, 1000=0.01%
    lat (msec) : 2000=0.02%, >=2000=0.01%
  cpu          : usr=0.68%, sys=3.30%, ctx=17120, majf=0, minf=9
  IO depths    : 1=0.1%, 2=0.1%, 4=0.1%, 8=0.1%, 16=100.0%, 32=0.0%, >=64=0.0%
     submit    : 0=0.0%, 4=100.0%, 8=0.0%, 16=0.0%, 32=0.0%, 64=0.0%, >=64=0.0%
     complete  : 0=0.0%, 4=100.0%, 8=0.0%, 16=0.1%, 32=0.0%, 64=0.0%, >=64=0.0%
     issued    : total=r=0/w=1528777/d=0, short=r=0/w=0/d=0, drop=r=0/w=0/d=0
     latency   : target=0, window=0, percentile=100.00%, depth=16
file1: (groupid=1, jobs=1): err= 0: pid=16: Tue Feb 16 09:31:27 2021
  write: io=5978.5MB, bw=10203KB/s, iops=2550, runt=600010msec
    slat (usec): min=6, max=8121.9K, avg=105.39, stdev=13908.34
    clat (usec): min=6, max=5112.3K, avg=1582.27, stdev=42073.11
     lat (usec): min=13, max=8122.7K, avg=1688.30, stdev=44384.59
    clat percentiles (usec):
     |  1.00th=[  167],  5.00th=[  171], 10.00th=[  175], 20.00th=[  179],
     | 30.00th=[  185], 40.00th=[  193], 50.00th=[  205], 60.00th=[  219],
     | 70.00th=[  243], 80.00th=[  274], 90.00th=[  322], 95.00th=[  394],
     | 99.00th=[30336], 99.50th=[30848], 99.90th=[49408], 99.95th=[61696],
     | 99.99th=[2310144]
    bw (KB  /s): min=    0, max=134656, per=100.00%, avg=52972.73, stdev=30446.20
    lat (usec) : 10=0.01%, 20=0.01%, 50=0.01%, 100=0.01%, 250=72.46%
    lat (usec) : 500=23.80%, 750=0.37%, 1000=0.10%
    lat (msec) : 2=0.19%, 4=0.19%, 10=0.54%, 20=0.70%, 50=1.55%
    lat (msec) : 100=0.05%, 250=0.01%, 500=0.01%, 750=0.01%, 1000=0.01%
    lat (msec) : 2000=0.02%, >=2000=0.01%
  cpu          : usr=0.73%, sys=3.21%, ctx=17927, majf=0, minf=11
  IO depths    : 1=0.1%, 2=0.1%, 4=0.1%, 8=0.1%, 16=100.0%, 32=0.0%, >=64=0.0%
     submit    : 0=0.0%, 4=100.0%, 8=0.0%, 16=0.0%, 32=0.0%, 64=0.0%, >=64=0.0%
     complete  : 0=0.0%, 4=100.0%, 8=0.0%, 16=0.1%, 32=0.0%, 64=0.0%, >=64=0.0%
     issued    : total=r=0/w=1530485/d=0, short=r=0/w=0/d=0, drop=r=0/w=0/d=0
     latency   : target=0, window=0, percentile=100.00%, depth=16
file1: (groupid=1, jobs=1): err= 0: pid=17: Tue Feb 16 09:31:27 2021
  write: io=5464.2MB, bw=9326.1KB/s, iops=2331, runt=600001msec
    slat (usec): min=6, max=68388K, avg=158.86, stdev=59585.81
    clat (usec): min=6, max=68392K, avg=2377.96, stdev=228112.37
     lat (usec): min=13, max=68392K, avg=2537.55, stdev=235776.87
    clat percentiles (usec):
     |  1.00th=[  165],  5.00th=[  171], 10.00th=[  173], 20.00th=[  179],
     | 30.00th=[  185], 40.00th=[  193], 50.00th=[  203], 60.00th=[  215],
     | 70.00th=[  237], 80.00th=[  270], 90.00th=[  314], 95.00th=[  374],
     | 99.00th=[30336], 99.50th=[31360], 99.90th=[50432], 99.95th=[95744],
     | 99.99th=[2375680]
    bw (KB  /s): min=    0, max=124454, per=100.00%, avg=50335.71, stdev=28808.15
    lat (usec) : 10=0.01%, 20=0.01%, 50=0.01%, 100=0.01%, 250=73.88%
    lat (usec) : 500=22.64%, 750=0.29%, 1000=0.05%
    lat (msec) : 2=0.11%, 4=0.13%, 10=0.45%, 20=0.66%, 50=1.67%
    lat (msec) : 100=0.06%, 250=0.01%, 500=0.01%, 750=0.01%, 1000=0.01%
    lat (msec) : 2000=0.02%, >=2000=0.01%
  cpu          : usr=0.62%, sys=2.98%, ctx=16470, majf=0, minf=11
  IO depths    : 1=0.1%, 2=0.1%, 4=0.1%, 8=0.1%, 16=100.0%, 32=0.0%, >=64=0.0%
     submit    : 0=0.0%, 4=100.0%, 8=0.0%, 16=0.0%, 32=0.0%, 64=0.0%, >=64=0.0%
     complete  : 0=0.0%, 4=100.0%, 8=0.0%, 16=0.1%, 32=0.0%, 64=0.0%, >=64=0.0%
     issued    : total=r=0/w=1399038/d=0, short=r=0/w=0/d=0, drop=r=0/w=0/d=0
     latency   : target=0, window=0, percentile=100.00%, depth=16
file1: (groupid=1, jobs=1): err= 0: pid=18: Tue Feb 16 09:31:27 2021
  write: io=5471.6MB, bw=9338.1KB/s, iops=2334, runt=600000msec
    slat (usec): min=6, max=66436K, avg=159.38, stdev=57980.39
    clat (usec): min=6, max=68392K, avg=2389.72, stdev=227615.85
     lat (usec): min=13, max=68392K, avg=2549.71, stdev=235290.60
    clat percentiles (usec):
     |  1.00th=[  167],  5.00th=[  171], 10.00th=[  175], 20.00th=[  179],
     | 30.00th=[  185], 40.00th=[  193], 50.00th=[  203], 60.00th=[  217],
     | 70.00th=[  241], 80.00th=[  274], 90.00th=[  318], 95.00th=[  378],
     | 99.00th=[30336], 99.50th=[30848], 99.90th=[50432], 99.95th=[100864],
     | 99.99th=[2375680]
    bw (KB  /s): min=    0, max=127512, per=100.00%, avg=50014.55, stdev=28959.53
    lat (usec) : 10=0.01%, 20=0.01%, 50=0.01%, 100=0.01%, 250=72.80%
    lat (usec) : 500=23.77%, 750=0.29%, 1000=0.05%
    lat (msec) : 2=0.10%, 4=0.13%, 10=0.39%, 20=0.67%, 50=1.70%
    lat (msec) : 100=0.05%, 250=0.01%, 500=0.01%, 750=0.01%, 1000=0.01%
    lat (msec) : 2000=0.02%, >=2000=0.01%
  cpu          : usr=0.68%, sys=2.92%, ctx=16115, majf=0, minf=11
  IO depths    : 1=0.1%, 2=0.1%, 4=0.1%, 8=0.1%, 16=100.0%, 32=0.0%, >=64=0.0%
     submit    : 0=0.0%, 4=100.0%, 8=0.0%, 16=0.0%, 32=0.0%, 64=0.0%, >=64=0.0%
     complete  : 0=0.0%, 4=100.0%, 8=0.0%, 16=0.1%, 32=0.0%, 64=0.0%, >=64=0.0%
     issued    : total=r=0/w=1400714/d=0, short=r=0/w=0/d=0, drop=r=0/w=0/d=0
     latency   : target=0, window=0, percentile=100.00%, depth=16
file1: (groupid=2, jobs=1): err= 0: pid=19: Tue Feb 16 09:31:27 2021
  read : io=55805MB, bw=95240KB/s, iops=372, runt=600002msec
    slat (msec): min=1, max=4064, avg= 2.67, stdev=19.69
    clat (usec): min=10, max=28243K, avg=39821.19, stdev=199174.94
     lat (msec): min=1, max=29602, avg=42.50, stdev=209.47
    clat percentiles (msec):
     |  1.00th=[   29],  5.00th=[   32], 10.00th=[   33], 20.00th=[   33],
     | 30.00th=[   33], 40.00th=[   34], 50.00th=[   35], 60.00th=[   35],
     | 70.00th=[   36], 80.00th=[   40], 90.00th=[   49], 95.00th=[   58],
     | 99.00th=[   84], 99.50th=[  108], 99.90th=[  343], 99.95th=[  445],
     | 99.99th=[ 7439]
    bw (KB  /s): min=   53, max=115712, per=100.00%, avg=98754.94, stdev=20296.76
    lat (usec) : 20=0.05%, 50=0.01%
    lat (msec) : 2=0.01%, 4=0.05%, 10=0.15%, 20=0.24%, 50=91.05%
    lat (msec) : 100=7.89%, 250=0.41%, 500=0.12%, 750=0.01%, 1000=0.01%
    lat (msec) : 2000=0.01%, >=2000=0.01%
  cpu          : usr=0.58%, sys=2.08%, ctx=223441, majf=0, minf=522
  IO depths    : 1=0.1%, 2=0.1%, 4=0.2%, 8=0.4%, 16=99.2%, 32=0.0%, >=64=0.0%
     submit    : 0=0.0%, 4=100.0%, 8=0.0%, 16=0.0%, 32=0.0%, 64=0.0%, >=64=0.0%
     complete  : 0=0.0%, 4=99.9%, 8=0.0%, 16=0.1%, 32=0.0%, 64=0.0%, >=64=0.0%
     issued    : total=r=223220/w=0/d=0, short=r=0/w=0/d=0, drop=r=0/w=0/d=0
     latency   : target=0, window=0, percentile=100.00%, depth=16
file1: (groupid=3, jobs=1): err= 0: pid=20: Tue Feb 16 09:31:27 2021
  write: io=51000MB, bw=86645KB/s, iops=338, runt=602737msec
    slat (usec): min=87, max=3952.3K, avg=1405.44, stdev=31068.92
    clat (usec): min=7, max=3499.5K, avg=17310.52, stdev=87324.60
     lat (usec): min=103, max=3956.1K, avg=18716.63, stdev=92781.32
    clat percentiles (usec):
     |  1.00th=[ 1672],  5.00th=[ 1848], 10.00th=[ 1944], 20.00th=[ 2096],
     | 30.00th=[ 2480], 40.00th=[ 2832], 50.00th=[ 3056], 60.00th=[ 3984],
     | 70.00th=[19840], 80.00th=[31616], 90.00th=[39680], 95.00th=[49408],
     | 99.00th=[79360], 99.50th=[99840], 99.90th=[1744896], 99.95th=[2023424],
     | 99.99th=[3227648]
    bw (KB  /s): min=   32, max=947552, per=100.00%, avg=148983.44, stdev=200808.92
    lat (usec) : 10=0.03%, 20=0.02%, 50=0.01%, 250=0.06%, 500=0.08%
    lat (usec) : 750=0.09%, 1000=0.08%
    lat (msec) : 2=13.87%, 4=45.90%, 10=7.39%, 20=3.69%, 50=24.95%
    lat (msec) : 100=3.39%, 250=0.27%, 500=0.01%, 750=0.01%, 1000=0.01%
    lat (msec) : 2000=0.11%, >=2000=0.06%
  cpu          : usr=0.64%, sys=7.00%, ctx=19273, majf=0, minf=11
  IO depths    : 1=0.1%, 2=0.1%, 4=0.2%, 8=0.4%, 16=99.2%, 32=0.0%, >=64=0.0%
     submit    : 0=0.0%, 4=100.0%, 8=0.0%, 16=0.0%, 32=0.0%, 64=0.0%, >=64=0.0%
     complete  : 0=0.0%, 4=99.9%, 8=0.0%, 16=0.1%, 32=0.0%, 64=0.0%, >=64=0.0%
     issued    : total=r=0/w=204001/d=0, short=r=0/w=0/d=0, drop=r=0/w=0/d=0
     latency   : target=0, window=0, percentile=100.00%, depth=16

Run status group 0 (all jobs):
   READ: io=298456KB, aggrb=497KB/s, minb=497KB/s, maxb=497KB/s, mint=600003msec, maxt=600003msec

Run status group 1 (all jobs):
  WRITE: io=22887MB, aggrb=39059KB/s, minb=9326KB/s, maxb=10203KB/s, mint=600000msec, maxt=600010msec

Run status group 2 (all jobs):
   READ: io=55805MB, aggrb=95240KB/s, minb=95240KB/s, maxb=95240KB/s, mint=600002msec, maxt=600002msec

Run status group 3 (all jobs):
  WRITE: io=51000MB, aggrb=86645KB/s, minb=86645KB/s, maxb=86645KB/s, mint=602737msec, maxt=602737msec
file1: (g=0): rw=randread, bs=4K-4K/4K-4K/4K-4K, ioengine=libaio, iodepth=16
file1: (g=1): rw=randwrite, bs=4K-4K/4K-4K/4K-4K, ioengine=libaio, iodepth=16
...
file1: (g=2): rw=read, bs=256K-256K/256K-256K/256K-256K, ioengine=libaio, iodepth=16
file1: (g=3): rw=write, bs=256K-256K/256K-256K/256K-256K, ioengine=libaio, iodepth=16
fio-2.2.10
Starting 7 processes

file1: (groupid=0, jobs=1): err= 0: pid=23: Tue Feb 16 10:11:54 2021
  read : io=307808KB, bw=525323B/s, iops=128, runt=600002msec
    slat (usec): min=228, max=294535, avg=7776.91, stdev=5650.33
    clat (usec): min=16, max=823730, avg=116880.89, stdev=25718.30
     lat (msec): min=9, max=829, avg=124.66, stdev=26.73
    clat percentiles (msec):
     |  1.00th=[   80],  5.00th=[   89], 10.00th=[   94], 20.00th=[  101],
     | 30.00th=[  105], 40.00th=[  111], 50.00th=[  115], 60.00th=[  119],
     | 70.00th=[  124], 80.00th=[  130], 90.00th=[  139], 95.00th=[  151],
     | 99.00th=[  206], 99.50th=[  239], 99.90th=[  375], 99.95th=[  420],
     | 99.99th=[  807]
    bw (KB  /s): min=    6, max=  660, per=100.00%, avg=513.38, stdev=57.17
    lat (usec) : 20=0.01%
    lat (msec) : 10=0.01%, 20=0.01%, 50=0.01%, 100=18.92%, 250=80.66%
    lat (msec) : 500=0.38%, 750=0.02%, 1000=0.01%
  cpu          : usr=0.33%, sys=0.72%, ctx=77012, majf=0, minf=24
  IO depths    : 1=0.1%, 2=0.1%, 4=0.1%, 8=0.1%, 16=100.0%, 32=0.0%, >=64=0.0%
     submit    : 0=0.0%, 4=100.0%, 8=0.0%, 16=0.0%, 32=0.0%, 64=0.0%, >=64=0.0%
     complete  : 0=0.0%, 4=100.0%, 8=0.0%, 16=0.1%, 32=0.0%, 64=0.0%, >=64=0.0%
     issued    : total=r=76952/w=0/d=0, short=r=0/w=0/d=0, drop=r=0/w=0/d=0
     latency   : target=0, window=0, percentile=100.00%, depth=16
file1: (groupid=1, jobs=1): err= 0: pid=24: Tue Feb 16 10:11:54 2021
  write: io=5500.4MB, bw=9025.5KB/s, iops=2256, runt=624013msec
    slat (usec): min=6, max=9540.1K, avg=108.50, stdev=15992.57
    clat (usec): min=7, max=9540.6K, avg=1720.57, stdev=59426.24
     lat (usec): min=13, max=9540.7K, avg=1829.85, stdev=61643.95
    clat percentiles (usec):
     |  1.00th=[  167],  5.00th=[  171], 10.00th=[  173], 20.00th=[  179],
     | 30.00th=[  183], 40.00th=[  193], 50.00th=[  203], 60.00th=[  215],
     | 70.00th=[  237], 80.00th=[  266], 90.00th=[  310], 95.00th=[  374],
     | 99.00th=[30336], 99.50th=[30848], 99.90th=[46848], 99.95th=[60160],
     | 99.99th=[2506752]
    bw (KB  /s): min=    0, max=98232, per=100.00%, avg=52899.74, stdev=27407.49
    lat (usec) : 10=0.01%, 20=0.01%, 50=0.01%, 100=0.01%, 250=73.92%
    lat (usec) : 500=22.68%, 750=0.30%, 1000=0.06%
    lat (msec) : 2=0.09%, 4=0.11%, 10=0.36%, 20=0.66%, 50=1.71%
    lat (msec) : 100=0.05%, 250=0.01%, 500=0.01%, 750=0.01%, 1000=0.01%
    lat (msec) : 2000=0.01%, >=2000=0.01%
  cpu          : usr=0.59%, sys=2.85%, ctx=14856, majf=0, minf=10
  IO depths    : 1=0.1%, 2=0.1%, 4=0.1%, 8=0.1%, 16=100.0%, 32=0.0%, >=64=0.0%
     submit    : 0=0.0%, 4=100.0%, 8=0.0%, 16=0.0%, 32=0.0%, 64=0.0%, >=64=0.0%
     complete  : 0=0.0%, 4=100.0%, 8=0.0%, 16=0.1%, 32=0.0%, 64=0.0%, >=64=0.0%
     issued    : total=r=0/w=1408001/d=0, short=r=0/w=0/d=0, drop=r=0/w=0/d=0
     latency   : target=0, window=0, percentile=100.00%, depth=16
file1: (groupid=1, jobs=1): err= 0: pid=25: Tue Feb 16 10:11:54 2021
  write: io=5500.4MB, bw=9025.6KB/s, iops=2256, runt=624007msec
    slat (usec): min=6, max=9252.3K, avg=106.40, stdev=15586.38
    clat (usec): min=6, max=7219.4K, avg=1586.41, stdev=50408.38
     lat (usec): min=13, max=9252.2K, avg=1693.53, stdev=52968.80
    clat percentiles (usec):
     |  1.00th=[  167],  5.00th=[  171], 10.00th=[  173], 20.00th=[  177],
     | 30.00th=[  183], 40.00th=[  191], 50.00th=[  203], 60.00th=[  217],
     | 70.00th=[  239], 80.00th=[  270], 90.00th=[  314], 95.00th=[  374],
     | 99.00th=[30336], 99.50th=[30592], 99.90th=[44288], 99.95th=[55040],
     | 99.99th=[2375680]
    bw (KB  /s): min=    0, max=269080, per=100.00%, avg=54627.13, stdev=37231.73
    lat (usec) : 10=0.01%, 20=0.01%, 50=0.01%, 100=0.01%, 250=73.80%
    lat (usec) : 500=22.89%, 750=0.32%, 1000=0.09%
    lat (msec) : 2=0.10%, 4=0.11%, 10=0.31%, 20=0.64%, 50=1.65%
    lat (msec) : 100=0.04%, 250=0.01%, 500=0.01%, 750=0.01%, 1000=0.01%
    lat (msec) : 2000=0.01%, >=2000=0.01%
  cpu          : usr=0.60%, sys=2.85%, ctx=14323, majf=0, minf=11
  IO depths    : 1=0.1%, 2=0.1%, 4=0.1%, 8=0.1%, 16=100.0%, 32=0.0%, >=64=0.0%
     submit    : 0=0.0%, 4=100.0%, 8=0.0%, 16=0.0%, 32=0.0%, 64=0.0%, >=64=0.0%
     complete  : 0=0.0%, 4=100.0%, 8=0.0%, 16=0.1%, 32=0.0%, 64=0.0%, >=64=0.0%
     issued    : total=r=0/w=1408001/d=0, short=r=0/w=0/d=0, drop=r=0/w=0/d=0
     latency   : target=0, window=0, percentile=100.00%, depth=16
file1: (groupid=1, jobs=1): err= 0: pid=26: Tue Feb 16 10:11:54 2021
  write: io=5500.4MB, bw=9025.8KB/s, iops=2256, runt=623997msec
    slat (usec): min=6, max=9536.4K, avg=108.30, stdev=16375.33
    clat (usec): min=6, max=9556.7K, avg=1722.66, stdev=59563.61
     lat (usec): min=13, max=9556.7K, avg=1831.85, stdev=61780.38
    clat percentiles (usec):
     |  1.00th=[  167],  5.00th=[  171], 10.00th=[  173], 20.00th=[  177],
     | 30.00th=[  183], 40.00th=[  193], 50.00th=[  203], 60.00th=[  215],
     | 70.00th=[  239], 80.00th=[  270], 90.00th=[  314], 95.00th=[  374],
     | 99.00th=[30336], 99.50th=[30848], 99.90th=[47360], 99.95th=[60160],
     | 99.99th=[2473984]
    bw (KB  /s): min=    0, max=98634, per=100.00%, avg=53176.11, stdev=27155.19
    lat (usec) : 10=0.01%, 20=0.01%, 50=0.01%, 100=0.01%, 250=73.67%
    lat (usec) : 500=22.89%, 750=0.31%, 1000=0.07%
    lat (msec) : 2=0.11%, 4=0.11%, 10=0.38%, 20=0.63%, 50=1.74%
    lat (msec) : 100=0.05%, 250=0.01%, 500=0.01%, 750=0.01%, 1000=0.01%
    lat (msec) : 2000=0.01%, >=2000=0.01%
  cpu          : usr=0.67%, sys=2.78%, ctx=14563, majf=0, minf=10
  IO depths    : 1=0.1%, 2=0.1%, 4=0.1%, 8=0.1%, 16=100.0%, 32=0.0%, >=64=0.0%
     submit    : 0=0.0%, 4=100.0%, 8=0.0%, 16=0.0%, 32=0.0%, 64=0.0%, >=64=0.0%
     complete  : 0=0.0%, 4=100.0%, 8=0.0%, 16=0.1%, 32=0.0%, 64=0.0%, >=64=0.0%
     issued    : total=r=0/w=1408001/d=0, short=r=0/w=0/d=0, drop=r=0/w=0/d=0
     latency   : target=0, window=0, percentile=100.00%, depth=16
file1: (groupid=1, jobs=1): err= 0: pid=27: Tue Feb 16 10:11:54 2021
  write: io=5500.4MB, bw=9025.2KB/s, iops=2256, runt=623977msec
    slat (usec): min=6, max=9527.5K, avg=108.51, stdev=16274.76
    clat (usec): min=6, max=9537.1K, avg=1724.97, stdev=59414.53
     lat (usec): min=13, max=9537.1K, avg=1834.22, stdev=61632.97
    clat percentiles (usec):
     |  1.00th=[  167],  5.00th=[  171], 10.00th=[  173], 20.00th=[  179],
     | 30.00th=[  183], 40.00th=[  193], 50.00th=[  203], 60.00th=[  217],
     | 70.00th=[  239], 80.00th=[  270], 90.00th=[  314], 95.00th=[  374],
     | 99.00th=[30336], 99.50th=[31872], 99.90th=[50432], 99.95th=[60672],
     | 99.99th=[2473984]
    bw (KB  /s): min=    0, max=95395, per=100.00%, avg=52875.03, stdev=26943.13
    lat (usec) : 10=0.01%, 20=0.01%, 50=0.01%, 100=0.01%, 250=73.73%
    lat (usec) : 500=22.87%, 750=0.31%, 1000=0.06%
    lat (msec) : 2=0.09%, 4=0.14%, 10=0.37%, 20=0.61%, 50=1.70%
    lat (msec) : 100=0.08%, 250=0.01%, 500=0.01%, 750=0.01%, 1000=0.01%
    lat (msec) : 2000=0.01%, >=2000=0.01%
  cpu          : usr=0.61%, sys=2.84%, ctx=14595, majf=0, minf=11
  IO depths    : 1=0.1%, 2=0.1%, 4=0.1%, 8=0.1%, 16=100.0%, 32=0.0%, >=64=0.0%
     submit    : 0=0.0%, 4=100.0%, 8=0.0%, 16=0.0%, 32=0.0%, 64=0.0%, >=64=0.0%
     complete  : 0=0.0%, 4=100.0%, 8=0.0%, 16=0.1%, 32=0.0%, 64=0.0%, >=64=0.0%
     issued    : total=r=0/w=1408001/d=0, short=r=0/w=0/d=0, drop=r=0/w=0/d=0
     latency   : target=0, window=0, percentile=100.00%, depth=16
file1: (groupid=2, jobs=1): err= 0: pid=28: Tue Feb 16 10:11:54 2021
  read : io=57674MB, bw=98429KB/s, iops=384, runt=600002msec
    slat (msec): min=1, max=363, avg= 2.59, stdev= 3.63
    clat (usec): min=12, max=674128, avg=38752.67, stdev=17793.60
     lat (msec): min=1, max=677, avg=41.34, stdev=18.57
    clat percentiles (msec):
     |  1.00th=[   29],  5.00th=[   32], 10.00th=[   33], 20.00th=[   33],
     | 30.00th=[   33], 40.00th=[   34], 50.00th=[   35], 60.00th=[   35],
     | 70.00th=[   36], 80.00th=[   42], 90.00th=[   52], 95.00th=[   67],
     | 99.00th=[   99], 99.50th=[  120], 99.90th=[  277], 99.95th=[  334],
     | 99.99th=[  457]
    bw (KB  /s): min=  454, max=115712, per=99.23%, avg=97666.81, stdev=16981.88
    lat (usec) : 20=0.04%, 50=0.01%
    lat (msec) : 2=0.01%, 4=0.05%, 10=0.15%, 20=0.23%, 50=88.54%
    lat (msec) : 100=10.03%, 250=0.82%, 500=0.11%, 750=0.01%
  cpu          : usr=0.69%, sys=2.43%, ctx=230960, majf=0, minf=522
  IO depths    : 1=0.1%, 2=0.1%, 4=0.2%, 8=0.4%, 16=99.2%, 32=0.0%, >=64=0.0%
     submit    : 0=0.0%, 4=100.0%, 8=0.0%, 16=0.0%, 32=0.0%, 64=0.0%, >=64=0.0%
     complete  : 0=0.0%, 4=99.9%, 8=0.0%, 16=0.1%, 32=0.0%, 64=0.0%, >=64=0.0%
     issued    : total=r=230694/w=0/d=0, short=r=0/w=0/d=0, drop=r=0/w=0/d=0
     latency   : target=0, window=0, percentile=100.00%, depth=16
file1: (groupid=3, jobs=1): err= 0: pid=29: Tue Feb 16 10:11:54 2021
  write: io=43000MB, bw=73343KB/s, iops=286, runt=600363msec
    slat (usec): min=92, max=4356.9K, avg=1488.23, stdev=45306.75
    clat (usec): min=7, max=4396.6K, avg=15344.70, stdev=124421.87
     lat (usec): min=113, max=4396.8K, avg=16833.62, stdev=132441.77
    clat percentiles (usec):
     |  1.00th=[ 1896],  5.00th=[ 2064], 10.00th=[ 2192], 20.00th=[ 2512],
     | 30.00th=[ 2832], 40.00th=[ 2992], 50.00th=[ 3152], 60.00th=[ 3312],
     | 70.00th=[ 3856], 80.00th=[19584], 90.00th=[39680], 95.00th=[40192],
     | 99.00th=[49920], 99.50th=[69120], 99.90th=[2277376], 99.95th=[3096576],
     | 99.99th=[4079616]
    bw (KB  /s): min=   24, max=1003008, per=100.00%, avg=213356.95, stdev=295509.52
    lat (usec) : 10=0.03%, 20=0.02%, 50=0.01%, 250=0.05%, 500=0.06%
    lat (usec) : 750=0.05%, 1000=0.04%
    lat (msec) : 2=2.89%, 4=67.59%, 10=7.14%, 20=3.99%, 50=17.15%
    lat (msec) : 100=0.76%, 250=0.01%, 2000=0.10%, >=2000=0.13%
  cpu          : usr=0.58%, sys=6.39%, ctx=14545, majf=0, minf=11
  IO depths    : 1=0.1%, 2=0.1%, 4=0.2%, 8=0.4%, 16=99.2%, 32=0.0%, >=64=0.0%
     submit    : 0=0.0%, 4=100.0%, 8=0.0%, 16=0.0%, 32=0.0%, 64=0.0%, >=64=0.0%
     complete  : 0=0.0%, 4=99.9%, 8=0.0%, 16=0.1%, 32=0.0%, 64=0.0%, >=64=0.0%
     issued    : total=r=0/w=172001/d=0, short=r=0/w=0/d=0, drop=r=0/w=0/d=0
     latency   : target=0, window=0, percentile=100.00%, depth=16

Run status group 0 (all jobs):
   READ: io=307808KB, aggrb=513KB/s, minb=513KB/s, maxb=513KB/s, mint=600002msec, maxt=600002msec

Run status group 1 (all jobs):
  WRITE: io=22000MB, aggrb=36101KB/s, minb=9025KB/s, maxb=9025KB/s, mint=623977msec, maxt=624013msec

Run status group 2 (all jobs):
   READ: io=57674MB, aggrb=98429KB/s, minb=98429KB/s, maxb=98429KB/s, mint=600002msec, maxt=600002msec

Run status group 3 (all jobs):
  WRITE: io=43000MB, aggrb=73342KB/s, minb=73342KB/s, maxb=73342KB/s, mint=600363msec, maxt=600363msec
file1: (g=0): rw=randread, bs=4K-4K/4K-4K/4K-4K, ioengine=libaio, iodepth=16
file1: (g=1): rw=randwrite, bs=4K-4K/4K-4K/4K-4K, ioengine=libaio, iodepth=16
...
file1: (g=2): rw=read, bs=256K-256K/256K-256K/256K-256K, ioengine=libaio, iodepth=16
file1: (g=3): rw=write, bs=256K-256K/256K-256K/256K-256K, ioengine=libaio, iodepth=16
fio-2.2.10
Starting 7 processes

file1: (groupid=0, jobs=1): err= 0: pid=32: Tue Feb 16 10:52:17 2021
  read : io=265308KB, bw=452790B/s, iops=110, runt=600002msec
    slat (usec): min=237, max=522912, avg=9024.96, stdev=8100.10
    clat (usec): min=23, max=976214, avg=135665.69, stdev=37711.43
     lat (msec): min=12, max=1032, avg=144.69, stdev=39.22
    clat percentiles (msec):
     |  1.00th=[   84],  5.00th=[   95], 10.00th=[  102], 20.00th=[  111],
     | 30.00th=[  117], 40.00th=[  124], 50.00th=[  130], 60.00th=[  137],
     | 70.00th=[  147], 80.00th=[  157], 90.00th=[  174], 95.00th=[  192],
     | 99.00th=[  247], 99.50th=[  289], 99.90th=[  537], 99.95th=[  709],
     | 99.99th=[  914]
    bw (KB  /s): min=   60, max=  649, per=100.00%, avg=442.76, stdev=63.49
    lat (usec) : 50=0.01%
    lat (msec) : 20=0.01%, 50=0.01%, 100=8.63%, 250=90.42%, 500=0.80%
    lat (msec) : 750=0.10%, 1000=0.03%
  cpu          : usr=0.28%, sys=0.70%, ctx=66393, majf=0, minf=24
  IO depths    : 1=0.1%, 2=0.1%, 4=0.1%, 8=0.1%, 16=100.0%, 32=0.0%, >=64=0.0%
     submit    : 0=0.0%, 4=100.0%, 8=0.0%, 16=0.0%, 32=0.0%, 64=0.0%, >=64=0.0%
     complete  : 0=0.0%, 4=100.0%, 8=0.0%, 16=0.1%, 32=0.0%, 64=0.0%, >=64=0.0%
     issued    : total=r=66327/w=0/d=0, short=r=0/w=0/d=0, drop=r=0/w=0/d=0
     latency   : target=0, window=0, percentile=100.00%, depth=16
file1: (groupid=1, jobs=1): err= 0: pid=33: Tue Feb 16 10:52:17 2021
  write: io=5500.4MB, bw=9081.3KB/s, iops=2270, runt=620183msec
    slat (usec): min=6, max=44860K, avg=179.75, stdev=44455.33
    clat (usec): min=6, max=44880K, avg=2491.55, stdev=169521.35
     lat (usec): min=13, max=44880K, avg=2671.95, stdev=175539.55
    clat percentiles (usec):
     |  1.00th=[  169],  5.00th=[  173], 10.00th=[  175], 20.00th=[  179],
     | 30.00th=[  185], 40.00th=[  193], 50.00th=[  203], 60.00th=[  217],
     | 70.00th=[  239], 80.00th=[  270], 90.00th=[  314], 95.00th=[  386],
     | 99.00th=[30336], 99.50th=[30592], 99.90th=[50432], 99.95th=[238592],
     | 99.99th=[4227072]
    bw (KB  /s): min=    0, max=147248, per=100.00%, avg=51740.70, stdev=32394.44
    lat (usec) : 10=0.01%, 20=0.01%, 50=0.01%, 100=0.01%, 250=73.16%
    lat (usec) : 500=23.21%, 750=0.64%, 1000=0.08%
    lat (msec) : 2=0.09%, 4=0.11%, 10=0.39%, 20=0.65%, 50=1.54%
    lat (msec) : 100=0.05%, 250=0.01%, 500=0.01%, 750=0.01%, 1000=0.01%
    lat (msec) : 2000=0.01%, >=2000=0.02%
  cpu          : usr=0.66%, sys=2.86%, ctx=13743, majf=0, minf=10
  IO depths    : 1=0.1%, 2=0.1%, 4=0.1%, 8=0.1%, 16=100.0%, 32=0.0%, >=64=0.0%
     submit    : 0=0.0%, 4=100.0%, 8=0.0%, 16=0.0%, 32=0.0%, 64=0.0%, >=64=0.0%
     complete  : 0=0.0%, 4=100.0%, 8=0.0%, 16=0.1%, 32=0.0%, 64=0.0%, >=64=0.0%
     issued    : total=r=0/w=1408001/d=0, short=r=0/w=0/d=0, drop=r=0/w=0/d=0
     latency   : target=0, window=0, percentile=100.00%, depth=16
file1: (groupid=1, jobs=1): err= 0: pid=34: Tue Feb 16 10:52:17 2021
  write: io=5500.4MB, bw=9081.4KB/s, iops=2270, runt=620174msec
    slat (usec): min=6, max=45540K, avg=169.14, stdev=47466.73
    clat (usec): min=6, max=45540K, avg=2140.72, stdev=163822.49
     lat (usec): min=13, max=45540K, avg=2310.50, stdev=170571.67
    clat percentiles (usec):
     |  1.00th=[  169],  5.00th=[  175], 10.00th=[  177], 20.00th=[  183],
     | 30.00th=[  189], 40.00th=[  199], 50.00th=[  207], 60.00th=[  221],
     | 70.00th=[  245], 80.00th=[  278], 90.00th=[  322], 95.00th=[  390],
     | 99.00th=[29056], 99.50th=[30336], 99.90th=[45824], 99.95th=[85504],
     | 99.99th=[2768896]
    bw (KB  /s): min=    0, max=267760, per=100.00%, avg=55098.26, stdev=43852.13
    lat (usec) : 10=0.01%, 20=0.01%, 50=0.01%, 100=0.01%, 250=71.56%
    lat (usec) : 500=24.99%, 750=0.72%, 1000=0.09%
    lat (msec) : 2=0.08%, 4=0.09%, 10=0.31%, 20=0.65%, 50=1.39%
    lat (msec) : 100=0.04%, 250=0.01%, 500=0.01%, 750=0.01%, 1000=0.01%
    lat (msec) : 2000=0.01%, >=2000=0.01%
  cpu          : usr=0.62%, sys=3.00%, ctx=14700, majf=0, minf=11
  IO depths    : 1=0.1%, 2=0.1%, 4=0.1%, 8=0.1%, 16=100.0%, 32=0.0%, >=64=0.0%
     submit    : 0=0.0%, 4=100.0%, 8=0.0%, 16=0.0%, 32=0.0%, 64=0.0%, >=64=0.0%
     complete  : 0=0.0%, 4=100.0%, 8=0.0%, 16=0.1%, 32=0.0%, 64=0.0%, >=64=0.0%
     issued    : total=r=0/w=1408001/d=0, short=r=0/w=0/d=0, drop=r=0/w=0/d=0
     latency   : target=0, window=0, percentile=100.00%, depth=16
file1: (groupid=1, jobs=1): err= 0: pid=35: Tue Feb 16 10:52:17 2021
  write: io=5500.4MB, bw=9081.4KB/s, iops=2270, runt=620171msec
    slat (usec): min=6, max=44852K, avg=188.06, stdev=48684.74
    clat (usec): min=6, max=44856K, avg=2395.03, stdev=166611.88
     lat (usec): min=13, max=44856K, avg=2583.90, stdev=173588.00
    clat percentiles (usec):
     |  1.00th=[  169],  5.00th=[  175], 10.00th=[  177], 20.00th=[  181],
     | 30.00th=[  187], 40.00th=[  195], 50.00th=[  205], 60.00th=[  217],
     | 70.00th=[  241], 80.00th=[  274], 90.00th=[  318], 95.00th=[  398],
     | 99.00th=[30080], 99.50th=[30592], 99.90th=[50432], 99.95th=[232448],
     | 99.99th=[3227648]
    bw (KB  /s): min=    0, max=138968, per=100.00%, avg=51824.23, stdev=31101.05
    lat (usec) : 10=0.01%, 20=0.01%, 50=0.01%, 100=0.01%, 250=72.48%
    lat (usec) : 500=23.75%, 750=0.69%, 1000=0.11%
    lat (msec) : 2=0.10%, 4=0.11%, 10=0.39%, 20=0.71%, 50=1.53%
    lat (msec) : 100=0.06%, 250=0.01%, 500=0.01%, 750=0.01%, 1000=0.01%
    lat (msec) : 2000=0.01%, >=2000=0.01%
  cpu          : usr=0.70%, sys=2.84%, ctx=13757, majf=0, minf=11
  IO depths    : 1=0.1%, 2=0.1%, 4=0.1%, 8=0.1%, 16=100.0%, 32=0.0%, >=64=0.0%
     submit    : 0=0.0%, 4=100.0%, 8=0.0%, 16=0.0%, 32=0.0%, 64=0.0%, >=64=0.0%
     complete  : 0=0.0%, 4=100.0%, 8=0.0%, 16=0.1%, 32=0.0%, 64=0.0%, >=64=0.0%
     issued    : total=r=0/w=1408001/d=0, short=r=0/w=0/d=0, drop=r=0/w=0/d=0
     latency   : target=0, window=0, percentile=100.00%, depth=16
file1: (groupid=1, jobs=1): err= 0: pid=36: Tue Feb 16 10:52:17 2021
  write: io=5500.4MB, bw=9081.6KB/s, iops=2270, runt=620162msec
    slat (usec): min=6, max=44863K, avg=179.82, stdev=45519.84
    clat (usec): min=6, max=44864K, avg=2493.43, stdev=169725.51
     lat (usec): min=13, max=44864K, avg=2673.96, stdev=175751.17
    clat percentiles (usec):
     |  1.00th=[  169],  5.00th=[  173], 10.00th=[  177], 20.00th=[  181],
     | 30.00th=[  185], 40.00th=[  193], 50.00th=[  203], 60.00th=[  217],
     | 70.00th=[  239], 80.00th=[  270], 90.00th=[  314], 95.00th=[  390],
     | 99.00th=[30336], 99.50th=[30592], 99.90th=[50432], 99.95th=[216064],
     | 99.99th=[4227072]
    bw (KB  /s): min=    0, max=151398, per=100.00%, avg=51924.62, stdev=31871.40
    lat (usec) : 10=0.01%, 20=0.01%, 50=0.01%, 100=0.01%, 250=73.26%
    lat (usec) : 500=23.03%, 750=0.67%, 1000=0.08%
    lat (msec) : 2=0.11%, 4=0.11%, 10=0.42%, 20=0.65%, 50=1.56%
    lat (msec) : 100=0.05%, 250=0.01%, 500=0.01%, 750=0.01%, 1000=0.01%
    lat (msec) : 2000=0.01%, >=2000=0.02%
  cpu          : usr=0.65%, sys=2.88%, ctx=13635, majf=0, minf=11
  IO depths    : 1=0.1%, 2=0.1%, 4=0.1%, 8=0.1%, 16=100.0%, 32=0.0%, >=64=0.0%
     submit    : 0=0.0%, 4=100.0%, 8=0.0%, 16=0.0%, 32=0.0%, 64=0.0%, >=64=0.0%
     complete  : 0=0.0%, 4=100.0%, 8=0.0%, 16=0.1%, 32=0.0%, 64=0.0%, >=64=0.0%
     issued    : total=r=0/w=1408001/d=0, short=r=0/w=0/d=0, drop=r=0/w=0/d=0
     latency   : target=0, window=0, percentile=100.00%, depth=16
file1: (groupid=2, jobs=1): err= 0: pid=37: Tue Feb 16 10:52:17 2021
  read : io=60183MB, bw=102711KB/s, iops=401, runt=600005msec
    slat (msec): min=1, max=1465, avg= 2.48, stdev= 4.25
    clat (usec): min=11, max=1148.8K, avg=37040.17, stdev=12424.60
     lat (msec): min=1, max=2614, avg=39.52, stdev=13.93
    clat percentiles (msec):
     |  1.00th=[   29],  5.00th=[   32], 10.00th=[   33], 20.00th=[   33],
     | 30.00th=[   33], 40.00th=[   34], 50.00th=[   35], 60.00th=[   35],
     | 70.00th=[   36], 80.00th=[   39], 90.00th=[   47], 95.00th=[   55],
     | 99.00th=[   83], 99.50th=[   95], 99.90th=[  159], 99.95th=[  251],
     | 99.99th=[  367]
    bw (KB  /s): min=   97, max=115712, per=99.65%, avg=102351.84, stdev=11799.32
    lat (usec) : 20=0.04%, 50=0.01%
    lat (msec) : 2=0.01%, 4=0.05%, 10=0.15%, 20=0.24%, 50=91.53%
    lat (msec) : 100=7.59%, 250=0.34%, 500=0.05%, 2000=0.01%
  cpu          : usr=0.66%, sys=2.54%, ctx=241010, majf=0, minf=522
  IO depths    : 1=0.1%, 2=0.1%, 4=0.2%, 8=0.4%, 16=99.2%, 32=0.0%, >=64=0.0%
     submit    : 0=0.0%, 4=100.0%, 8=0.0%, 16=0.0%, 32=0.0%, 64=0.0%, >=64=0.0%
     complete  : 0=0.0%, 4=99.9%, 8=0.0%, 16=0.1%, 32=0.0%, 64=0.0%, >=64=0.0%
     issued    : total=r=240732/w=0/d=0, short=r=0/w=0/d=0, drop=r=0/w=0/d=0
     latency   : target=0, window=0, percentile=100.00%, depth=16
file1: (groupid=3, jobs=1): err= 0: pid=38: Tue Feb 16 10:52:17 2021
  write: io=43227MB, bw=73774KB/s, iops=288, runt=600001msec
    slat (usec): min=95, max=4490.9K, avg=1491.07, stdev=46029.15
    clat (usec): min=8, max=4992.2K, avg=15694.75, stdev=138138.03
     lat (usec): min=117, max=4992.5K, avg=17186.45, stdev=145938.84
    clat percentiles (usec):
     |  1.00th=[ 1960],  5.00th=[ 2128], 10.00th=[ 2288], 20.00th=[ 2640],
     | 30.00th=[ 2960], 40.00th=[ 3088], 50.00th=[ 3216], 60.00th=[ 3344],
     | 70.00th=[ 3568], 80.00th=[ 4832], 90.00th=[38144], 95.00th=[40704],
     | 99.00th=[69120], 99.50th=[79360], 99.90th=[2473984], 99.95th=[3227648],
     | 99.99th=[4554752]
    bw (KB  /s): min=   27, max=1008191, per=100.00%, avg=205844.19, stdev=305397.89
    lat (usec) : 10=0.02%, 20=0.03%, 250=0.04%, 500=0.06%, 750=0.06%
    lat (usec) : 1000=0.05%
    lat (msec) : 2=1.35%, 4=73.74%, 10=8.37%, 20=1.56%, 50=11.16%
    lat (msec) : 100=3.21%, 250=0.06%, 500=0.01%, 2000=0.11%, >=2000=0.16%
  cpu          : usr=0.52%, sys=6.82%, ctx=16507, majf=0, minf=11
  IO depths    : 1=0.1%, 2=0.1%, 4=0.2%, 8=0.4%, 16=99.2%, 32=0.0%, >=64=0.0%
     submit    : 0=0.0%, 4=100.0%, 8=0.0%, 16=0.0%, 32=0.0%, 64=0.0%, >=64=0.0%
     complete  : 0=0.0%, 4=99.9%, 8=0.0%, 16=0.1%, 32=0.0%, 64=0.0%, >=64=0.0%
     issued    : total=r=0/w=172907/d=0, short=r=0/w=0/d=0, drop=r=0/w=0/d=0
     latency   : target=0, window=0, percentile=100.00%, depth=16

Run status group 0 (all jobs):
   READ: io=265308KB, aggrb=442KB/s, minb=442KB/s, maxb=442KB/s, mint=600002msec, maxt=600002msec

Run status group 1 (all jobs):
  WRITE: io=22000MB, aggrb=36324KB/s, minb=9081KB/s, maxb=9081KB/s, mint=620162msec, maxt=620183msec

Run status group 2 (all jobs):
   READ: io=60183MB, aggrb=102711KB/s, minb=102711KB/s, maxb=102711KB/s, mint=600005msec, maxt=600005msec

Run status group 3 (all jobs):
  WRITE: io=43227MB, aggrb=73773KB/s, minb=73773KB/s, maxb=73773KB/s, mint=600001msec, maxt=600001msec
file1: (g=0): rw=randread, bs=4K-4K/4K-4K/4K-4K, ioengine=libaio, iodepth=16
file1: (g=1): rw=randwrite, bs=4K-4K/4K-4K/4K-4K, ioengine=libaio, iodepth=16
...
file1: (g=2): rw=read, bs=256K-256K/256K-256K/256K-256K, ioengine=libaio, iodepth=16
file1: (g=3): rw=write, bs=256K-256K/256K-256K/256K-256K, ioengine=libaio, iodepth=16
fio-2.2.10
Starting 7 processes

file1: (groupid=0, jobs=1): err= 0: pid=41: Tue Feb 16 11:32:38 2021
  read : io=300500KB, bw=512839B/s, iops=125, runt=600016msec
    slat (usec): min=237, max=2380.1K, avg=7966.69, stdev=12006.62
    clat (usec): min=16, max=3882.8K, avg=119786.45, stdev=63348.99
     lat (msec): min=17, max=3887, avg=127.76, stdev=65.65
    clat percentiles (msec):
     |  1.00th=[   79],  5.00th=[   89], 10.00th=[   94], 20.00th=[  101],
     | 30.00th=[  106], 40.00th=[  111], 50.00th=[  115], 60.00th=[  120],
     | 70.00th=[  124], 80.00th=[  131], 90.00th=[  141], 95.00th=[  157],
     | 99.00th=[  245], 99.50th=[  322], 99.90th=[  644], 99.95th=[  775],
     | 99.99th=[ 3851]
    bw (KB  /s): min=    1, max=  660, per=100.00%, avg=503.99, stdev=75.60
    lat (usec) : 20=0.01%
    lat (msec) : 20=0.01%, 50=0.01%, 100=18.76%, 250=80.30%, 500=0.74%
    lat (msec) : 750=0.13%, 1000=0.02%, 2000=0.02%, >=2000=0.02%
  cpu          : usr=0.29%, sys=0.74%, ctx=75194, majf=0, minf=24
  IO depths    : 1=0.1%, 2=0.1%, 4=0.1%, 8=0.1%, 16=100.0%, 32=0.0%, >=64=0.0%
     submit    : 0=0.0%, 4=100.0%, 8=0.0%, 16=0.0%, 32=0.0%, 64=0.0%, >=64=0.0%
     complete  : 0=0.0%, 4=100.0%, 8=0.0%, 16=0.1%, 32=0.0%, 64=0.0%, >=64=0.0%
     issued    : total=r=75125/w=0/d=0, short=r=0/w=0/d=0, drop=r=0/w=0/d=0
     latency   : target=0, window=0, percentile=100.00%, depth=16
file1: (groupid=1, jobs=1): err= 0: pid=42: Tue Feb 16 11:32:38 2021
  write: io=5500.4MB, bw=9109.5KB/s, iops=2277, runt=618260msec
    slat (usec): min=6, max=10870K, avg=113.25, stdev=17652.93
    clat (usec): min=6, max=5938.5K, avg=1602.99, stdev=49386.45
     lat (usec): min=13, max=10871K, avg=1716.95, stdev=52484.27
    clat percentiles (usec):
     |  1.00th=[  165],  5.00th=[  169], 10.00th=[  173], 20.00th=[  177],
     | 30.00th=[  181], 40.00th=[  189], 50.00th=[  201], 60.00th=[  213],
     | 70.00th=[  235], 80.00th=[  266], 90.00th=[  306], 95.00th=[  358],
     | 99.00th=[30336], 99.50th=[30848], 99.90th=[50432], 99.95th=[125440],
     | 99.99th=[2637824]
    bw (KB  /s): min=    0, max=302272, per=100.00%, avg=53527.93, stdev=38573.04
    lat (usec) : 10=0.01%, 20=0.01%, 50=0.01%, 100=0.01%, 250=74.90%
    lat (usec) : 500=22.04%, 750=0.30%, 1000=0.06%
    lat (msec) : 2=0.10%, 4=0.11%, 10=0.33%, 20=0.53%, 50=1.54%
    lat (msec) : 100=0.05%, 250=0.01%, 500=0.01%, 750=0.01%, 1000=0.01%
    lat (msec) : 2000=0.02%, >=2000=0.01%
  cpu          : usr=0.66%, sys=2.80%, ctx=14710, majf=0, minf=9
  IO depths    : 1=0.1%, 2=0.1%, 4=0.1%, 8=0.1%, 16=100.0%, 32=0.0%, >=64=0.0%
     submit    : 0=0.0%, 4=100.0%, 8=0.0%, 16=0.0%, 32=0.0%, 64=0.0%, >=64=0.0%
     complete  : 0=0.0%, 4=100.0%, 8=0.0%, 16=0.1%, 32=0.0%, 64=0.0%, >=64=0.0%
     issued    : total=r=0/w=1408001/d=0, short=r=0/w=0/d=0, drop=r=0/w=0/d=0
     latency   : target=0, window=0, percentile=100.00%, depth=16
file1: (groupid=1, jobs=1): err= 0: pid=43: Tue Feb 16 11:32:38 2021
  write: io=5500.4MB, bw=9109.6KB/s, iops=2277, runt=618251msec
    slat (usec): min=6, max=60010K, avg=155.24, stdev=53369.17
    clat (usec): min=6, max=60378K, avg=2214.52, stdev=201925.24
     lat (usec): min=13, max=60378K, avg=2370.45, stdev=208942.05
    clat percentiles (usec):
     |  1.00th=[  167],  5.00th=[  171], 10.00th=[  173], 20.00th=[  179],
     | 30.00th=[  183], 40.00th=[  191], 50.00th=[  203], 60.00th=[  215],
     | 70.00th=[  235], 80.00th=[  266], 90.00th=[  306], 95.00th=[  370],
     | 99.00th=[30336], 99.50th=[30592], 99.90th=[47872], 99.95th=[90624],
     | 99.99th=[2310144]
    bw (KB  /s): min=    0, max=97240, per=100.00%, avg=52065.85, stdev=28107.69
    lat (usec) : 10=0.01%, 20=0.01%, 50=0.01%, 100=0.01%, 250=75.18%
    lat (usec) : 500=21.42%, 750=0.26%, 1000=0.05%
    lat (msec) : 2=0.11%, 4=0.10%, 10=0.42%, 20=0.69%, 50=1.67%
    lat (msec) : 100=0.04%, 250=0.01%, 500=0.01%, 750=0.01%, 1000=0.01%
    lat (msec) : 2000=0.02%, >=2000=0.01%
  cpu          : usr=0.60%, sys=2.87%, ctx=13691, majf=0, minf=11
  IO depths    : 1=0.1%, 2=0.1%, 4=0.1%, 8=0.1%, 16=100.0%, 32=0.0%, >=64=0.0%
     submit    : 0=0.0%, 4=100.0%, 8=0.0%, 16=0.0%, 32=0.0%, 64=0.0%, >=64=0.0%
     complete  : 0=0.0%, 4=100.0%, 8=0.0%, 16=0.1%, 32=0.0%, 64=0.0%, >=64=0.0%
     issued    : total=r=0/w=1408001/d=0, short=r=0/w=0/d=0, drop=r=0/w=0/d=0
     latency   : target=0, window=0, percentile=100.00%, depth=16
file1: (groupid=1, jobs=1): err= 0: pid=44: Tue Feb 16 11:32:38 2021
  write: io=5500.4MB, bw=9109.7KB/s, iops=2277, runt=618245msec
    slat (usec): min=6, max=60359K, avg=154.86, stdev=53424.42
    clat (usec): min=7, max=60367K, avg=2204.35, stdev=201599.80
     lat (usec): min=13, max=60367K, avg=2359.85, stdev=208604.28
    clat percentiles (usec):
     |  1.00th=[  167],  5.00th=[  173], 10.00th=[  175], 20.00th=[  179],
     | 30.00th=[  185], 40.00th=[  193], 50.00th=[  203], 60.00th=[  215],
     | 70.00th=[  237], 80.00th=[  266], 90.00th=[  310], 95.00th=[  370],
     | 99.00th=[30336], 99.50th=[30848], 99.90th=[48384], 99.95th=[209920],
     | 99.99th=[1892352]
    bw (KB  /s): min=    0, max=98070, per=100.00%, avg=50983.78, stdev=28122.91
    lat (usec) : 10=0.01%, 20=0.01%, 50=0.01%, 100=0.01%, 250=74.57%
    lat (usec) : 500=22.06%, 750=0.24%, 1000=0.05%
    lat (msec) : 2=0.11%, 4=0.12%, 10=0.39%, 20=0.67%, 50=1.68%
    lat (msec) : 100=0.04%, 250=0.01%, 500=0.01%, 750=0.01%, 1000=0.01%
    lat (msec) : 2000=0.02%, >=2000=0.01%
  cpu          : usr=0.64%, sys=2.82%, ctx=13607, majf=0, minf=11
  IO depths    : 1=0.1%, 2=0.1%, 4=0.1%, 8=0.1%, 16=100.0%, 32=0.0%, >=64=0.0%
     submit    : 0=0.0%, 4=100.0%, 8=0.0%, 16=0.0%, 32=0.0%, 64=0.0%, >=64=0.0%
     complete  : 0=0.0%, 4=100.0%, 8=0.0%, 16=0.1%, 32=0.0%, 64=0.0%, >=64=0.0%
     issued    : total=r=0/w=1408001/d=0, short=r=0/w=0/d=0, drop=r=0/w=0/d=0
     latency   : target=0, window=0, percentile=100.00%, depth=16
file1: (groupid=1, jobs=1): err= 0: pid=45: Tue Feb 16 11:32:38 2021
  write: io=5500.4MB, bw=9109.8KB/s, iops=2277, runt=618240msec
    slat (usec): min=6, max=60358K, avg=155.08, stdev=53453.08
    clat (usec): min=6, max=60368K, avg=2221.02, stdev=201702.24
     lat (usec): min=13, max=60368K, avg=2376.87, stdev=208708.43
    clat percentiles (usec):
     |  1.00th=[  167],  5.00th=[  171], 10.00th=[  173], 20.00th=[  179],
     | 30.00th=[  183], 40.00th=[  191], 50.00th=[  203], 60.00th=[  215],
     | 70.00th=[  235], 80.00th=[  266], 90.00th=[  306], 95.00th=[  366],
     | 99.00th=[30336], 99.50th=[30848], 99.90th=[50432], 99.95th=[181248],
     | 99.99th=[1941504]
    bw (KB  /s): min=    0, max=97736, per=100.00%, avg=51487.22, stdev=28337.57
    lat (usec) : 10=0.01%, 20=0.01%, 50=0.01%, 100=0.01%, 250=74.89%
    lat (usec) : 500=21.77%, 750=0.25%, 1000=0.05%
    lat (msec) : 2=0.09%, 4=0.11%, 10=0.42%, 20=0.67%, 50=1.63%
    lat (msec) : 100=0.06%, 250=0.01%, 500=0.01%, 750=0.01%, 1000=0.01%
    lat (msec) : 2000=0.02%, >=2000=0.01%
  cpu          : usr=0.65%, sys=2.79%, ctx=13527, majf=0, minf=11
  IO depths    : 1=0.1%, 2=0.1%, 4=0.1%, 8=0.1%, 16=100.0%, 32=0.0%, >=64=0.0%
     submit    : 0=0.0%, 4=100.0%, 8=0.0%, 16=0.0%, 32=0.0%, 64=0.0%, >=64=0.0%
     complete  : 0=0.0%, 4=100.0%, 8=0.0%, 16=0.1%, 32=0.0%, 64=0.0%, >=64=0.0%
     issued    : total=r=0/w=1408001/d=0, short=r=0/w=0/d=0, drop=r=0/w=0/d=0
     latency   : target=0, window=0, percentile=100.00%, depth=16
file1: (groupid=2, jobs=1): err= 0: pid=46: Tue Feb 16 11:32:39 2021
  read : io=59146MB, bw=100942KB/s, iops=394, runt=600001msec
    slat (msec): min=1, max=2350, avg= 2.52, stdev= 7.81
    clat (usec): min=12, max=3938.3K, avg=37477.29, stdev=18251.05
     lat (msec): min=1, max=6289, avg=40.00, stdev=22.78
    clat percentiles (msec):
     |  1.00th=[   29],  5.00th=[   32], 10.00th=[   33], 20.00th=[   33],
     | 30.00th=[   33], 40.00th=[   34], 50.00th=[   35], 60.00th=[   35],
     | 70.00th=[   36], 80.00th=[   40], 90.00th=[   48], 95.00th=[   56],
     | 99.00th=[   84], 99.50th=[   99], 99.90th=[  260], 99.95th=[  359],
     | 99.99th=[  416]
    bw (KB  /s): min=   40, max=116224, per=100.00%, avg=101120.63, stdev=13776.98
    lat (usec) : 20=0.05%, 50=0.01%
    lat (msec) : 2=0.01%, 4=0.05%, 10=0.14%, 20=0.24%, 50=91.26%
    lat (msec) : 100=7.77%, 250=0.38%, 500=0.10%, >=2000=0.01%
  cpu          : usr=0.70%, sys=2.58%, ctx=236869, majf=0, minf=522
  IO depths    : 1=0.1%, 2=0.1%, 4=0.2%, 8=0.4%, 16=99.2%, 32=0.0%, >=64=0.0%
     submit    : 0=0.0%, 4=100.0%, 8=0.0%, 16=0.0%, 32=0.0%, 64=0.0%, >=64=0.0%
     complete  : 0=0.0%, 4=99.9%, 8=0.0%, 16=0.1%, 32=0.0%, 64=0.0%, >=64=0.0%
     issued    : total=r=236583/w=0/d=0, short=r=0/w=0/d=0, drop=r=0/w=0/d=0
     latency   : target=0, window=0, percentile=100.00%, depth=16
file1: (groupid=3, jobs=1): err= 0: pid=47: Tue Feb 16 11:32:39 2021
  write: io=41998MB, bw=71675KB/s, iops=279, runt=600016msec
    slat (usec): min=99, max=5289.8K, avg=1471.61, stdev=49686.41
    clat (usec): min=7, max=5349.3K, avg=12026.63, stdev=120611.02
     lat (usec): min=118, max=5349.5K, avg=13498.91, stdev=130633.15
    clat percentiles (msec):
     |  1.00th=[    3],  5.00th=[    3], 10.00th=[    3], 20.00th=[    3],
     | 30.00th=[    3], 40.00th=[    4], 50.00th=[    4], 60.00th=[    4],
     | 70.00th=[    4], 80.00th=[    5], 90.00th=[   21], 95.00th=[   41],
     | 99.00th=[   60], 99.50th=[   69], 99.90th=[ 2180], 99.95th=[ 3359],
     | 99.99th=[ 4555]
    bw (KB  /s): min=   24, max=1005750, per=100.00%, avg=210028.39, stdev=317911.78
    lat (usec) : 10=0.02%, 20=0.03%, 50=0.01%, 250=0.04%, 500=0.05%
    lat (usec) : 750=0.05%, 1000=0.04%
    lat (msec) : 2=0.69%, 4=75.33%, 10=9.67%, 20=2.10%, 50=10.35%
    lat (msec) : 100=1.41%, 250=0.05%, 500=0.01%, 1000=0.01%, 2000=0.04%
    lat (msec) : >=2000=0.11%
  cpu          : usr=0.57%, sys=6.89%, ctx=14260, majf=0, minf=11
  IO depths    : 1=0.1%, 2=0.1%, 4=0.2%, 8=0.4%, 16=99.2%, 32=0.0%, >=64=0.0%
     submit    : 0=0.0%, 4=100.0%, 8=0.0%, 16=0.0%, 32=0.0%, 64=0.0%, >=64=0.0%
     complete  : 0=0.0%, 4=99.9%, 8=0.0%, 16=0.1%, 32=0.0%, 64=0.0%, >=64=0.0%
     issued    : total=r=0/w=167992/d=0, short=r=0/w=0/d=0, drop=r=0/w=0/d=0
     latency   : target=0, window=0, percentile=100.00%, depth=16

Run status group 0 (all jobs):
   READ: io=300500KB, aggrb=500KB/s, minb=500KB/s, maxb=500KB/s, mint=600016msec, maxt=600016msec

Run status group 1 (all jobs):
  WRITE: io=22000MB, aggrb=36437KB/s, minb=9109KB/s, maxb=9109KB/s, mint=618240msec, maxt=618260msec

Run status group 2 (all jobs):
   READ: io=59146MB, aggrb=100941KB/s, minb=100941KB/s, maxb=100941KB/s, mint=600001msec, maxt=600001msec

Run status group 3 (all jobs):
  WRITE: io=41998MB, aggrb=71674KB/s, minb=71674KB/s, maxb=71674KB/s, mint=600016msec, maxt=600016msec
file1: (g=0): rw=randread, bs=4K-4K/4K-4K/4K-4K, ioengine=libaio, iodepth=16
file1: (g=1): rw=randwrite, bs=4K-4K/4K-4K/4K-4K, ioengine=libaio, iodepth=16
...
file1: (g=2): rw=read, bs=256K-256K/256K-256K/256K-256K, ioengine=libaio, iodepth=16
file1: (g=3): rw=write, bs=256K-256K/256K-256K/256K-256K, ioengine=libaio, iodepth=16
fio-2.2.10
Starting 7 processes

file1: (groupid=0, jobs=1): err= 0: pid=50: Tue Feb 16 12:13:01 2021
  read : io=265232KB, bw=452661B/s, iops=110, runt=600002msec
    slat (usec): min=238, max=3043.6K, avg=9027.95, stdev=18197.82
    clat (usec): min=22, max=5000.8K, avg=135670.09, stdev=108530.36
     lat (msec): min=12, max=5011, avg=144.70, stdev=112.73
    clat percentiles (msec):
     |  1.00th=[   83],  5.00th=[   93], 10.00th=[   99], 20.00th=[  106],
     | 30.00th=[  113], 40.00th=[  119], 50.00th=[  125], 60.00th=[  133],
     | 70.00th=[  141], 80.00th=[  151], 90.00th=[  169], 95.00th=[  192],
     | 99.00th=[  338], 99.50th=[  437], 99.90th=[  922], 99.95th=[ 1745],
     | 99.99th=[ 5014]
    bw (KB  /s): min=    1, max=  633, per=100.00%, avg=447.71, stdev=94.11
    lat (usec) : 50=0.01%
    lat (msec) : 20=0.01%, 50=0.01%, 100=11.53%, 250=86.45%, 500=1.68%
    lat (msec) : 750=0.16%, 1000=0.08%, 2000=0.04%, >=2000=0.05%
  cpu          : usr=0.26%, sys=0.67%, ctx=66367, majf=0, minf=24
  IO depths    : 1=0.1%, 2=0.1%, 4=0.1%, 8=0.1%, 16=100.0%, 32=0.0%, >=64=0.0%
     submit    : 0=0.0%, 4=100.0%, 8=0.0%, 16=0.0%, 32=0.0%, 64=0.0%, >=64=0.0%
     complete  : 0=0.0%, 4=100.0%, 8=0.0%, 16=0.1%, 32=0.0%, 64=0.0%, >=64=0.0%
     issued    : total=r=66308/w=0/d=0, short=r=0/w=0/d=0, drop=r=0/w=0/d=0
     latency   : target=0, window=0, percentile=100.00%, depth=16
file1: (groupid=1, jobs=1): err= 0: pid=51: Tue Feb 16 12:13:01 2021
  write: io=5000.4MB, bw=8318.1KB/s, iops=2079, runt=615462msec
    slat (usec): min=6, max=32488K, avg=142.34, stdev=37006.14
    clat (usec): min=6, max=32488K, avg=2267.79, stdev=149523.15
     lat (usec): min=13, max=32488K, avg=2410.70, stdev=154532.39
    clat percentiles (usec):
     |  1.00th=[  169],  5.00th=[  173], 10.00th=[  177], 20.00th=[  183],
     | 30.00th=[  189], 40.00th=[  199], 50.00th=[  207], 60.00th=[  221],
     | 70.00th=[  241], 80.00th=[  274], 90.00th=[  314], 95.00th=[  370],
     | 99.00th=[29056], 99.50th=[30336], 99.90th=[48896], 99.95th=[60160],
     | 99.99th=[3817472]
    bw (KB  /s): min=    0, max=254840, per=100.00%, avg=53118.71, stdev=41914.77
    lat (usec) : 10=0.01%, 20=0.01%, 50=0.01%, 100=0.01%, 250=72.74%
    lat (usec) : 500=24.19%, 750=0.37%, 1000=0.07%
    lat (msec) : 2=0.08%, 4=0.10%, 10=0.33%, 20=0.55%, 50=1.46%
    lat (msec) : 100=0.06%, 250=0.01%, 500=0.01%, 750=0.01%, 1000=0.01%
    lat (msec) : 2000=0.01%, >=2000=0.02%
  cpu          : usr=0.59%, sys=2.69%, ctx=15355, majf=0, minf=10
  IO depths    : 1=0.1%, 2=0.1%, 4=0.1%, 8=0.1%, 16=100.0%, 32=0.0%, >=64=0.0%
     submit    : 0=0.0%, 4=100.0%, 8=0.0%, 16=0.0%, 32=0.0%, 64=0.0%, >=64=0.0%
     complete  : 0=0.0%, 4=100.0%, 8=0.0%, 16=0.1%, 32=0.0%, 64=0.0%, >=64=0.0%
     issued    : total=r=0/w=1280001/d=0, short=r=0/w=0/d=0, drop=r=0/w=0/d=0
     latency   : target=0, window=0, percentile=100.00%, depth=16
file1: (groupid=1, jobs=1): err= 0: pid=52: Tue Feb 16 12:13:01 2021
  write: io=4500.4MB, bw=7487.3KB/s, iops=1871, runt=615448msec
    slat (usec): min=6, max=78157K, avg=190.84, stdev=76570.96
    clat (usec): min=6, max=78159K, avg=3054.39, stdev=296872.89
     lat (usec): min=13, max=78159K, avg=3245.90, stdev=306619.06
    clat percentiles (usec):
     |  1.00th=[  167],  5.00th=[  173], 10.00th=[  175], 20.00th=[  179],
     | 30.00th=[  185], 40.00th=[  195], 50.00th=[  205], 60.00th=[  219],
     | 70.00th=[  241], 80.00th=[  270], 90.00th=[  314], 95.00th=[  378],
     | 99.00th=[30336], 99.50th=[31104], 99.90th=[50432], 99.95th=[185344],
     | 99.99th=[3850240]
    bw (KB  /s): min=    0, max=87800, per=100.00%, avg=49110.70, stdev=27936.50
    lat (usec) : 10=0.01%, 20=0.01%, 50=0.01%, 100=0.01%, 250=73.14%
    lat (usec) : 500=23.31%, 750=0.31%, 1000=0.06%
    lat (msec) : 2=0.09%, 4=0.12%, 10=0.44%, 20=0.71%, 50=1.70%
    lat (msec) : 100=0.06%, 250=0.01%, 500=0.01%, 750=0.01%, 1000=0.01%
    lat (msec) : 2000=0.01%, >=2000=0.02%
  cpu          : usr=0.50%, sys=2.38%, ctx=12730, majf=0, minf=11
  IO depths    : 1=0.1%, 2=0.1%, 4=0.1%, 8=0.1%, 16=100.0%, 32=0.0%, >=64=0.0%
     submit    : 0=0.0%, 4=100.0%, 8=0.0%, 16=0.0%, 32=0.0%, 64=0.0%, >=64=0.0%
     complete  : 0=0.0%, 4=100.0%, 8=0.0%, 16=0.1%, 32=0.0%, 64=0.0%, >=64=0.0%
     issued    : total=r=0/w=1152001/d=0, short=r=0/w=0/d=0, drop=r=0/w=0/d=0
     latency   : target=0, window=0, percentile=100.00%, depth=16
file1: (groupid=1, jobs=1): err= 0: pid=53: Tue Feb 16 12:13:01 2021
  write: io=4500.4MB, bw=7487.4KB/s, iops=1871, runt=615439msec
    slat (usec): min=6, max=78157K, avg=193.70, stdev=76615.96
    clat (usec): min=6, max=78158K, avg=3082.56, stdev=296994.70
     lat (usec): min=13, max=78158K, avg=3276.87, stdev=306744.39
    clat percentiles (usec):
     |  1.00th=[  169],  5.00th=[  173], 10.00th=[  177], 20.00th=[  181],
     | 30.00th=[  187], 40.00th=[  195], 50.00th=[  205], 60.00th=[  219],
     | 70.00th=[  241], 80.00th=[  270], 90.00th=[  314], 95.00th=[  374],
     | 99.00th=[30336], 99.50th=[31360], 99.90th=[50432], 99.95th=[321536],
     | 99.99th=[3883008]
    bw (KB  /s): min=    0, max=88864, per=100.00%, avg=48794.25, stdev=28118.96
    lat (usec) : 10=0.01%, 20=0.01%, 50=0.01%, 100=0.01%, 250=73.13%
    lat (usec) : 500=23.40%, 750=0.29%, 1000=0.05%
    lat (msec) : 2=0.09%, 4=0.11%, 10=0.43%, 20=0.70%, 50=1.70%
    lat (msec) : 100=0.06%, 250=0.01%, 500=0.01%, 750=0.01%, 1000=0.01%
    lat (msec) : 2000=0.01%, >=2000=0.02%
  cpu          : usr=0.50%, sys=2.40%, ctx=12554, majf=0, minf=11
  IO depths    : 1=0.1%, 2=0.1%, 4=0.1%, 8=0.1%, 16=100.0%, 32=0.0%, >=64=0.0%
     submit    : 0=0.0%, 4=100.0%, 8=0.0%, 16=0.0%, 32=0.0%, 64=0.0%, >=64=0.0%
     complete  : 0=0.0%, 4=100.0%, 8=0.0%, 16=0.1%, 32=0.0%, 64=0.0%, >=64=0.0%
     issued    : total=r=0/w=1152001/d=0, short=r=0/w=0/d=0, drop=r=0/w=0/d=0
     latency   : target=0, window=0, percentile=100.00%, depth=16
file1: (groupid=1, jobs=1): err= 0: pid=54: Tue Feb 16 12:13:01 2021
  write: io=4500.4MB, bw=7487.7KB/s, iops=1871, runt=615419msec
    slat (usec): min=6, max=77095K, avg=190.94, stdev=75686.49
    clat (usec): min=4, max=78163K, avg=3061.14, stdev=296675.65
     lat (usec): min=13, max=78163K, avg=3252.69, stdev=306423.75
    clat percentiles (usec):
     |  1.00th=[  169],  5.00th=[  173], 10.00th=[  175], 20.00th=[  181],
     | 30.00th=[  187], 40.00th=[  195], 50.00th=[  205], 60.00th=[  219],
     | 70.00th=[  241], 80.00th=[  270], 90.00th=[  314], 95.00th=[  378],
     | 99.00th=[30336], 99.50th=[30848], 99.90th=[50432], 99.95th=[164864],
     | 99.99th=[3850240]
    bw (KB  /s): min=    0, max=95608, per=100.00%, avg=48778.28, stdev=28001.92
    lat (usec) : 10=0.01%, 20=0.01%, 50=0.01%, 100=0.01%, 250=73.14%
    lat (usec) : 500=23.36%, 750=0.29%, 1000=0.06%
    lat (msec) : 2=0.09%, 4=0.12%, 10=0.41%, 20=0.71%, 50=1.71%
    lat (msec) : 100=0.05%, 250=0.01%, 500=0.01%, 750=0.01%, 1000=0.01%
    lat (msec) : 2000=0.01%, >=2000=0.02%
  cpu          : usr=0.53%, sys=2.37%, ctx=12695, majf=0, minf=11
  IO depths    : 1=0.1%, 2=0.1%, 4=0.1%, 8=0.1%, 16=100.0%, 32=0.0%, >=64=0.0%
     submit    : 0=0.0%, 4=100.0%, 8=0.0%, 16=0.0%, 32=0.0%, 64=0.0%, >=64=0.0%
     complete  : 0=0.0%, 4=100.0%, 8=0.0%, 16=0.1%, 32=0.0%, 64=0.0%, >=64=0.0%
     issued    : total=r=0/w=1152001/d=0, short=r=0/w=0/d=0, drop=r=0/w=0/d=0
     latency   : target=0, window=0, percentile=100.00%, depth=16
file1: (groupid=2, jobs=1): err= 0: pid=55: Tue Feb 16 12:13:01 2021
  read : io=47646MB, bw=81316KB/s, iops=317, runt=600001msec
    slat (msec): min=1, max=1256, avg= 3.13, stdev= 6.57
    clat (usec): min=12, max=1007.7K, avg=46810.66, stdev=26749.31
     lat (msec): min=1, max=2263, avg=49.95, stdev=28.29
    clat percentiles (msec):
     |  1.00th=[   30],  5.00th=[   32], 10.00th=[   33], 20.00th=[   33],
     | 30.00th=[   34], 40.00th=[   35], 50.00th=[   35], 60.00th=[   37],
     | 70.00th=[   45], 80.00th=[   66], 90.00th=[   77], 95.00th=[   93],
     | 99.00th=[  135], 99.50th=[  157], 99.90th=[  285], 99.95th=[  412],
     | 99.99th=[  635]
    bw (KB  /s): min=  113, max=115712, per=99.41%, avg=80838.89, stdev=20780.42
    lat (usec) : 20=0.05%, 50=0.01%
    lat (msec) : 2=0.01%, 4=0.05%, 10=0.14%, 20=0.21%, 50=72.04%
    lat (msec) : 100=23.62%, 250=3.75%, 500=0.13%, 750=0.01%, 1000=0.01%
    lat (msec) : 2000=0.01%
  cpu          : usr=0.62%, sys=1.99%, ctx=190802, majf=0, minf=522
  IO depths    : 1=0.1%, 2=0.1%, 4=0.2%, 8=0.4%, 16=99.2%, 32=0.0%, >=64=0.0%
     submit    : 0=0.0%, 4=100.0%, 8=0.0%, 16=0.0%, 32=0.0%, 64=0.0%, >=64=0.0%
     complete  : 0=0.0%, 4=99.9%, 8=0.0%, 16=0.1%, 32=0.0%, 64=0.0%, >=64=0.0%
     issued    : total=r=190584/w=0/d=0, short=r=0/w=0/d=0, drop=r=0/w=0/d=0
     latency   : target=0, window=0, percentile=100.00%, depth=16
file1: (groupid=3, jobs=1): err= 0: pid=56: Tue Feb 16 12:13:01 2021
  write: io=43000MB, bw=72924KB/s, iops=284, runt=603814msec
    slat (usec): min=99, max=4123.1K, avg=1335.49, stdev=44074.98
    clat (usec): min=7, max=3526.1K, avg=11302.14, stdev=102118.74
     lat (usec): min=116, max=4128.4K, avg=12638.31, stdev=111487.58
    clat percentiles (usec):
     |  1.00th=[ 1880],  5.00th=[ 2040], 10.00th=[ 2160], 20.00th=[ 2512],
     | 30.00th=[ 2832], 40.00th=[ 2992], 50.00th=[ 3088], 60.00th=[ 3216],
     | 70.00th=[ 3408], 80.00th=[ 4512], 90.00th=[20352], 95.00th=[40192],
     | 99.00th=[59136], 99.50th=[59136], 99.90th=[1974272], 99.95th=[2899968],
     | 99.99th=[3457024]
    bw (KB  /s): min=   29, max=990000, per=100.00%, avg=203302.79, stdev=311696.24
    lat (usec) : 10=0.02%, 20=0.02%, 50=0.01%, 100=0.01%, 250=0.04%
    lat (usec) : 500=0.06%, 750=0.06%, 1000=0.05%
    lat (msec) : 2=3.32%, 4=73.65%, 10=9.62%, 20=1.81%, 50=9.62%
    lat (msec) : 100=1.46%, 250=0.05%, 500=0.02%, 1000=0.03%, 2000=0.07%
    lat (msec) : >=2000=0.09%
  cpu          : usr=0.60%, sys=6.58%, ctx=13720, majf=0, minf=14
  IO depths    : 1=0.1%, 2=0.1%, 4=0.2%, 8=0.4%, 16=99.2%, 32=0.0%, >=64=0.0%
     submit    : 0=0.0%, 4=100.0%, 8=0.0%, 16=0.0%, 32=0.0%, 64=0.0%, >=64=0.0%
     complete  : 0=0.0%, 4=99.9%, 8=0.0%, 16=0.1%, 32=0.0%, 64=0.0%, >=64=0.0%
     issued    : total=r=0/w=172001/d=0, short=r=0/w=0/d=0, drop=r=0/w=0/d=0
     latency   : target=0, window=0, percentile=100.00%, depth=16

Run status group 0 (all jobs):
   READ: io=265232KB, aggrb=442KB/s, minb=442KB/s, maxb=442KB/s, mint=600002msec, maxt=600002msec

Run status group 1 (all jobs):
  WRITE: io=18500MB, aggrb=30780KB/s, minb=7487KB/s, maxb=8318KB/s, mint=615419msec, maxt=615462msec

Run status group 2 (all jobs):
   READ: io=47646MB, aggrb=81315KB/s, minb=81315KB/s, maxb=81315KB/s, mint=600001msec, maxt=600001msec

Run status group 3 (all jobs):
  WRITE: io=43000MB, aggrb=72923KB/s, minb=72923KB/s, maxb=72923KB/s, mint=603814msec, maxt=603814msec
file1: (g=0): rw=randread, bs=4K-4K/4K-4K/4K-4K, ioengine=libaio, iodepth=16
file1: (g=1): rw=randwrite, bs=4K-4K/4K-4K/4K-4K, ioengine=libaio, iodepth=16
...
file1: (g=2): rw=read, bs=256K-256K/256K-256K/256K-256K, ioengine=libaio, iodepth=16
file1: (g=3): rw=write, bs=256K-256K/256K-256K/256K-256K, ioengine=libaio, iodepth=16
fio-2.2.10
Starting 7 processes

file1: (groupid=0, jobs=1): err= 0: pid=59: Tue Feb 16 12:53:13 2021
  read : io=267064KB, bw=455786B/s, iops=111, runt=600003msec
    slat (usec): min=233, max=408878, avg=8965.64, stdev=7709.20
    clat (usec): min=20, max=1040.8K, avg=134775.83, stdev=33768.84
     lat (msec): min=8, max=1047, avg=143.74, stdev=35.05
    clat percentiles (msec):
     |  1.00th=[   84],  5.00th=[   95], 10.00th=[  102], 20.00th=[  111],
     | 30.00th=[  118], 40.00th=[  124], 50.00th=[  130], 60.00th=[  137],
     | 70.00th=[  147], 80.00th=[  157], 90.00th=[  174], 95.00th=[  188],
     | 99.00th=[  233], 99.50th=[  269], 99.90th=[  416], 99.95th=[  578],
     | 99.99th=[  791]
    bw (KB  /s): min=   66, max=  616, per=100.00%, avg=445.38, stdev=58.76
    lat (usec) : 50=0.01%
    lat (msec) : 10=0.01%, 20=0.01%, 50=0.01%, 100=8.48%, 250=90.81%
    lat (msec) : 500=0.63%, 750=0.06%, 1000=0.01%, 2000=0.01%
  cpu          : usr=0.26%, sys=0.72%, ctx=66832, majf=0, minf=24
  IO depths    : 1=0.1%, 2=0.1%, 4=0.1%, 8=0.1%, 16=100.0%, 32=0.0%, >=64=0.0%
     submit    : 0=0.0%, 4=100.0%, 8=0.0%, 16=0.0%, 32=0.0%, 64=0.0%, >=64=0.0%
     complete  : 0=0.0%, 4=100.0%, 8=0.0%, 16=0.1%, 32=0.0%, 64=0.0%, >=64=0.0%
     issued    : total=r=66766/w=0/d=0, short=r=0/w=0/d=0, drop=r=0/w=0/d=0
     latency   : target=0, window=0, percentile=100.00%, depth=16
file1: (groupid=1, jobs=1): err= 0: pid=60: Tue Feb 16 12:53:13 2021
  write: io=4912.9MB, bw=8281.1KB/s, iops=2070, runt=607343msec
    slat (usec): min=6, max=17201K, avg=148.35, stdev=29154.65
    clat (usec): min=6, max=17945K, avg=2375.59, stdev=115413.89
     lat (usec): min=13, max=17945K, avg=2524.64, stdev=119262.87
    clat percentiles (usec):
     |  1.00th=[  167],  5.00th=[  171], 10.00th=[  175], 20.00th=[  179],
     | 30.00th=[  185], 40.00th=[  193], 50.00th=[  203], 60.00th=[  217],
     | 70.00th=[  239], 80.00th=[  270], 90.00th=[  318], 95.00th=[  402],
     | 99.00th=[28032], 99.50th=[30848], 99.90th=[50432], 99.95th=[160768],
     | 99.99th=[3981312]
    bw (KB  /s): min=    0, max=238272, per=100.00%, avg=50906.67, stdev=32835.86
    lat (usec) : 10=0.01%, 20=0.01%, 50=0.01%, 100=0.01%, 250=73.51%
    lat (usec) : 500=22.80%, 750=0.70%, 1000=0.09%
    lat (msec) : 2=0.10%, 4=0.11%, 10=0.40%, 20=0.67%, 50=1.49%
    lat (msec) : 100=0.06%, 250=0.01%, 500=0.01%, 750=0.01%, 1000=0.01%
    lat (msec) : 2000=0.01%, >=2000=0.02%
  cpu          : usr=0.62%, sys=2.63%, ctx=15117, majf=0, minf=10
  IO depths    : 1=0.1%, 2=0.1%, 4=0.1%, 8=0.1%, 16=100.0%, 32=0.0%, >=64=0.0%
     submit    : 0=0.0%, 4=100.0%, 8=0.0%, 16=0.0%, 32=0.0%, 64=0.0%, >=64=0.0%
     complete  : 0=0.0%, 4=100.0%, 8=0.0%, 16=0.1%, 32=0.0%, 64=0.0%, >=64=0.0%
     issued    : total=r=0/w=1257493/d=0, short=r=0/w=0/d=0, drop=r=0/w=0/d=0
     latency   : target=0, window=0, percentile=100.00%, depth=16
file1: (groupid=1, jobs=1): err= 0: pid=61: Tue Feb 16 12:53:13 2021
  write: io=4903.8MB, bw=8267.1KB/s, iops=2066, runt=607337msec
    slat (usec): min=6, max=54786K, avg=189.66, stdev=56105.67
    clat (usec): min=6, max=66511K, avg=2969.22, stdev=247602.21
     lat (usec): min=13, max=66511K, avg=3159.62, stdev=255890.33
    clat percentiles (usec):
     |  1.00th=[  169],  5.00th=[  173], 10.00th=[  177], 20.00th=[  181],
     | 30.00th=[  187], 40.00th=[  195], 50.00th=[  205], 60.00th=[  219],
     | 70.00th=[  241], 80.00th=[  274], 90.00th=[  322], 95.00th=[  410],
     | 99.00th=[28032], 99.50th=[30848], 99.90th=[50432], 99.95th=[129536],
     | 99.99th=[3948544]
    bw (KB  /s): min=    0, max=104573, per=100.00%, avg=51758.45, stdev=29358.96
    lat (usec) : 10=0.01%, 20=0.01%, 50=0.01%, 100=0.01%, 250=72.90%
    lat (usec) : 500=23.17%, 750=0.70%, 1000=0.07%
    lat (msec) : 2=0.12%, 4=0.14%, 10=0.41%, 20=0.76%, 50=1.60%
    lat (msec) : 100=0.07%, 250=0.01%, 500=0.01%, 750=0.01%, 1000=0.01%
    lat (msec) : 2000=0.01%, >=2000=0.02%
  cpu          : usr=0.52%, sys=2.72%, ctx=13473, majf=0, minf=11
  IO depths    : 1=0.1%, 2=0.1%, 4=0.1%, 8=0.1%, 16=100.0%, 32=0.0%, >=64=0.0%
     submit    : 0=0.0%, 4=100.0%, 8=0.0%, 16=0.0%, 32=0.0%, 64=0.0%, >=64=0.0%
     complete  : 0=0.0%, 4=100.0%, 8=0.0%, 16=0.1%, 32=0.0%, 64=0.0%, >=64=0.0%
     issued    : total=r=0/w=1255352/d=0, short=r=0/w=0/d=0, drop=r=0/w=0/d=0
     latency   : target=0, window=0, percentile=100.00%, depth=16
file1: (groupid=1, jobs=1): err= 0: pid=62: Tue Feb 16 12:53:13 2021
  write: io=4905.1MB, bw=8271.7KB/s, iops=2067, runt=607336msec
    slat (usec): min=6, max=66485K, avg=185.51, stdev=64354.08
    clat (usec): min=6, max=66488K, avg=2920.15, stdev=248745.18
     lat (usec): min=13, max=66488K, avg=3106.45, stdev=256936.79
    clat percentiles (usec):
     |  1.00th=[  169],  5.00th=[  173], 10.00th=[  177], 20.00th=[  181],
     | 30.00th=[  187], 40.00th=[  195], 50.00th=[  205], 60.00th=[  219],
     | 70.00th=[  241], 80.00th=[  274], 90.00th=[  322], 95.00th=[  410],
     | 99.00th=[28032], 99.50th=[30592], 99.90th=[50432], 99.95th=[248832],
     | 99.99th=[3489792]
    bw (KB  /s): min=    0, max=105457, per=100.00%, avg=51644.67, stdev=29631.49
    lat (usec) : 10=0.01%, 20=0.01%, 50=0.01%, 100=0.01%, 250=72.84%
    lat (usec) : 500=23.23%, 750=0.69%, 1000=0.10%
    lat (msec) : 2=0.11%, 4=0.14%, 10=0.42%, 20=0.80%, 50=1.55%
    lat (msec) : 100=0.06%, 250=0.01%, 500=0.01%, 750=0.01%, 1000=0.01%
    lat (msec) : 2000=0.01%, >=2000=0.02%
  cpu          : usr=0.57%, sys=2.66%, ctx=13626, majf=0, minf=11
  IO depths    : 1=0.1%, 2=0.1%, 4=0.1%, 8=0.1%, 16=100.0%, 32=0.0%, >=64=0.0%
     submit    : 0=0.0%, 4=100.0%, 8=0.0%, 16=0.0%, 32=0.0%, 64=0.0%, >=64=0.0%
     complete  : 0=0.0%, 4=100.0%, 8=0.0%, 16=0.1%, 32=0.0%, 64=0.0%, >=64=0.0%
     issued    : total=r=0/w=1255919/d=0, short=r=0/w=0/d=0, drop=r=0/w=0/d=0
     latency   : target=0, window=0, percentile=100.00%, depth=16
file1: (groupid=1, jobs=1): err= 0: pid=63: Tue Feb 16 12:53:13 2021
  write: io=4600.4MB, bw=7756.8KB/s, iops=1939, runt=607308msec
    slat (usec): min=6, max=66480K, avg=209.95, stdev=74878.45
    clat (usec): min=7, max=66500K, avg=2719.51, stdev=249581.39
     lat (usec): min=13, max=66500K, avg=2930.07, stdev=260714.19
    clat percentiles (usec):
     |  1.00th=[  169],  5.00th=[  173], 10.00th=[  177], 20.00th=[  181],
     | 30.00th=[  189], 40.00th=[  199], 50.00th=[  209], 60.00th=[  221],
     | 70.00th=[  245], 80.00th=[  274], 90.00th=[  322], 95.00th=[  382],
     | 99.00th=[27264], 99.50th=[30592], 99.90th=[47872], 99.95th=[70144],
     | 99.99th=[3489792]
    bw (KB  /s): min=    0, max=233320, per=100.00%, avg=52348.87, stdev=40149.72
    lat (usec) : 10=0.01%, 20=0.01%, 50=0.01%, 100=0.01%, 250=71.95%
    lat (usec) : 500=24.83%, 750=0.45%, 1000=0.06%
    lat (msec) : 2=0.07%, 4=0.11%, 10=0.34%, 20=0.64%, 50=1.44%
    lat (msec) : 100=0.05%, 250=0.01%, 500=0.01%, 750=0.01%, 1000=0.01%
    lat (msec) : 2000=0.01%, >=2000=0.02%
  cpu          : usr=0.59%, sys=2.51%, ctx=12963, majf=0, minf=11
  IO depths    : 1=0.1%, 2=0.1%, 4=0.1%, 8=0.1%, 16=100.0%, 32=0.0%, >=64=0.0%
     submit    : 0=0.0%, 4=100.0%, 8=0.0%, 16=0.0%, 32=0.0%, 64=0.0%, >=64=0.0%
     complete  : 0=0.0%, 4=100.0%, 8=0.0%, 16=0.1%, 32=0.0%, 64=0.0%, >=64=0.0%
     issued    : total=r=0/w=1177682/d=0, short=r=0/w=0/d=0, drop=r=0/w=0/d=0
     latency   : target=0, window=0, percentile=100.00%, depth=16
file1: (groupid=2, jobs=1): err= 0: pid=64: Tue Feb 16 12:53:13 2021
  read : io=57776MB, bw=98604KB/s, iops=385, runt=600004msec
    slat (msec): min=1, max=2393, avg= 2.58, stdev=13.41
    clat (usec): min=12, max=15002K, avg=38288.47, stdev=112182.57
     lat (msec): min=1, max=15006, avg=40.87, stdev=118.12
    clat percentiles (msec):
     |  1.00th=[   29],  5.00th=[   32], 10.00th=[   33], 20.00th=[   33],
     | 30.00th=[   33], 40.00th=[   34], 50.00th=[   35], 60.00th=[   35],
     | 70.00th=[   36], 80.00th=[   39], 90.00th=[   46], 95.00th=[   54],
     | 99.00th=[   83], 99.50th=[   96], 99.90th=[  293], 99.95th=[  375],
     | 99.99th=[ 4555]
    bw (KB  /s): min=   27, max=116224, per=100.00%, avg=101198.14, stdev=15805.85
    lat (usec) : 20=0.04%, 50=0.01%
    lat (msec) : 2=0.01%, 4=0.05%, 10=0.15%, 20=0.24%, 50=91.86%
    lat (msec) : 100=7.20%, 250=0.33%, 500=0.11%, 750=0.01%, 2000=0.01%
    lat (msec) : >=2000=0.01%
  cpu          : usr=0.64%, sys=2.33%, ctx=231363, majf=0, minf=522
  IO depths    : 1=0.1%, 2=0.1%, 4=0.2%, 8=0.4%, 16=99.2%, 32=0.0%, >=64=0.0%
     submit    : 0=0.0%, 4=100.0%, 8=0.0%, 16=0.0%, 32=0.0%, 64=0.0%, >=64=0.0%
     complete  : 0=0.0%, 4=99.9%, 8=0.0%, 16=0.1%, 32=0.0%, 64=0.0%, >=64=0.0%
     issued    : total=r=231104/w=0/d=0, short=r=0/w=0/d=0, drop=r=0/w=0/d=0
     latency   : target=0, window=0, percentile=100.00%, depth=16
file1: (groupid=3, jobs=1): err= 0: pid=65: Tue Feb 16 12:53:13 2021
  write: io=44000MB, bw=74879KB/s, iops=292, runt=601719msec
    slat (usec): min=90, max=4007.9K, avg=1406.78, stdev=40574.48
    clat (usec): min=7, max=4011.5K, avg=15546.45, stdev=121741.65
     lat (usec): min=119, max=4011.3K, avg=16953.87, stdev=128450.61
    clat percentiles (usec):
     |  1.00th=[ 1816],  5.00th=[ 1960], 10.00th=[ 2064], 20.00th=[ 2352],
     | 30.00th=[ 2768], 40.00th=[ 2928], 50.00th=[ 3056], 60.00th=[ 3184],
     | 70.00th=[ 3408], 80.00th=[ 4640], 90.00th=[40192], 95.00th=[59648],
     | 99.00th=[79360], 99.50th=[89600], 99.90th=[2473984], 99.95th=[2998272],
     | 99.99th=[3915776]
    bw (KB  /s): min=   32, max=978432, per=100.00%, avg=197094.44, stdev=292780.77
    lat (usec) : 10=0.03%, 20=0.02%, 100=0.01%, 250=0.06%, 500=0.07%
    lat (usec) : 750=0.07%, 1000=0.07%
    lat (msec) : 2=6.83%, 4=68.61%, 10=8.09%, 20=0.85%, 50=8.47%
    lat (msec) : 100=6.51%, 250=0.07%, 750=0.01%, 1000=0.01%, 2000=0.09%
    lat (msec) : >=2000=0.15%
  cpu          : usr=0.58%, sys=6.45%, ctx=15897, majf=0, minf=11
  IO depths    : 1=0.1%, 2=0.1%, 4=0.2%, 8=0.4%, 16=99.2%, 32=0.0%, >=64=0.0%
     submit    : 0=0.0%, 4=100.0%, 8=0.0%, 16=0.0%, 32=0.0%, 64=0.0%, >=64=0.0%
     complete  : 0=0.0%, 4=99.9%, 8=0.0%, 16=0.1%, 32=0.0%, 64=0.0%, >=64=0.0%
     issued    : total=r=0/w=176001/d=0, short=r=0/w=0/d=0, drop=r=0/w=0/d=0
     latency   : target=0, window=0, percentile=100.00%, depth=16

Run status group 0 (all jobs):
   READ: io=267064KB, aggrb=445KB/s, minb=445KB/s, maxb=445KB/s, mint=600003msec, maxt=600003msec

Run status group 1 (all jobs):
  WRITE: io=19322MB, aggrb=32577KB/s, minb=7756KB/s, maxb=8281KB/s, mint=607308msec, maxt=607343msec

Run status group 2 (all jobs):
   READ: io=57776MB, aggrb=98603KB/s, minb=98603KB/s, maxb=98603KB/s, mint=600004msec, maxt=600004msec

Run status group 3 (all jobs):
  WRITE: io=44000MB, aggrb=74879KB/s, minb=74879KB/s, maxb=74879KB/s, mint=601719msec, maxt=601719msec
