0.0028829574585
0.00380492210388
0.163138866425
0.0655360221863
0.14781498909
0.0672700405121
0.106685161591
0.11097407341
0.178823947906
0.0866370201111
0.0966970920563
0.107578039169
0.158246040344
0.0660998821259
0.095242023468
0.0831899642944
0.0553259849548
0.0960178375244
0.0878069400787
0.0718660354614
0.105885028839
0.0865252017975
0.107746839523
0.0724558830261
0.163205862045
0.0103800296783
0.17466211319
0.0695669651031
0.0870161056519
0.113940954208
0.0788328647614
0.0849149227142
0.156785011292
0.064640045166
0.10821390152
0.096442937851
0.0883810520172
0.100287914276
0.12202501297
0.0680530071259
0.107988119125
0.12669301033
0.046441078186
0.101510047913
0.0604360103607
0.142088890076
0.0853979587555
0.0940828323364
0.117783069611
0.0440769195557
0.152480840683
0.0113348960876
0.121517896652
0.0662240982056
0.148293018341
0.0881159305573
0.0932960510254
0.060259103775
0.104825973511
0.0735151767731
0.0757169723511
0.0903680324554
0.13759303093
0.0706930160522
0.0882039070129
0.0913739204407
0.0729918479919
0.0880889892578
0.107894182205
0.096853017807
0.110657930374
0.0679821968079
0.139798164368
0.0971820354462
0.0739331245422
0.0877590179443
0.0785441398621
0.1119120121
0.122362852097
0.0503261089325
0.0870819091797
0.062343120575
0.129577875137
0.0787308216095
0.111709833145
0.123111009598
0.0418548583984
0.0992608070374
0.131499052048
0.035572052002
0.0980749130249
0.0640888214111
0.120454072952
0.0743138790131
0.103632926941
0.120020866394
0.0316169261932
0.0949709415436
0.111387014389
0.0572879314423
