fio_tests,pass_1,pass_2,pass_3,pass_4,pass_5,pass_6,Avg
CPU (Events / s),733.49,732.41,732.55,733.62,734.65,732.89,733.27
Memory (MB / s),2109.71,2114.34,2113.79,2108.75,2091.75,2108.38,2107.79
I/O Read (MB /s),521.87,519.01,521.77,1.84,6.80,520.61,348.65
I/O Write (MB /s),3.38,3.42,3.25,2.92,2.90,2.76,3.11